  0
SECTION
  2
HEADER
  9
$ACADVER
  1
AC1014
  9
$HANDSEED
  5
FFFF
  9
$MEASUREMENT
 70
     1
  0
ENDSEC
  0
SECTION
  2
TABLES
  0
TABLE
  2
VPORT
  5
8
330
0
100
AcDbSymbolTable
 70
     4
  0
VPORT
  5
2E
330
8
100
AcDbSymbolTableRecord
100
AcDbViewportTableRecord
  2
*ACTIVE
 70
     0
 10
0.0
 20
0.0
 11
1.0
 21
1.0
 12
210.0
 22
148.5
 13
0.0
 23
0.0
 14
10.0
 24
10.0
 15
10.0
 25
10.0
 16
0.0
 26
0.0
 36
1.0
 17
0.0
 27
0.0
 37
0.0
 40
341.0
 41
1.24
 42
50.0
 43
0.0
 44
0.0
 50
0.0
 51
0.0
 71
     0
 72
   100
 73
     1
 74
     3
 75
     0
 76
     0
 77
     0
 78
     0
  0
ENDTAB
  0
TABLE
  2
LTYPE
  5
5
330
0
100
AcDbSymbolTable
 70
     1
  0
LTYPE
  5
14
330
5
100
AcDbSymbolTableRecord
100
AcDbLinetypeTableRecord
  2
BYBLOCK
 70
     0
  3

 72
    65
 73
     0
 40
0.0
  0
LTYPE
  5
15
330
5
100
AcDbSymbolTableRecord
100
AcDbLinetypeTableRecord
  2
BYLAYER
 70
     0
  3

 72
    65
 73
     0
 40
0.0
  0
LTYPE
  5
16
330
5
100
AcDbSymbolTableRecord
100
AcDbLinetypeTableRecord
  2
CONTINUOUS
 70
     0
  3
Solid line
 72
    65
 73
     0
 40
0.0
  0
ENDTAB
  0
TABLE
  2
LAYER
  5
2
100
AcDbSymbolTable
 70
1
  0
LAYER
  5
50
100
AcDbSymbolTableRecord
100
AcDbLayerTableRecord
  2
0
 70
0
  6
CONTINUOUS
  0
ENDTAB
  0
TABLE
  2
STYLE
  5
3
330
0
100
AcDbSymbolTable
 70
     1
  0
STYLE
  5
11
330
3
100
AcDbSymbolTableRecord
100
AcDbTextStyleTableRecord
  2
STANDARD
 70
     0
 40
0.0
 41
1.0
 50
0.0
 71
     0
 42
2.5
  3
txt
  4

  0
ENDTAB
  0
TABLE
  2
VIEW
  5
6
330
0
100
AcDbSymbolTable
 70
     0
  0
ENDTAB
  0
TABLE
  2
UCS
  5
7
330
0
100
AcDbSymbolTable
 70
     0
  0
ENDTAB
  0
TABLE
  2
APPID
  5
9
330
0
100
AcDbSymbolTable
 70
     2
  0
APPID
  5
12
330
9
100
AcDbSymbolTableRecord
100
AcDbRegAppTableRecord
  2
ACAD
 70
     0
  0
ENDTAB
  0
TABLE
  2
DIMSTYLE
  5
A
330
0
100
AcDbSymbolTable
 70
     1
  0
DIMSTYLE
105
27
330
A
100
AcDbSymbolTableRecord
100
AcDbDimStyleTableRecord
  2
ISO-25
 70
     0
  3

  4

  5

  6

  7

 40
1.0
 41
2.5
 42
0.625
 43
3.75
 44
1.25
 45
0.0
 46
0.0
 47
0.0
 48
0.0
140
2.5
141
2.5
142
0.0
143
0.03937007874016
144
1.0
145
0.0
146
1.0
147
0.625
 71
     0
 72
     0
 73
     0
 74
     0
 75
     0
 76
     0
 77
     1
 78
     8
170
     0
171
     3
172
     1
173
     0
174
     0
175
     0
176
     0
177
     0
178
     0
270
     2
271
     2
272
     2
273
     2
274
     3
340
11
275
     0
280
     0
281
     0
282
     0
283
     0
284
     8
285
     0
286
     0
287
     3
288
     0
  0
ENDTAB
  0
TABLE
  2
BLOCK_RECORD
  5
1
330
0
100
AcDbSymbolTable
 70
     1
  0
BLOCK_RECORD
  5
1F
330
1
100
AcDbSymbolTableRecord
100
AcDbBlockTableRecord
  2
*MODEL_SPACE
  0
BLOCK_RECORD
  5
1B
330
1
100
AcDbSymbolTableRecord
100
AcDbBlockTableRecord
  2
*PAPER_SPACE
  0
ENDTAB
  0
ENDSEC
  0
SECTION
  2
BLOCKS
  0
BLOCK
  5
20
330
1F
100
AcDbEntity
  8
0
100
AcDbBlockBegin
  2
*MODEL_SPACE
 70
     0
 10
0.0
 20
0.0
 30
0.0
  3
*MODEL_SPACE
  1

  0
ENDBLK
  5
21
330
1F
100
AcDbEntity
  8
0
100
AcDbBlockEnd
  0
BLOCK
  5
1C
330
1B
100
AcDbEntity
 67
     1
  8
0
100
AcDbBlockBegin
  2
*PAPER_SPACE
  1

  0
ENDBLK
  5
1D
330
1B
100
AcDbEntity
 67
     1
  8
0
100
AcDbBlockEnd
  0
ENDSEC
  0
SECTION
  2
ENTITIES
  0
SPLINE
  5
100
100
AcDbEntity
  8
0
 62
7
100
AcDbSpline
 70
8
 71
3
 72
8
 73
4
 74
0
 40
0
 40
0
 40
0
 40
0
 40
1
 40
1
 40
1
 40
1
 10
219.647250
 20
175.849500
 30
0.0
 10
221.254500
 20
176.251500
 30
0.0
 10
222.231750
 20
177.880500
 30
0.0
 10
221.830500
 20
179.487750
 30
0.0
  0
SPLINE
  5
101
100
AcDbEntity
  8
0
 62
7
100
AcDbSpline
 70
8
 71
3
 72
8
 73
4
 74
0
 40
0
 40
0
 40
0
 40
0
 40
1
 40
1
 40
1
 40
1
 10
221.830500
 20
179.487750
 30
0.0
 10
221.427750
 20
181.095000
 30
0.0
 10
219.795750
 20
182.073000
 30
0.0
 10
218.192250
 20
181.670250
 30
0.0
  0
LWPOLYLINE
  5
102
100
AcDbEntity
  8
0
 62
7
100
AcDbPolyline
 90
3
 70
0
 10
247.253250
 20
13.187250
 30
0.0
 10
214.725000
 20
174.618750
 30
0.0
 10
219.647250
 20
175.849500
 30
0.0
  0
SPLINE
  5
103
100
AcDbEntity
  8
0
 62
7
100
AcDbSpline
 70
8
 71
3
 72
8
 73
4
 74
0
 40
0
 40
0
 40
0
 40
0
 40
1
 40
1
 40
1
 40
1
 10
203.562750
 20
230.012250
 30
0.0
 10
202.472250
 20
235.425750
 30
0.0
 10
197.676750
 20
239.355000
 30
0.0
 10
192.161250
 20
239.355000
 30
0.0
  0
SPLINE
  5
104
100
AcDbEntity
  8
0
 62
7
100
AcDbSpline
 70
8
 71
3
 72
8
 73
4
 74
0
 40
0
 40
0
 40
0
 40
0
 40
1
 40
1
 40
1
 40
1
 10
192.161250
 20
239.355000
 30
0.0
 10
191.390250
 20
239.355000
 30
0.0
 10
190.613250
 20
239.277000
 30
0.0
 10
189.852750
 20
239.124000
 30
0.0
  0
SPLINE
  5
105
100
AcDbEntity
  8
0
 62
7
100
AcDbSpline
 70
8
 71
3
 72
8
 73
4
 74
0
 40
0
 40
0
 40
0
 40
0
 40
1
 40
1
 40
1
 40
1
 10
189.852750
 20
239.124000
 30
0.0
 10
188.889750
 20
238.929750
 30
0.0
 10
187.908750
 20
238.831500
 30
0.0
 10
186.936750
 20
238.831500
 30
0.0
  0
SPLINE
  5
106
100
AcDbEntity
  8
0
 62
7
100
AcDbSpline
 70
8
 71
3
 72
8
 73
4
 74
0
 40
0
 40
0
 40
0
 40
0
 40
1
 40
1
 40
1
 40
1
 10
186.936750
 20
238.831500
 30
0.0
 10
183.354000
 20
238.831500
 30
0.0
 10
180.019500
 20
240.156000
 30
0.0
 10
177.435000
 20
242.370000
 30
0.0
  0
SPLINE
  5
107
100
AcDbEntity
  8
0
 62
7
100
AcDbSpline
 70
8
 71
3
 72
8
 73
4
 74
0
 40
0
 40
0
 40
0
 40
0
 40
1
 40
1
 40
1
 40
1
 10
177.435000
 20
242.370000
 30
0.0
 10
189.502500
 20
245.961000
 30
0.0
 10
197.625750
 20
253.427250
 30
0.0
 10
199.484250
 20
262.878000
 30
0.0
  0
SPLINE
  5
108
100
AcDbEntity
  8
0
 62
7
100
AcDbSpline
 70
8
 71
3
 72
8
 73
4
 74
0
 40
0
 40
0
 40
0
 40
0
 40
1
 40
1
 40
1
 40
1
 10
199.484250
 20
262.878000
 30
0.0
 10
201.139500
 20
271.293750
 30
0.0
 10
197.694000
 20
280.088250
 30
0.0
 10
189.783000
 20
287.643000
 30
0.0
  0
SPLINE
  5
109
100
AcDbEntity
  8
0
 62
7
100
AcDbSpline
 70
8
 71
3
 72
8
 73
4
 74
0
 40
0
 40
0
 40
0
 40
0
 40
1
 40
1
 40
1
 40
1
 10
189.783000
 20
287.643000
 30
0.0
 10
182.229750
 20
294.855750
 30
0.0
 10
171.400500
 20
300.140250
 30
0.0
 10
159.291000
 20
302.521500
 30
0.0
  0
SPLINE
  5
10a
100
AcDbEntity
  8
0
 62
7
100
AcDbSpline
 70
8
 71
3
 72
8
 73
4
 74
0
 40
0
 40
0
 40
0
 40
0
 40
1
 40
1
 40
1
 40
1
 10
159.291000
 20
302.521500
 30
0.0
 10
159.088500
 20
302.561250
 30
0.0
 10
158.884500
 20
302.595000
 30
0.0
 10
158.680500
 20
302.627250
 30
0.0
  0
SPLINE
  5
10b
100
AcDbEntity
  8
0
 62
7
100
AcDbSpline
 70
8
 71
3
 72
8
 73
4
 74
0
 40
0
 40
0
 40
0
 40
0
 40
1
 40
1
 40
1
 40
1
 10
158.680500
 20
302.627250
 30
0.0
 10
157.677750
 20
302.785500
 30
0.0
 10
156.663750
 20
302.427000
 30
0.0
 10
155.985000
 20
301.674000
 30
0.0
  0
SPLINE
  5
10c
100
AcDbEntity
  8
0
 62
7
100
AcDbSpline
 70
8
 71
3
 72
8
 73
4
 74
0
 40
0
 40
0
 40
0
 40
0
 40
1
 40
1
 40
1
 40
1
 10
155.985000
 20
301.674000
 30
0.0
 10
155.306250
 20
300.921000
 30
0.0
 10
155.052750
 20
299.876250
 30
0.0
 10
155.313000
 20
298.895250
 30
0.0
  0
LWPOLYLINE
  5
10d
100
AcDbEntity
  8
0
 62
7
100
AcDbPolyline
 90
3
 70
0
 10
218.192250
 20
181.670250
 30
0.0
 10
213.538500
 20
180.507000
 30
0.0
 10
203.562750
 20
230.012250
 30
0.0
  0
SPLINE
  5
10e
100
AcDbEntity
  8
0
 62
7
100
AcDbSpline
 70
8
 71
3
 72
8
 73
4
 74
0
 40
0
 40
0
 40
0
 40
0
 40
1
 40
1
 40
1
 40
1
 10
157.774500
 20
289.602750
 30
0.0
 10
158.003250
 20
288.740250
 30
0.0
 10
158.603250
 20
288.024000
 30
0.0
 10
159.414000
 20
287.649000
 30
0.0
  0
SPLINE
  5
10f
100
AcDbEntity
  8
0
 62
7
100
AcDbSpline
 70
8
 71
3
 72
8
 73
4
 74
0
 40
0
 40
0
 40
0
 40
0
 40
1
 40
1
 40
1
 40
1
 10
159.414000
 20
287.649000
 30
0.0
 10
168.366000
 20
283.504500
 30
0.0
 10
173.713500
 20
277.329750
 30
0.0
 10
172.721250
 20
272.284500
 30
0.0
  0
SPLINE
  5
110
100
AcDbEntity
  8
0
 62
7
100
AcDbSpline
 70
8
 71
3
 72
8
 73
4
 74
0
 40
0
 40
0
 40
0
 40
0
 40
1
 40
1
 40
1
 40
1
 10
172.721250
 20
272.284500
 30
0.0
 10
172.059750
 20
268.921500
 30
0.0
 10
168.642000
 20
266.124000
 30
0.0
 10
163.277250
 20
264.501750
 30
0.0
  0
SPLINE
  5
111
100
AcDbEntity
  8
0
 62
7
100
AcDbSpline
 70
8
 71
3
 72
8
 73
4
 74
0
 40
0
 40
0
 40
0
 40
0
 40
1
 40
1
 40
1
 40
1
 10
163.277250
 20
264.501750
 30
0.0
 10
159.691500
 20
266.942250
 30
0.0
 10
155.386500
 20
268.355250
 30
0.0
 10
150.828000
 20
268.355250
 30
0.0
  0
SPLINE
  5
112
100
AcDbEntity
  8
0
 62
7
100
AcDbSpline
 70
8
 71
3
 72
8
 73
4
 74
0
 40
0
 40
0
 40
0
 40
0
 40
1
 40
1
 40
1
 40
1
 10
150.828000
 20
268.355250
 30
0.0
 10
148.842000
 20
268.355250
 30
0.0
 10
146.850000
 20
268.086000
 30
0.0
 10
144.909000
 20
267.555750
 30
0.0
  0
SPLINE
  5
113
100
AcDbEntity
  8
0
 62
7
100
AcDbSpline
 70
8
 71
3
 72
8
 73
4
 74
0
 40
0
 40
0
 40
0
 40
0
 40
1
 40
1
 40
1
 40
1
 10
144.909000
 20
267.555750
 30
0.0
 10
142.407000
 20
266.871750
 30
0.0
 10
140.109000
 20
265.761750
 30
0.0
 10
138.072000
 20
264.326250
 30
0.0
  0
SPLINE
  5
114
100
AcDbEntity
  8
0
 62
7
100
AcDbSpline
 70
8
 71
3
 72
8
 73
4
 74
0
 40
0
 40
0
 40
0
 40
0
 40
1
 40
1
 40
1
 40
1
 10
138.072000
 20
264.326250
 30
0.0
 10
132.780750
 20
265.933500
 30
0.0
 10
129.404250
 20
268.693500
 30
0.0
 10
128.737500
 20
272.022000
 30
0.0
  0
SPLINE
  5
115
100
AcDbEntity
  8
0
 62
7
100
AcDbSpline
 70
8
 71
3
 72
8
 73
4
 74
0
 40
0
 40
0
 40
0
 40
0
 40
1
 40
1
 40
1
 40
1
 10
128.737500
 20
272.022000
 30
0.0
 10
127.716750
 20
277.062000
 30
0.0
 10
133.035750
 20
283.260000
 30
0.0
 10
141.972000
 20
287.444250
 30
0.0
  0
SPLINE
  5
116
100
AcDbEntity
  8
0
 62
7
100
AcDbSpline
 70
8
 71
3
 72
8
 73
4
 74
0
 40
0
 40
0
 40
0
 40
0
 40
1
 40
1
 40
1
 40
1
 10
141.972000
 20
287.444250
 30
0.0
 10
142.781250
 20
287.823000
 30
0.0
 10
143.379000
 20
288.543000
 30
0.0
 10
143.604000
 20
289.407750
 30
0.0
  0
LWPOLYLINE
  5
117
100
AcDbEntity
  8
0
 62
7
100
AcDbPolyline
 90
2
 70
0
 10
155.313000
 20
298.895250
 30
0.0
 10
157.774500
 20
289.602750
 30
0.0
  0
SPLINE
  5
118
100
AcDbEntity
  8
0
 62
7
100
AcDbSpline
 70
8
 71
3
 72
8
 73
4
 74
0
 40
0
 40
0
 40
0
 40
0
 40
1
 40
1
 40
1
 40
1
 10
146.019000
 20
298.715250
 30
0.0
 10
146.276250
 20
299.706000
 30
0.0
 10
146.009250
 20
300.760500
 30
0.0
 10
145.313250
 20
301.510500
 30
0.0
  0
SPLINE
  5
119
100
AcDbEntity
  8
0
 62
7
100
AcDbSpline
 70
8
 71
3
 72
8
 73
4
 74
0
 40
0
 40
0
 40
0
 40
0
 40
1
 40
1
 40
1
 40
1
 10
145.313250
 20
301.510500
 30
0.0
 10
144.616500
 20
302.260500
 30
0.0
 10
143.582250
 20
302.603250
 30
0.0
 10
142.577250
 20
302.419500
 30
0.0
  0
LWPOLYLINE
  5
11a
100
AcDbEntity
  8
0
 62
7
100
AcDbPolyline
 90
2
 70
0
 10
143.604000
 20
289.407750
 30
0.0
 10
146.019000
 20
298.715250
 30
0.0
  0
SPLINE
  5
11b
100
AcDbEntity
  8
0
 62
7
100
AcDbSpline
 70
8
 71
3
 72
8
 73
4
 74
0
 40
0
 40
0
 40
0
 40
0
 40
1
 40
1
 40
1
 40
1
 10
142.027500
 20
302.319000
 30
0.0
 10
129.928500
 20
299.883000
 30
0.0
 10
119.124000
 20
294.549000
 30
0.0
 10
111.603750
 20
287.300250
 30
0.0
  0
SPLINE
  5
11c
100
AcDbEntity
  8
0
 62
7
100
AcDbSpline
 70
8
 71
3
 72
8
 73
4
 74
0
 40
0
 40
0
 40
0
 40
0
 40
1
 40
1
 40
1
 40
1
 10
111.603750
 20
287.300250
 30
0.0
 10
103.727250
 20
279.708750
 30
0.0
 10
100.321500
 20
270.896250
 30
0.0
 10
102.015000
 20
262.485750
 30
0.0
  0
SPLINE
  5
11d
100
AcDbEntity
  8
0
 62
7
100
AcDbSpline
 70
8
 71
3
 72
8
 73
4
 74
0
 40
0
 40
0
 40
0
 40
0
 40
1
 40
1
 40
1
 40
1
 10
102.015000
 20
262.485750
 30
0.0
 10
103.904250
 20
253.101000
 30
0.0
 10
111.945000
 20
245.728500
 30
0.0
 10
123.888000
 20
242.163750
 30
0.0
  0
SPLINE
  5
11e
100
AcDbEntity
  8
0
 62
7
100
AcDbSpline
 70
8
 71
3
 72
8
 73
4
 74
0
 40
0
 40
0
 40
0
 40
0
 40
1
 40
1
 40
1
 40
1
 10
123.888000
 20
242.163750
 30
0.0
 10
120.616500
 20
239.483250
 30
0.0
 10
116.219250
 20
238.226250
 30
0.0
 10
111.756000
 20
239.104500
 30
0.0
  0
SPLINE
  5
11f
100
AcDbEntity
  8
0
 62
7
100
AcDbSpline
 70
8
 71
3
 72
8
 73
4
 74
0
 40
0
 40
0
 40
0
 40
0
 40
1
 40
1
 40
1
 40
1
 10
111.756000
 20
239.104500
 30
0.0
 10
108.705750
 20
239.703750
 30
0.0
 10
105.603000
 20
239.080500
 30
0.0
 10
103.021500
 20
237.348000
 30
0.0
  0
SPLINE
  5
120
100
AcDbEntity
  8
0
 62
7
100
AcDbSpline
 70
8
 71
3
 72
8
 73
4
 74
0
 40
0
 40
0
 40
0
 40
0
 40
1
 40
1
 40
1
 40
1
 10
103.021500
 20
237.348000
 30
0.0
 10
100.440000
 20
235.614750
 30
0.0
 10
98.688000
 20
232.980000
 30
0.0
 10
98.088000
 20
229.929750
 30
0.0
  0
LWPOLYLINE
  5
121
100
AcDbEntity
  8
0
 62
7
100
AcDbPolyline
 90
2
 70
0
 10
142.577250
 20
302.419500
 30
0.0
 10
142.027500
 20
302.319000
 30
0.0
  0
SPLINE
  5
122
100
AcDbEntity
  8
0
 62
7
100
AcDbSpline
 70
8
 71
3
 72
8
 73
4
 74
0
 40
0
 40
0
 40
0
 40
0
 40
1
 40
1
 40
1
 40
1
 10
83.700000
 20
181.669500
 30
0.0
 10
82.095750
 20
182.072250
 30
0.0
 10
80.463750
 20
181.094250
 30
0.0
 10
80.061750
 20
179.487000
 30
0.0
  0
SPLINE
  5
123
100
AcDbEntity
  8
0
 62
7
100
AcDbSpline
 70
8
 71
3
 72
8
 73
4
 74
0
 40
0
 40
0
 40
0
 40
0
 40
1
 40
1
 40
1
 40
1
 10
80.061750
 20
179.487000
 30
0.0
 10
79.660500
 20
177.879750
 30
0.0
 10
80.637750
 20
176.250750
 30
0.0
 10
82.245000
 20
175.848750
 30
0.0
  0
LWPOLYLINE
  5
124
100
AcDbEntity
  8
0
 62
7
100
AcDbPolyline
 90
3
 70
0
 10
98.088000
 20
229.929750
 30
0.0
 10
88.365000
 20
180.503250
 30
0.0
 10
83.700000
 20
181.669500
 30
0.0
  0
SPLINE
  5
125
100
AcDbEntity
  8
0
 62
7
100
AcDbSpline
 70
8
 71
3
 72
8
 73
4
 74
0
 40
0
 40
0
 40
0
 40
0
 40
1
 40
1
 40
1
 40
1
 10
55.400250
 20
12.905250
 30
0.0
 10
54.249750
 20
7.053000
 30
0.0
 10
58.074000
 20
1.355250
 30
0.0
 10
63.926250
 20
0.204750
 30
0.0
  0
SPLINE
  5
126
100
AcDbEntity
  8
0
 62
7
100
AcDbSpline
 70
8
 71
3
 72
8
 73
4
 74
0
 40
0
 40
0
 40
0
 40
0
 40
1
 40
1
 40
1
 40
1
 10
63.926250
 20
0.204750
 30
0.0
 10
64.629000
 20
0.066750
 30
0.0
 10
65.328000
 20
-0.000000
 30
0.0
 10
66.018000
 20
-0.000000
 30
0.0
  0
SPLINE
  5
127
100
AcDbEntity
  8
0
 62
7
100
AcDbSpline
 70
8
 71
3
 72
8
 73
4
 74
0
 40
0
 40
0
 40
0
 40
0
 40
1
 40
1
 40
1
 40
1
 10
66.018000
 20
-0.000000
 30
0.0
 10
71.079750
 20
-0.000000
 30
0.0
 10
75.614250
 20
3.580500
 30
0.0
 10
76.627500
 20
8.730750
 30
0.0
  0
LWPOLYLINE
  5
128
100
AcDbEntity
  8
0
 62
7
100
AcDbPolyline
 90
3
 70
0
 10
82.245000
 20
175.848750
 30
0.0
 10
87.205500
 20
174.608250
 30
0.0
 10
55.400250
 20
12.905250
 30
0.0
  0
SPLINE
  5
129
100
AcDbEntity
  8
0
 62
7
100
AcDbSpline
 70
8
 71
3
 72
8
 73
4
 74
0
 40
0
 40
0
 40
0
 40
0
 40
1
 40
1
 40
1
 40
1
 10
112.261500
 20
168.345750
 30
0.0
 10
112.505250
 20
168.284250
 30
0.0
 10
112.749750
 20
168.255000
 30
0.0
 10
112.991250
 20
168.255000
 30
0.0
  0
SPLINE
  5
12a
100
AcDbEntity
  8
0
 62
7
100
AcDbSpline
 70
8
 71
3
 72
8
 73
4
 74
0
 40
0
 40
0
 40
0
 40
0
 40
1
 40
1
 40
1
 40
1
 10
112.991250
 20
168.255000
 30
0.0
 10
114.335250
 20
168.255000
 30
0.0
 10
115.558500
 20
169.164750
 30
0.0
 10
115.899750
 20
170.528250
 30
0.0
  0
SPLINE
  5
12b
100
AcDbEntity
  8
0
 62
7
100
AcDbSpline
 70
8
 71
3
 72
8
 73
4
 74
0
 40
0
 40
0
 40
0
 40
0
 40
1
 40
1
 40
1
 40
1
 10
115.899750
 20
170.528250
 30
0.0
 10
116.301000
 20
172.135500
 30
0.0
 10
115.323750
 20
173.764500
 30
0.0
 10
113.716500
 20
174.166500
 30
0.0
  0
LWPOLYLINE
  5
12c
100
AcDbEntity
  8
0
 62
7
100
AcDbPolyline
 90
3
 70
0
 10
76.627500
 20
8.730750
 30
0.0
 10
108.220500
 20
169.356000
 30
0.0
 10
112.261500
 20
168.345750
 30
0.0
  0
SPLINE
  5
12d
100
AcDbEntity
  8
0
 62
7
100
AcDbSpline
 70
8
 71
3
 72
8
 73
4
 74
0
 40
0
 40
0
 40
0
 40
0
 40
1
 40
1
 40
1
 40
1
 10
109.451250
 20
175.233000
 30
0.0
 10
113.982000
 20
193.959000
 30
0.0
 10
125.886750
 20
210.205500
 30
0.0
 10
142.426500
 20
220.112250
 30
0.0
  0
SPLINE
  5
12e
100
AcDbEntity
  8
0
 62
7
100
AcDbSpline
 70
8
 71
3
 72
8
 73
4
 74
0
 40
0
 40
0
 40
0
 40
0
 40
1
 40
1
 40
1
 40
1
 10
142.426500
 20
220.112250
 30
0.0
 10
145.241250
 20
221.798250
 30
0.0
 10
150.323250
 20
223.358250
 30
0.0
 10
150.357750
 20
223.370250
 30
0.0
  0
SPLINE
  5
12f
100
AcDbEntity
  8
0
 62
7
100
AcDbSpline
 70
8
 71
3
 72
8
 73
4
 74
0
 40
0
 40
0
 40
0
 40
0
 40
1
 40
1
 40
1
 40
1
 10
150.357750
 20
223.370250
 30
0.0
 10
152.575500
 20
222.711750
 30
0.0
 10
155.257500
 20
221.786250
 30
0.0
 10
157.333500
 20
220.902000
 30
0.0
  0
SPLINE
  5
130
100
AcDbEntity
  8
0
 62
7
100
AcDbSpline
 70
8
 71
3
 72
8
 73
4
 74
0
 40
0
 40
0
 40
0
 40
0
 40
1
 40
1
 40
1
 40
1
 10
157.333500
 20
220.902000
 30
0.0
 10
158.065500
 20
220.590000
 30
0.0
 10
159.977250
 20
219.564000
 30
0.0
 10
160.334250
 20
219.343500
 30
0.0
  0
SPLINE
  5
131
100
AcDbEntity
  8
0
 62
7
100
AcDbSpline
 70
8
 71
3
 72
8
 73
4
 74
0
 40
0
 40
0
 40
0
 40
0
 40
1
 40
1
 40
1
 40
1
 10
160.334250
 20
219.343500
 30
0.0
 10
176.402250
 20
209.421750
 30
0.0
 10
187.950750
 20
193.528500
 30
0.0
 10
192.458250
 20
175.237500
 30
0.0
  0
LWPOLYLINE
  5
132
100
AcDbEntity
  8
0
 62
7
100
AcDbPolyline
 90
2
 70
0
 10
113.716500
 20
174.166500
 30
0.0
 10
109.451250
 20
175.233000
 30
0.0
  0
SPLINE
  5
133
100
AcDbEntity
  8
0
 62
7
100
AcDbSpline
 70
8
 71
3
 72
8
 73
4
 74
0
 40
0
 40
0
 40
0
 40
0
 40
1
 40
1
 40
1
 40
1
 10
188.176500
 20
174.167250
 30
0.0
 10
186.569250
 20
173.765250
 30
0.0
 10
185.592000
 20
172.136250
 30
0.0
 10
185.993250
 20
170.529000
 30
0.0
  0
SPLINE
  5
134
100
AcDbEntity
  8
0
 62
7
100
AcDbSpline
 70
8
 71
3
 72
8
 73
4
 74
0
 40
0
 40
0
 40
0
 40
0
 40
1
 40
1
 40
1
 40
1
 10
185.993250
 20
170.529000
 30
0.0
 10
186.334500
 20
169.166250
 30
0.0
 10
187.557750
 20
168.255750
 30
0.0
 10
188.901750
 20
168.255750
 30
0.0
  0
SPLINE
  5
135
100
AcDbEntity
  8
0
 62
7
100
AcDbSpline
 70
8
 71
3
 72
8
 73
4
 74
0
 40
0
 40
0
 40
0
 40
0
 40
1
 40
1
 40
1
 40
1
 10
188.901750
 20
168.255750
 30
0.0
 10
189.142500
 20
168.255750
 30
0.0
 10
189.387750
 20
168.285000
 30
0.0
 10
189.631500
 20
168.346500
 30
0.0
  0
LWPOLYLINE
  5
136
100
AcDbEntity
  8
0
 62
7
100
AcDbPolyline
 90
2
 70
0
 10
192.458250
 20
175.237500
 30
0.0
 10
188.176500
 20
174.167250
 30
0.0
  0
SPLINE
  5
137
100
AcDbEntity
  8
0
 62
7
100
AcDbSpline
 70
8
 71
3
 72
8
 73
4
 74
0
 40
0
 40
0
 40
0
 40
0
 40
1
 40
1
 40
1
 40
1
 10
226.045500
 20
8.914500
 30
0.0
 10
227.059500
 20
3.884250
 30
0.0
 10
231.515250
 20
0.233250
 30
0.0
 10
236.640750
 20
0.232500
 30
0.0
  0
LWPOLYLINE
  5
138
100
AcDbEntity
  8
0
 62
7
100
AcDbPolyline
 90
3
 70
0
 10
189.631500
 20
168.346500
 30
0.0
 10
193.714500
 20
169.367250
 30
0.0
 10
226.045500
 20
8.914500
 30
0.0
  0
SPLINE
  5
139
100
AcDbEntity
  8
0
 62
7
100
AcDbSpline
 70
8
 71
3
 72
8
 73
4
 74
0
 40
0
 40
0
 40
0
 40
0
 40
1
 40
1
 40
1
 40
1
 10
236.641500
 20
0.232500
 30
0.0
 10
237.357750
 20
0.232500
 30
0.0
 10
238.079250
 20
0.304500
 30
0.0
 10
238.785750
 20
0.447000
 30
0.0
  0
SPLINE
  5
13a
100
AcDbEntity
  8
0
 62
7
100
AcDbSpline
 70
8
 71
3
 72
8
 73
4
 74
0
 40
0
 40
0
 40
0
 40
0
 40
1
 40
1
 40
1
 40
1
 10
238.785750
 20
0.447000
 30
0.0
 10
244.632750
 20
1.625250
 30
0.0
 10
248.431500
 20
7.340250
 30
0.0
 10
247.253250
 20
13.187250
 30
0.0
  0
LWPOLYLINE
  5
13b
100
AcDbEntity
  8
0
 62
7
100
AcDbPolyline
 90
2
 70
0
 10
236.640750
 20
0.232500
 30
0.0
 10
236.641500
 20
0.232500
 30
0.0
  0
LWPOLYLINE
  5
13c
100
AcDbEntity
  8
0
 62
7
100
AcDbPolyline
 90
1
 70
1
 10
247.253250
 20
13.187250
 30
0.0
  0
LWPOLYLINE
  5
13d
100
AcDbEntity
  8
0
 62
7
100
AcDbPolyline
 90
5
 70
1
 10
236.887500
 20
34.258500
 30
0.0
 10
238.662000
 20
25.454250
 30
0.0
 10
229.304250
 20
23.115750
 30
0.0
 10
227.530500
 20
31.919250
 30
0.0
 10
236.887500
 20
34.258500
 30
0.0
  0
SPLINE
  5
13e
100
AcDbEntity
  8
0
 62
7
100
AcDbSpline
 70
8
 71
3
 72
8
 73
4
 74
0
 40
0
 40
0
 40
0
 40
0
 40
1
 40
1
 40
1
 40
1
 10
178.608000
 20
271.126500
 30
0.0
 10
180.134250
 20
278.885250
 30
0.0
 10
174.261750
 20
286.980750
 30
0.0
 10
163.219500
 20
292.476750
 30
0.0
  0
LWPOLYLINE
  5
13f
100
AcDbEntity
  8
0
 62
7
100
AcDbPolyline
 90
5
 70
1
 10
226.344000
 20
37.806750
 30
0.0
 10
224.511000
 20
46.905000
 30
0.0
 10
233.868750
 20
49.244250
 30
0.0
 10
235.701750
 20
40.146000
 30
0.0
 10
226.344000
 20
37.806750
 30
0.0
  0
SPLINE
  5
140
100
AcDbEntity
  8
0
 62
7
100
AcDbSpline
 70
8
 71
3
 72
8
 73
4
 74
0
 40
0
 40
0
 40
0
 40
0
 40
1
 40
1
 40
1
 40
1
 10
162.377250
 20
295.656750
 30
0.0
 10
171.635250
 20
293.205000
 30
0.0
 10
179.782500
 20
288.896250
 30
0.0
 10
185.639250
 20
283.303500
 30
0.0
  0
SPLINE
  5
141
100
AcDbEntity
  8
0
 62
7
100
AcDbSpline
 70
8
 71
3
 72
8
 73
4
 74
0
 40
0
 40
0
 40
0
 40
0
 40
1
 40
1
 40
1
 40
1
 10
185.639250
 20
283.303500
 30
0.0
 10
192.017250
 20
277.213500
 30
0.0
 10
194.842500
 20
270.370500
 30
0.0
 10
193.596750
 20
264.036000
 30
0.0
  0
SPLINE
  5
142
100
AcDbEntity
  8
0
 62
7
100
AcDbSpline
 70
8
 71
3
 72
8
 73
4
 74
0
 40
0
 40
0
 40
0
 40
0
 40
1
 40
1
 40
1
 40
1
 10
193.596750
 20
264.036000
 30
0.0
 10
192.081000
 20
256.329000
 30
0.0
 10
184.639500
 20
250.245750
 30
0.0
 10
173.571000
 20
247.545750
 30
0.0
  0
SPLINE
  5
143
100
AcDbEntity
  8
0
 62
7
100
AcDbSpline
 70
8
 71
3
 72
8
 73
4
 74
0
 40
0
 40
0
 40
0
 40
0
 40
1
 40
1
 40
1
 40
1
 10
173.571000
 20
247.545750
 30
0.0
 10
173.136750
 20
248.517750
 30
0.0
 10
172.791750
 20
249.541500
 30
0.0
 10
172.575000
 20
250.618500
 30
0.0
  0
SPLINE
  5
144
100
AcDbEntity
  8
0
 62
7
100
AcDbSpline
 70
8
 71
3
 72
8
 73
4
 74
0
 40
0
 40
0
 40
0
 40
0
 40
1
 40
1
 40
1
 40
1
 10
172.575000
 20
250.618500
 30
0.0
 10
171.854250
 20
254.107500
 30
0.0
 10
170.322750
 20
257.269500
 30
0.0
 10
168.206250
 20
259.927500
 30
0.0
  0
SPLINE
  5
145
100
AcDbEntity
  8
0
 62
7
100
AcDbSpline
 70
8
 71
3
 72
8
 73
4
 74
0
 40
0
 40
0
 40
0
 40
0
 40
1
 40
1
 40
1
 40
1
 10
168.206250
 20
259.927500
 30
0.0
 10
173.955750
 20
262.410000
 30
0.0
 10
177.667500
 20
266.345250
 30
0.0
 10
178.608000
 20
271.126500
 30
0.0
  0
LWPOLYLINE
  5
146
100
AcDbEntity
  8
0
 62
7
100
AcDbPolyline
 90
2
 70
0
 10
163.219500
 20
292.476750
 30
0.0
 10
162.377250
 20
295.656750
 30
0.0
  0
SPLINE
  5
147
100
AcDbEntity
  8
0
 62
7
100
AcDbSpline
 70
8
 71
3
 72
8
 73
4
 74
0
 40
0
 40
0
 40
0
 40
0
 40
1
 40
1
 40
1
 40
1
 10
107.895000
 20
263.670750
 30
0.0
 10
105.334500
 20
276.393000
 30
0.0
 10
119.043750
 20
290.082750
 30
0.0
 10
138.970500
 20
295.444500
 30
0.0
  0
LWPOLYLINE
  5
148
100
AcDbEntity
  8
0
 62
7
100
AcDbPolyline
 90
1
 70
1
 10
178.608000
 20
271.126500
 30
0.0
  0
SPLINE
  5
149
100
AcDbEntity
  8
0
 62
7
100
AcDbSpline
 70
8
 71
3
 72
8
 73
4
 74
0
 40
0
 40
0
 40
0
 40
0
 40
1
 40
1
 40
1
 40
1
 10
138.142500
 20
292.255500
 30
0.0
 10
127.119750
 20
286.708500
 30
0.0
 10
121.285500
 20
278.585250
 30
0.0
 10
122.854500
 20
270.837750
 30
0.0
  0
SPLINE
  5
14a
100
AcDbEntity
  8
0
 62
7
100
AcDbSpline
 70
8
 71
3
 72
8
 73
4
 74
0
 40
0
 40
0
 40
0
 40
0
 40
1
 40
1
 40
1
 40
1
 10
122.854500
 20
270.837750
 30
0.0
 10
123.807750
 20
266.078250
 30
0.0
 10
127.517250
 20
262.170000
 30
0.0
 10
133.251750
 20
259.709250
 30
0.0
  0
SPLINE
  5
14b
100
AcDbEntity
  8
0
 62
7
100
AcDbSpline
 70
8
 71
3
 72
8
 73
4
 74
0
 40
0
 40
0
 40
0
 40
0
 40
1
 40
1
 40
1
 40
1
 10
133.251750
 20
259.709250
 30
0.0
 10
131.351250
 20
257.248500
 30
0.0
 10
129.458250
 20
252.642750
 30
0.0
 10
128.975250
 20
250.666500
 30
0.0
  0
SPLINE
  5
14c
100
AcDbEntity
  8
0
 62
7
100
AcDbSpline
 70
8
 71
3
 72
8
 73
4
 74
0
 40
0
 40
0
 40
0
 40
0
 40
1
 40
1
 40
1
 40
1
 10
128.975250
 20
250.666500
 30
0.0
 10
128.687250
 20
249.488250
 30
0.0
 10
128.353500
 20
248.358000
 30
0.0
 10
127.862250
 20
247.305000
 30
0.0
  0
SPLINE
  5
14d
100
AcDbEntity
  8
0
 62
7
100
AcDbSpline
 70
8
 71
3
 72
8
 73
4
 74
0
 40
0
 40
0
 40
0
 40
0
 40
1
 40
1
 40
1
 40
1
 10
127.862250
 20
247.305000
 30
0.0
 10
116.844000
 20
249.968250
 30
0.0
 10
109.441500
 20
255.990000
 30
0.0
 10
107.895000
 20
263.670750
 30
0.0
  0
LWPOLYLINE
  5
14e
100
AcDbEntity
  8
0
 62
7
100
AcDbPolyline
 90
2
 70
0
 10
138.970500
 20
295.444500
 30
0.0
 10
138.142500
 20
292.255500
 30
0.0
  0
LWPOLYLINE
  5
14f
100
AcDbEntity
  8
0
 62
7
100
AcDbPolyline
 90
1
 70
1
 10
107.895000
 20
263.670750
 30
0.0
  0
LWPOLYLINE
  5
150
100
AcDbEntity
  8
0
 62
7
100
AcDbPolyline
 90
5
 70
1
 10
66.877500
 20
40.167750
 30
0.0
 10
68.669250
 20
49.276500
 30
0.0
 10
78.027750
 20
46.936500
 30
0.0
 10
76.236000
 20
37.827750
 30
0.0
 10
66.877500
 20
40.167750
 30
0.0
  0
SPLINE
  5
151
100
AcDbEntity
  8
0
 62
7
100
AcDbSpline
 70
8
 71
3
 72
8
 73
4
 74
0
 40
0
 40
0
 40
0
 40
0
 40
1
 40
1
 40
1
 40
1
 10
65.084250
 20
6.091500
 30
0.0
 10
62.478000
 20
6.604500
 30
0.0
 10
60.774750
 20
9.141750
 30
0.0
 10
61.287000
 20
11.748000
 30
0.0
  0
LWPOLYLINE
  5
152
100
AcDbEntity
  8
0
 62
7
100
AcDbPolyline
 90
5
 70
1
 10
75.076500
 20
31.933500
 30
0.0
 10
73.343250
 20
23.120250
 30
0.0
 10
63.984000
 20
25.458750
 30
0.0
 10
65.718000
 20
34.272750
 30
0.0
 10
75.076500
 20
31.933500
 30
0.0
  0
SPLINE
  5
153
100
AcDbEntity
  8
0
 62
7
100
AcDbSpline
 70
8
 71
3
 72
8
 73
4
 74
0
 40
0
 40
0
 40
0
 40
0
 40
1
 40
1
 40
1
 40
1
 10
70.740750
 20
9.889500
 30
0.0
 10
70.227750
 20
7.283250
 30
0.0
 10
67.692000
 20
5.579250
 30
0.0
 10
65.084250
 20
6.091500
 30
0.0
  0
LWPOLYLINE
  5
154
100
AcDbEntity
  8
0
 62
7
100
AcDbPolyline
 90
4
 70
0
 10
61.287000
 20
11.748000
 30
0.0
 10
62.824500
 20
19.564500
 30
0.0
 10
72.183750
 20
17.226000
 30
0.0
 10
70.740750
 20
9.889500
 30
0.0
  0
LWPOLYLINE
  5
155
100
AcDbEntity
  8
0
 62
7
100
AcDbPolyline
 90
1
 70
1
 10
65.084250
 20
6.091500
 30
0.0
  0
LWPOLYLINE
  5
156
100
AcDbEntity
  8
0
 62
7
100
AcDbPolyline
 90
5
 70
1
 10
79.186500
 20
52.830750
 30
0.0
 10
69.828000
 20
55.170000
 30
0.0
 10
93.033750
 20
173.151750
 30
0.0
 10
102.392250
 20
170.812500
 30
0.0
 10
79.186500
 20
52.830750
 30
0.0
  0
SPLINE
  5
157
100
AcDbEntity
  8
0
 62
7
100
AcDbSpline
 70
8
 71
3
 72
8
 73
4
 74
0
 40
0
 40
0
 40
0
 40
0
 40
1
 40
1
 40
1
 40
1
 10
103.974000
 20
228.771750
 30
0.0
 10
104.265000
 20
230.250000
 30
0.0
 10
105.114000
 20
231.526500
 30
0.0
 10
106.365000
 20
232.366500
 30
0.0
  0
SPLINE
  5
158
100
AcDbEntity
  8
0
 62
7
100
AcDbSpline
 70
8
 71
3
 72
8
 73
4
 74
0
 40
0
 40
0
 40
0
 40
0
 40
1
 40
1
 40
1
 40
1
 10
106.365000
 20
232.366500
 30
0.0
 10
107.616000
 20
233.205750
 30
0.0
 10
109.119000
 20
233.508000
 30
0.0
 10
110.597250
 20
233.217750
 30
0.0
  0
SPLINE
  5
159
100
AcDbEntity
  8
0
 62
7
100
AcDbSpline
 70
8
 71
3
 72
8
 73
4
 74
0
 40
0
 40
0
 40
0
 40
0
 40
1
 40
1
 40
1
 40
1
 10
110.597250
 20
233.217750
 30
0.0
 10
117.825000
 20
231.796500
 30
0.0
 10
124.928250
 20
234.352500
 30
0.0
 10
129.643500
 20
239.357250
 30
0.0
  0
SPLINE
  5
15a
100
AcDbEntity
  8
0
 62
7
100
AcDbSpline
 70
8
 71
3
 72
8
 73
4
 74
0
 40
0
 40
0
 40
0
 40
0
 40
1
 40
1
 40
1
 40
1
 10
129.643500
 20
239.357250
 30
0.0
 10
131.489250
 20
233.525250
 30
0.0
 10
135.602250
 20
228.789750
 30
0.0
 10
141.032250
 20
226.154250
 30
0.0
  0
SPLINE
  5
15b
100
AcDbEntity
  8
0
 62
7
100
AcDbSpline
 70
8
 71
3
 72
8
 73
4
 74
0
 40
0
 40
0
 40
0
 40
0
 40
1
 40
1
 40
1
 40
1
 10
141.032250
 20
226.154250
 30
0.0
 10
140.488500
 20
225.882750
 30
0.0
 10
139.944750
 20
225.600750
 30
0.0
 10
139.406250
 20
225.295500
 30
0.0
  0
SPLINE
  5
15c
100
AcDbEntity
  8
0
 62
7
100
AcDbSpline
 70
8
 71
3
 72
8
 73
4
 74
0
 40
0
 40
0
 40
0
 40
0
 40
1
 40
1
 40
1
 40
1
 10
139.406250
 20
225.295500
 30
0.0
 10
121.438500
 20
214.537500
 30
0.0
 10
108.546000
 20
196.953000
 30
0.0
 10
103.629750
 20
176.687250
 30
0.0
  0
LWPOLYLINE
  5
15d
100
AcDbEntity
  8
0
 62
7
100
AcDbPolyline
 90
3
 70
0
 10
103.629750
 20
176.687250
 30
0.0
 10
94.193250
 20
179.046000
 30
0.0
 10
103.974000
 20
228.771750
 30
0.0
  0
SPLINE
  5
15e
100
AcDbEntity
  8
0
 62
7
100
AcDbSpline
 70
8
 71
3
 72
8
 73
4
 74
0
 40
0
 40
0
 40
0
 40
0
 40
1
 40
1
 40
1
 40
1
 10
162.170250
 20
225.240750
 30
0.0
 10
158.523750
 20
227.223750
 30
0.0
 10
151.023750
 20
229.613250
 30
0.0
 10
148.060500
 20
230.122500
 30
0.0
  0
SPLINE
  5
15f
100
AcDbEntity
  8
0
 62
7
100
AcDbSpline
 70
8
 71
3
 72
8
 73
4
 74
0
 40
0
 40
0
 40
0
 40
0
 40
1
 40
1
 40
1
 40
1
 10
148.060500
 20
230.122500
 30
0.0
 10
140.904000
 20
231.352500
 30
0.0
 10
135.526500
 20
237.044250
 30
0.0
 10
134.679000
 20
244.287000
 30
0.0
  0
SPLINE
  5
160
100
AcDbEntity
  8
0
 62
7
100
AcDbSpline
 70
8
 71
3
 72
8
 73
4
 74
0
 40
0
 40
0
 40
0
 40
0
 40
1
 40
1
 40
1
 40
1
 10
134.679000
 20
244.287000
 30
0.0
 10
133.758000
 20
252.161250
 30
0.0
 10
138.836250
 20
259.677000
 30
0.0
 10
146.490750
 20
261.768750
 30
0.0
  0
SPLINE
  5
161
100
AcDbEntity
  8
0
 62
7
100
AcDbSpline
 70
8
 71
3
 72
8
 73
4
 74
0
 40
0
 40
0
 40
0
 40
0
 40
1
 40
1
 40
1
 40
1
 10
146.490750
 20
261.768750
 30
0.0
 10
147.915750
 20
262.158000
 30
0.0
 10
149.375250
 20
262.356000
 30
0.0
 10
150.827250
 20
262.356000
 30
0.0
  0
SPLINE
  5
162
100
AcDbEntity
  8
0
 62
7
100
AcDbSpline
 70
8
 71
3
 72
8
 73
4
 74
0
 40
0
 40
0
 40
0
 40
0
 40
1
 40
1
 40
1
 40
1
 10
150.827250
 20
262.356000
 30
0.0
 10
158.474250
 20
262.356000
 30
0.0
 10
165.150000
 20
256.909500
 30
0.0
 10
166.696500
 20
249.419250
 30
0.0
  0
SPLINE
  5
163
100
AcDbEntity
  8
0
 62
7
100
AcDbSpline
 70
8
 71
3
 72
8
 73
4
 74
0
 40
0
 40
0
 40
0
 40
0
 40
1
 40
1
 40
1
 40
1
 10
166.696500
 20
249.419250
 30
0.0
 10
168.633750
 20
239.808000
 30
0.0
 10
177.146250
 20
232.831500
 30
0.0
 10
186.936750
 20
232.831500
 30
0.0
  0
SPLINE
  5
164
100
AcDbEntity
  8
0
 62
7
100
AcDbSpline
 70
8
 71
3
 72
8
 73
4
 74
0
 40
0
 40
0
 40
0
 40
0
 40
1
 40
1
 40
1
 40
1
 10
186.936750
 20
232.831500
 30
0.0
 10
188.305500
 20
232.831500
 30
0.0
 10
189.685500
 20
232.969500
 30
0.0
 10
191.037750
 20
233.241750
 30
0.0
  0
SPLINE
  5
165
100
AcDbEntity
  8
0
 62
7
100
AcDbSpline
 70
8
 71
3
 72
8
 73
4
 74
0
 40
0
 40
0
 40
0
 40
0
 40
1
 40
1
 40
1
 40
1
 10
191.037750
 20
233.241750
 30
0.0
 10
191.409000
 20
233.316750
 30
0.0
 10
191.787000
 20
233.354250
 30
0.0
 10
192.161250
 20
233.354250
 30
0.0
  0
SPLINE
  5
166
100
AcDbEntity
  8
0
 62
7
100
AcDbSpline
 70
8
 71
3
 72
8
 73
4
 74
0
 40
0
 40
0
 40
0
 40
0
 40
1
 40
1
 40
1
 40
1
 10
192.161250
 20
233.354250
 30
0.0
 10
194.831250
 20
233.354250
 30
0.0
 10
197.152500
 20
231.450000
 30
0.0
 10
197.681250
 20
228.826500
 30
0.0
  0
LWPOLYLINE
  5
167
100
AcDbEntity
  8
0
 62
7
100
AcDbPolyline
 90
1
 70
1
 10
103.629750
 20
176.687250
 30
0.0
  0
SPLINE
  5
168
100
AcDbEntity
  8
0
 62
7
100
AcDbSpline
 70
8
 71
3
 72
8
 73
4
 74
0
 40
0
 40
0
 40
0
 40
0
 40
1
 40
1
 40
1
 40
1
 10
198.278250
 20
176.691750
 30
0.0
 10
193.377750
 20
196.554000
 30
0.0
 10
180.810750
 20
213.804750
 30
0.0
 10
163.334250
 20
224.541750
 30
0.0
  0
SPLINE
  5
169
100
AcDbEntity
  8
0
 62
7
100
AcDbSpline
 70
8
 71
3
 72
8
 73
4
 74
0
 40
0
 40
0
 40
0
 40
0
 40
1
 40
1
 40
1
 40
1
 10
163.334250
 20
224.541750
 30
0.0
 10
162.980250
 20
224.759250
 30
0.0
 10
162.202500
 20
225.222750
 30
0.0
 10
162.170250
 20
225.240750
 30
0.0
  0
LWPOLYLINE
  5
16a
100
AcDbEntity
  8
0
 62
7
100
AcDbPolyline
 90
3
 70
0
 10
197.681250
 20
228.826500
 30
0.0
 10
207.711750
 20
179.049750
 30
0.0
 10
198.278250
 20
176.691750
 30
0.0
  0
LWPOLYLINE
  5
16b
100
AcDbEntity
  8
0
 62
7
100
AcDbPolyline
 90
1
 70
1
 10
162.170250
 20
225.240750
 30
0.0
  0
SPLINE
  5
16c
100
AcDbEntity
  8
0
 62
7
100
AcDbSpline
 70
8
 71
3
 72
8
 73
4
 74
0
 40
0
 40
0
 40
0
 40
0
 40
1
 40
1
 40
1
 40
1
 10
237.600750
 20
6.328500
 30
0.0
 10
237.282750
 20
6.264750
 30
0.0
 10
236.960250
 20
6.231750
 30
0.0
 10
236.641500
 20
6.231750
 30
0.0
  0
SPLINE
  5
16d
100
AcDbEntity
  8
0
 62
7
100
AcDbSpline
 70
8
 71
3
 72
8
 73
4
 74
0
 40
0
 40
0
 40
0
 40
0
 40
1
 40
1
 40
1
 40
1
 10
236.641500
 20
6.231750
 30
0.0
 10
234.361500
 20
6.231750
 30
0.0
 10
232.378500
 20
7.858500
 30
0.0
 10
231.927000
 20
10.098750
 30
0.0
  0
LWPOLYLINE
  5
16e
100
AcDbEntity
  8
0
 62
7
100
AcDbPolyline
 90
5
 70
1
 10
208.898250
 20
173.162250
 30
0.0
 10
232.681500
 20
55.131750
 30
0.0
 10
223.323750
 20
52.792500
 30
0.0
 10
199.540500
 20
170.823000
 30
0.0
 10
208.898250
 20
173.162250
 30
0.0
  0
SPLINE
  5
16f
100
AcDbEntity
  8
0
 62
7
100
AcDbSpline
 70
8
 71
3
 72
8
 73
4
 74
0
 40
0
 40
0
 40
0
 40
0
 40
1
 40
1
 40
1
 40
1
 10
241.372500
 20
12.002250
 30
0.0
 10
241.896750
 20
9.398250
 30
0.0
 10
240.204750
 20
6.852750
 30
0.0
 10
237.600750
 20
6.328500
 30
0.0
  0
LWPOLYLINE
  5
170
100
AcDbEntity
  8
0
 62
7
100
AcDbPolyline
 90
4
 70
0
 10
231.927000
 20
10.098750
 30
0.0
 10
230.490750
 20
17.227500
 30
0.0
 10
239.848500
 20
19.566000
 30
0.0
 10
241.372500
 20
12.002250
 30
0.0
  0
SPLINE
  5
171
100
AcDbEntity
  8
0
 62
7
100
AcDbSpline
 70
8
 71
3
 72
8
 73
4
 74
0
 40
0
 40
0
 40
0
 40
0
 40
1
 40
1
 40
1
 40
1
 10
150.673500
 20
258.206250
 30
0.0
 10
149.880750
 20
258.206250
 30
0.0
 10
149.082750
 20
258.126750
 30
0.0
 10
148.300500
 20
257.969250
 30
0.0
  0
SPLINE
  5
172
100
AcDbEntity
  8
0
 62
7
100
AcDbSpline
 70
8
 71
3
 72
8
 73
4
 74
0
 40
0
 40
0
 40
0
 40
0
 40
1
 40
1
 40
1
 40
1
 10
148.300500
 20
257.969250
 30
0.0
 10
141.834000
 20
256.666500
 30
0.0
 10
137.632500
 20
250.344750
 30
0.0
 10
138.936000
 20
243.878250
 30
0.0
  0
SPLINE
  5
173
100
AcDbEntity
  8
0
 62
7
100
AcDbSpline
 70
8
 71
3
 72
8
 73
4
 74
0
 40
0
 40
0
 40
0
 40
0
 40
1
 40
1
 40
1
 40
1
 10
138.936000
 20
243.878250
 30
0.0
 10
140.056500
 20
238.314750
 30
0.0
 10
144.984750
 20
234.276000
 30
0.0
 10
150.654000
 20
234.276000
 30
0.0
  0
SPLINE
  5
174
100
AcDbEntity
  8
0
 62
7
100
AcDbSpline
 70
8
 71
3
 72
8
 73
4
 74
0
 40
0
 40
0
 40
0
 40
0
 40
1
 40
1
 40
1
 40
1
 10
150.654000
 20
234.276000
 30
0.0
 10
151.446750
 20
234.276000
 30
0.0
 10
152.244750
 20
234.355500
 30
0.0
 10
153.027000
 20
234.513000
 30
0.0
  0
SPLINE
  5
175
100
AcDbEntity
  8
0
 62
7
100
AcDbSpline
 70
8
 71
3
 72
8
 73
4
 74
0
 40
0
 40
0
 40
0
 40
0
 40
1
 40
1
 40
1
 40
1
 10
153.027000
 20
234.513000
 30
0.0
 10
159.493500
 20
235.816500
 30
0.0
 10
163.694250
 20
242.137500
 30
0.0
 10
162.390750
 20
248.604000
 30
0.0
  0
SPLINE
  5
176
100
AcDbEntity
  8
0
 62
7
100
AcDbSpline
 70
8
 71
3
 72
8
 73
4
 74
0
 40
0
 40
0
 40
0
 40
0
 40
1
 40
1
 40
1
 40
1
 10
162.390750
 20
248.604000
 30
0.0
 10
161.270250
 20
254.168250
 30
0.0
 10
156.342000
 20
258.206250
 30
0.0
 10
150.673500
 20
258.206250
 30
0.0
  0
LWPOLYLINE
  5
177
100
AcDbEntity
  8
0
 62
7
100
AcDbPolyline
 90
1
 70
1
 10
237.600750
 20
6.328500
 30
0.0
  0
SPLINE
  5
178
100
AcDbEntity
  8
0
 62
7
100
AcDbSpline
 70
8
 71
3
 72
8
 73
4
 74
0
 40
0
 40
0
 40
0
 40
0
 40
1
 40
1
 40
1
 40
1
 10
151.842000
 20
240.394500
 30
0.0
 10
151.448250
 20
240.315750
 30
0.0
 10
151.049250
 20
240.275250
 30
0.0
 10
150.654000
 20
240.275250
 30
0.0
  0
SPLINE
  5
179
100
AcDbEntity
  8
0
 62
7
100
AcDbSpline
 70
8
 71
3
 72
8
 73
4
 74
0
 40
0
 40
0
 40
0
 40
0
 40
1
 40
1
 40
1
 40
1
 10
150.654000
 20
240.275250
 30
0.0
 10
147.831000
 20
240.275250
 30
0.0
 10
145.376250
 20
242.289000
 30
0.0
 10
144.817500
 20
245.062500
 30
0.0
  0
SPLINE
  5
17a
100
AcDbEntity
  8
0
 62
7
100
AcDbSpline
 70
8
 71
3
 72
8
 73
4
 74
0
 40
0
 40
0
 40
0
 40
0
 40
1
 40
1
 40
1
 40
1
 10
144.817500
 20
245.062500
 30
0.0
 10
144.168750
 20
248.286000
 30
0.0
 10
146.262750
 20
251.436750
 30
0.0
 10
149.486250
 20
252.087000
 30
0.0
  0
SPLINE
  5
17b
100
AcDbEntity
  8
0
 62
7
100
AcDbSpline
 70
8
 71
3
 72
8
 73
4
 74
0
 40
0
 40
0
 40
0
 40
0
 40
1
 40
1
 40
1
 40
1
 10
149.486250
 20
252.087000
 30
0.0
 10
149.879250
 20
252.165750
 30
0.0
 10
150.279000
 20
252.206250
 30
0.0
 10
150.674250
 20
252.206250
 30
0.0
  0
SPLINE
  5
17c
100
AcDbEntity
  8
0
 62
7
100
AcDbSpline
 70
8
 71
3
 72
8
 73
4
 74
0
 40
0
 40
0
 40
0
 40
0
 40
1
 40
1
 40
1
 40
1
 10
150.674250
 20
252.206250
 30
0.0
 10
153.497250
 20
252.206250
 30
0.0
 10
155.951250
 20
250.193250
 30
0.0
 10
156.510000
 20
247.419000
 30
0.0
  0
SPLINE
  5
17d
100
AcDbEntity
  8
0
 62
7
100
AcDbSpline
 70
8
 71
3
 72
8
 73
4
 74
0
 40
0
 40
0
 40
0
 40
0
 40
1
 40
1
 40
1
 40
1
 10
156.510000
 20
247.419000
 30
0.0
 10
157.158000
 20
244.195500
 30
0.0
 10
155.064750
 20
241.044750
 30
0.0
 10
151.842000
 20
240.394500
 30
0.0
  0
LWPOLYLINE
  5
17e
100
AcDbEntity
  8
0
 62
7
100
AcDbPolyline
 90
1
 70
1
 10
150.673500
 20
258.206250
 30
0.0
  0
LWPOLYLINE
  5
17f
100
AcDbEntity
  8
0
 62
7
100
AcDbPolyline
 90
1
 70
1
 10
151.842000
 20
240.394500
 30
0.0
  0
ENDSEC
  0
SECTION
  2
OBJECTS
  0
DICTIONARY
  5
C
330
0
100
AcDbDictionary
  3
ACAD_GROUP
350
D
  3
ACAD_MLINESTYLE
350
17
  0
DICTIONARY
  5
D
330
C
100
AcDbDictionary
  0
DICTIONARY
  5
1A
330
C
100
AcDbDictionary
  0
DICTIONARY
  5
17
330
C
100
AcDbDictionary
  3
STANDARD
350
18
  0
DICTIONARY
  5
19
330
C
100
AcDbDictionary
  0
ENDSEC
  0
EOF
