  0
SECTION
  2
HEADER
  9
$ACADVER
  1
AC1014
  9
$HANDSEED
  5
FFFF
  9
$MEASUREMENT
 70
     1
  0
ENDSEC
  0
SECTION
  2
TABLES
  0
TABLE
  2
VPORT
  5
8
330
0
100
AcDbSymbolTable
 70
     4
  0
VPORT
  5
2E
330
8
100
AcDbSymbolTableRecord
100
AcDbViewportTableRecord
  2
*ACTIVE
 70
     0
 10
0.0
 20
0.0
 11
1.0
 21
1.0
 12
210.0
 22
148.5
 13
0.0
 23
0.0
 14
10.0
 24
10.0
 15
10.0
 25
10.0
 16
0.0
 26
0.0
 36
1.0
 17
0.0
 27
0.0
 37
0.0
 40
341.0
 41
1.24
 42
50.0
 43
0.0
 44
0.0
 50
0.0
 51
0.0
 71
     0
 72
   100
 73
     1
 74
     3
 75
     0
 76
     0
 77
     0
 78
     0
  0
ENDTAB
  0
TABLE
  2
LTYPE
  5
5
330
0
100
AcDbSymbolTable
 70
     1
  0
LTYPE
  5
14
330
5
100
AcDbSymbolTableRecord
100
AcDbLinetypeTableRecord
  2
BYBLOCK
 70
     0
  3

 72
    65
 73
     0
 40
0.0
  0
LTYPE
  5
15
330
5
100
AcDbSymbolTableRecord
100
AcDbLinetypeTableRecord
  2
BYLAYER
 70
     0
  3

 72
    65
 73
     0
 40
0.0
  0
LTYPE
  5
16
330
5
100
AcDbSymbolTableRecord
100
AcDbLinetypeTableRecord
  2
CONTINUOUS
 70
     0
  3
Solid line
 72
    65
 73
     0
 40
0.0
  0
ENDTAB
  0
TABLE
  2
LAYER
  5
2
100
AcDbSymbolTable
 70
1
  0
LAYER
  5
50
100
AcDbSymbolTableRecord
100
AcDbLayerTableRecord
  2
0
 70
0
  6
CONTINUOUS
  0
ENDTAB
  0
TABLE
  2
STYLE
  5
3
330
0
100
AcDbSymbolTable
 70
     1
  0
STYLE
  5
11
330
3
100
AcDbSymbolTableRecord
100
AcDbTextStyleTableRecord
  2
STANDARD
 70
     0
 40
0.0
 41
1.0
 50
0.0
 71
     0
 42
2.5
  3
txt
  4

  0
ENDTAB
  0
TABLE
  2
VIEW
  5
6
330
0
100
AcDbSymbolTable
 70
     0
  0
ENDTAB
  0
TABLE
  2
UCS
  5
7
330
0
100
AcDbSymbolTable
 70
     0
  0
ENDTAB
  0
TABLE
  2
APPID
  5
9
330
0
100
AcDbSymbolTable
 70
     2
  0
APPID
  5
12
330
9
100
AcDbSymbolTableRecord
100
AcDbRegAppTableRecord
  2
ACAD
 70
     0
  0
ENDTAB
  0
TABLE
  2
DIMSTYLE
  5
A
330
0
100
AcDbSymbolTable
 70
     1
  0
DIMSTYLE
105
27
330
A
100
AcDbSymbolTableRecord
100
AcDbDimStyleTableRecord
  2
ISO-25
 70
     0
  3

  4

  5

  6

  7

 40
1.0
 41
2.5
 42
0.625
 43
3.75
 44
1.25
 45
0.0
 46
0.0
 47
0.0
 48
0.0
140
2.5
141
2.5
142
0.0
143
0.03937007874016
144
1.0
145
0.0
146
1.0
147
0.625
 71
     0
 72
     0
 73
     0
 74
     0
 75
     0
 76
     0
 77
     1
 78
     8
170
     0
171
     3
172
     1
173
     0
174
     0
175
     0
176
     0
177
     0
178
     0
270
     2
271
     2
272
     2
273
     2
274
     3
340
11
275
     0
280
     0
281
     0
282
     0
283
     0
284
     8
285
     0
286
     0
287
     3
288
     0
  0
ENDTAB
  0
TABLE
  2
BLOCK_RECORD
  5
1
330
0
100
AcDbSymbolTable
 70
     1
  0
BLOCK_RECORD
  5
1F
330
1
100
AcDbSymbolTableRecord
100
AcDbBlockTableRecord
  2
*MODEL_SPACE
  0
BLOCK_RECORD
  5
1B
330
1
100
AcDbSymbolTableRecord
100
AcDbBlockTableRecord
  2
*PAPER_SPACE
  0
ENDTAB
  0
ENDSEC
  0
SECTION
  2
BLOCKS
  0
BLOCK
  5
20
330
1F
100
AcDbEntity
  8
0
100
AcDbBlockBegin
  2
*MODEL_SPACE
 70
     0
 10
0.0
 20
0.0
 30
0.0
  3
*MODEL_SPACE
  1

  0
ENDBLK
  5
21
330
1F
100
AcDbEntity
  8
0
100
AcDbBlockEnd
  0
BLOCK
  5
1C
330
1B
100
AcDbEntity
 67
     1
  8
0
100
AcDbBlockBegin
  2
*PAPER_SPACE
  1

  0
ENDBLK
  5
1D
330
1B
100
AcDbEntity
 67
     1
  8
0
100
AcDbBlockEnd
  0
ENDSEC
  0
SECTION
  2
ENTITIES
  0
SPLINE
  5
100
100
AcDbEntity
  8
0
 62
7
100
AcDbSpline
 70
8
 71
3
 72
8
 73
4
 74
0
 40
0
 40
0
 40
0
 40
0
 40
1
 40
1
 40
1
 40
1
 10
188.294250
 20
197.191500
 30
0.0
 10
183.135750
 20
217.028250
 30
0.0
 10
164.963250
 20
230.883000
 30
0.0
 10
144.102000
 20
230.883000
 30
0.0
  0
SPLINE
  5
101
100
AcDbEntity
  8
0
 62
7
100
AcDbSpline
 70
8
 71
3
 72
8
 73
4
 74
0
 40
0
 40
0
 40
0
 40
0
 40
1
 40
1
 40
1
 40
1
 10
90.177000
 20
230.883000
 30
0.0
 10
88.532250
 20
230.883000
 30
0.0
 10
87.192750
 20
229.557750
 30
0.0
 10
87.177000
 20
227.912250
 30
0.0
  0
SPLINE
  5
102
100
AcDbEntity
  8
0
 62
7
100
AcDbSpline
 70
8
 71
3
 72
8
 73
4
 74
0
 40
0
 40
0
 40
0
 40
0
 40
1
 40
1
 40
1
 40
1
 10
87.177000
 20
227.912250
 30
0.0
 10
87.141750
 20
224.314500
 30
0.0
 10
83.103750
 20
221.388000
 30
0.0
 10
78.177000
 20
221.388000
 30
0.0
  0
SPLINE
  5
103
100
AcDbEntity
  8
0
 62
7
100
AcDbSpline
 70
8
 71
3
 72
8
 73
4
 74
0
 40
0
 40
0
 40
0
 40
0
 40
1
 40
1
 40
1
 40
1
 10
78.177000
 20
221.388000
 30
0.0
 10
73.251000
 20
221.388000
 30
0.0
 10
69.213000
 20
224.315250
 30
0.0
 10
69.177000
 20
227.913000
 30
0.0
  0
SPLINE
  5
104
100
AcDbEntity
  8
0
 62
7
100
AcDbSpline
 70
8
 71
3
 72
8
 73
4
 74
0
 40
0
 40
0
 40
0
 40
0
 40
1
 40
1
 40
1
 40
1
 10
69.177000
 20
227.913000
 30
0.0
 10
69.160500
 20
229.557750
 30
0.0
 10
67.821750
 20
230.883000
 30
0.0
 10
66.177000
 20
230.883000
 30
0.0
  0
LWPOLYLINE
  5
105
100
AcDbEntity
  8
0
 62
7
100
AcDbPolyline
 90
2
 70
0
 10
144.102000
 20
230.883000
 30
0.0
 10
90.177000
 20
230.883000
 30
0.0
  0
SPLINE
  5
106
100
AcDbEntity
  8
0
 62
7
100
AcDbSpline
 70
8
 71
3
 72
8
 73
4
 74
0
 40
0
 40
0
 40
0
 40
0
 40
1
 40
1
 40
1
 40
1
 10
45.492000
 20
230.883000
 30
0.0
 10
43.835250
 20
230.883000
 30
0.0
 10
42.492000
 20
229.539750
 30
0.0
 10
42.492000
 20
227.883000
 30
0.0
  0
LWPOLYLINE
  5
107
100
AcDbEntity
  8
0
 62
7
100
AcDbPolyline
 90
2
 70
0
 10
66.177000
 20
230.883000
 30
0.0
 10
45.492000
 20
230.883000
 30
0.0
  0
SPLINE
  5
108
100
AcDbEntity
  8
0
 62
7
100
AcDbSpline
 70
8
 71
3
 72
8
 73
4
 74
0
 40
0
 40
0
 40
0
 40
0
 40
1
 40
1
 40
1
 40
1
 10
42.492000
 20
182.784750
 30
0.0
 10
42.492000
 20
181.128000
 30
0.0
 10
43.835250
 20
179.784750
 30
0.0
 10
45.492000
 20
179.784750
 30
0.0
  0
LWPOLYLINE
  5
109
100
AcDbEntity
  8
0
 62
7
100
AcDbPolyline
 90
2
 70
0
 10
42.492000
 20
227.883000
 30
0.0
 10
42.492000
 20
182.784750
 30
0.0
  0
SPLINE
  5
10a
100
AcDbEntity
  8
0
 62
7
100
AcDbSpline
 70
8
 71
3
 72
8
 73
4
 74
0
 40
0
 40
0
 40
0
 40
0
 40
1
 40
1
 40
1
 40
1
 10
66.177000
 20
179.784750
 30
0.0
 10
67.817250
 20
179.784750
 30
0.0
 10
69.153000
 20
181.101750
 30
0.0
 10
69.177000
 20
182.741250
 30
0.0
  0
SPLINE
  5
10b
100
AcDbEntity
  8
0
 62
7
100
AcDbSpline
 70
8
 71
3
 72
8
 73
4
 74
0
 40
0
 40
0
 40
0
 40
0
 40
1
 40
1
 40
1
 40
1
 10
69.177000
 20
182.741250
 30
0.0
 10
69.228000
 20
186.326250
 30
0.0
 10
73.266000
 20
189.243000
 30
0.0
 10
78.177000
 20
189.243000
 30
0.0
  0
SPLINE
  5
10c
100
AcDbEntity
  8
0
 62
7
100
AcDbSpline
 70
8
 71
3
 72
8
 73
4
 74
0
 40
0
 40
0
 40
0
 40
0
 40
1
 40
1
 40
1
 40
1
 10
78.177000
 20
189.243000
 30
0.0
 10
83.088750
 20
189.243000
 30
0.0
 10
87.126750
 20
186.326250
 30
0.0
 10
87.177000
 20
182.742000
 30
0.0
  0
SPLINE
  5
10d
100
AcDbEntity
  8
0
 62
7
100
AcDbSpline
 70
8
 71
3
 72
8
 73
4
 74
0
 40
0
 40
0
 40
0
 40
0
 40
1
 40
1
 40
1
 40
1
 10
87.177000
 20
182.742000
 30
0.0
 10
87.200250
 20
181.101750
 30
0.0
 10
88.536750
 20
179.784750
 30
0.0
 10
90.177000
 20
179.784750
 30
0.0
  0
LWPOLYLINE
  5
10e
100
AcDbEntity
  8
0
 62
7
100
AcDbPolyline
 90
2
 70
0
 10
45.492000
 20
179.784750
 30
0.0
 10
66.177000
 20
179.784750
 30
0.0
  0
SPLINE
  5
10f
100
AcDbEntity
  8
0
 62
7
100
AcDbSpline
 70
8
 71
3
 72
8
 73
4
 74
0
 40
0
 40
0
 40
0
 40
0
 40
1
 40
1
 40
1
 40
1
 10
95.993250
 20
15.184500
 30
0.0
 10
95.993250
 20
6.812250
 30
0.0
 10
102.804750
 20
0.000750
 30
0.0
 10
111.177000
 20
0.000750
 30
0.0
  0
SPLINE
  5
110
100
AcDbEntity
  8
0
 62
7
100
AcDbSpline
 70
8
 71
3
 72
8
 73
4
 74
0
 40
0
 40
0
 40
0
 40
0
 40
1
 40
1
 40
1
 40
1
 10
111.177000
 20
0.000750
 30
0.0
 10
119.549250
 20
0.000750
 30
0.0
 10
126.360750
 20
6.812250
 30
0.0
 10
126.360750
 20
15.184500
 30
0.0
  0
LWPOLYLINE
  5
111
100
AcDbEntity
  8
0
 62
7
100
AcDbPolyline
 90
3
 70
0
 10
90.177000
 20
179.784750
 30
0.0
 10
95.993250
 20
179.784750
 30
0.0
 10
95.993250
 20
15.184500
 30
0.0
  0
SPLINE
  5
112
100
AcDbEntity
  8
0
 62
7
100
AcDbSpline
 70
8
 71
3
 72
8
 73
4
 74
0
 40
0
 40
0
 40
0
 40
0
 40
1
 40
1
 40
1
 40
1
 10
132.679500
 20
179.784750
 30
0.0
 10
134.336250
 20
179.784750
 30
0.0
 10
135.679500
 20
181.128000
 30
0.0
 10
135.679500
 20
182.784750
 30
0.0
  0
LWPOLYLINE
  5
113
100
AcDbEntity
  8
0
 62
7
100
AcDbPolyline
 90
3
 70
0
 10
126.360750
 20
15.184500
 30
0.0
 10
126.360750
 20
179.784750
 30
0.0
 10
132.679500
 20
179.784750
 30
0.0
  0
SPLINE
  5
114
100
AcDbEntity
  8
0
 62
7
100
AcDbSpline
 70
8
 71
3
 72
8
 73
4
 74
0
 40
0
 40
0
 40
0
 40
0
 40
1
 40
1
 40
1
 40
1
 10
135.679500
 20
198.000750
 30
0.0
 10
139.682250
 20
198.811500
 30
0.0
 10
144.735000
 20
199.251000
 30
0.0
 10
150.198000
 20
199.251000
 30
0.0
  0
SPLINE
  5
115
100
AcDbEntity
  8
0
 62
7
100
AcDbSpline
 70
8
 71
3
 72
8
 73
4
 74
0
 40
0
 40
0
 40
0
 40
0
 40
1
 40
1
 40
1
 40
1
 10
150.198000
 20
199.251000
 30
0.0
 10
162.432750
 20
199.251000
 30
0.0
 10
175.185000
 20
197.151750
 30
0.0
 10
184.312500
 20
193.636500
 30
0.0
  0
SPLINE
  5
116
100
AcDbEntity
  8
0
 62
7
100
AcDbSpline
 70
8
 71
3
 72
8
 73
4
 74
0
 40
0
 40
0
 40
0
 40
0
 40
1
 40
1
 40
1
 40
1
 10
184.312500
 20
193.636500
 30
0.0
 10
185.361750
 20
193.231500
 30
0.0
 10
186.548250
 20
193.449000
 30
0.0
 10
187.389000
 20
194.197500
 30
0.0
  0
SPLINE
  5
117
100
AcDbEntity
  8
0
 62
7
100
AcDbSpline
 70
8
 71
3
 72
8
 73
4
 74
0
 40
0
 40
0
 40
0
 40
0
 40
1
 40
1
 40
1
 40
1
 10
187.389000
 20
194.197500
 30
0.0
 10
188.227500
 20
194.946750
 30
0.0
 10
188.577750
 20
196.102500
 30
0.0
 10
188.294250
 20
197.191500
 30
0.0
  0
LWPOLYLINE
  5
118
100
AcDbEntity
  8
0
 62
7
100
AcDbPolyline
 90
2
 70
0
 10
135.679500
 20
182.784750
 30
0.0
 10
135.679500
 20
198.000750
 30
0.0
  0
LWPOLYLINE
  5
119
100
AcDbEntity
  8
0
 62
7
100
AcDbPolyline
 90
1
 70
1
 10
188.294250
 20
197.191500
 30
0.0
  0
SPLINE
  5
11a
100
AcDbEntity
  8
0
 62
7
100
AcDbSpline
 70
8
 71
3
 72
8
 73
4
 74
0
 40
0
 40
0
 40
0
 40
0
 40
1
 40
1
 40
1
 40
1
 10
78.177000
 20
195.243000
 30
0.0
 10
74.778000
 20
195.243000
 30
0.0
 10
71.673750
 20
194.323500
 30
0.0
 10
69.177000
 20
192.768750
 30
0.0
  0
LWPOLYLINE
  5
11b
100
AcDbEntity
  8
0
 62
7
100
AcDbPolyline
 90
5
 70
1
 10
48.492000
 20
224.883000
 30
0.0
 10
63.177000
 20
224.883000
 30
0.0
 10
63.177000
 20
185.784750
 30
0.0
 10
48.492000
 20
185.784750
 30
0.0
 10
48.492000
 20
224.883000
 30
0.0
  0
SPLINE
  5
11c
100
AcDbEntity
  8
0
 62
7
100
AcDbSpline
 70
8
 71
3
 72
8
 73
4
 74
0
 40
0
 40
0
 40
0
 40
0
 40
1
 40
1
 40
1
 40
1
 10
69.177000
 20
217.929000
 30
0.0
 10
71.690250
 20
216.339000
 30
0.0
 10
74.806500
 20
215.388000
 30
0.0
 10
78.177000
 20
215.388000
 30
0.0
  0
SPLINE
  5
11d
100
AcDbEntity
  8
0
 62
7
100
AcDbSpline
 70
8
 71
3
 72
8
 73
4
 74
0
 40
0
 40
0
 40
0
 40
0
 40
1
 40
1
 40
1
 40
1
 10
78.177000
 20
215.388000
 30
0.0
 10
81.892500
 20
215.388000
 30
0.0
 10
85.298250
 20
216.543000
 30
0.0
 10
87.927000
 20
218.437500
 30
0.0
  0
LWPOLYLINE
  5
11e
100
AcDbEntity
  8
0
 62
7
100
AcDbPolyline
 90
2
 70
0
 10
69.177000
 20
192.768750
 30
0.0
 10
69.177000
 20
217.929000
 30
0.0
  0
SPLINE
  5
11f
100
AcDbEntity
  8
0
 62
7
100
AcDbSpline
 70
8
 71
3
 72
8
 73
4
 74
0
 40
0
 40
0
 40
0
 40
0
 40
1
 40
1
 40
1
 40
1
 10
87.927000
 20
192.268500
 30
0.0
 10
85.316250
 20
194.125500
 30
0.0
 10
81.926250
 20
195.243000
 30
0.0
 10
78.177000
 20
195.243000
 30
0.0
  0
LWPOLYLINE
  5
120
100
AcDbEntity
  8
0
 62
7
100
AcDbPolyline
 90
2
 70
0
 10
87.927000
 20
218.437500
 30
0.0
 10
87.927000
 20
192.268500
 30
0.0
  0
LWPOLYLINE
  5
121
100
AcDbEntity
  8
0
 62
7
100
AcDbPolyline
 90
1
 70
1
 10
78.177000
 20
195.243000
 30
0.0
  0
LWPOLYLINE
  5
122
100
AcDbEntity
  8
0
 62
7
100
AcDbPolyline
 90
5
 70
1
 10
101.993250
 20
20.882250
 30
0.0
 10
101.993250
 20
29.732250
 30
0.0
 10
120.360750
 20
29.732250
 30
0.0
 10
120.360750
 20
20.882250
 30
0.0
 10
101.993250
 20
20.882250
 30
0.0
  0
LWPOLYLINE
  5
123
100
AcDbEntity
  8
0
 62
7
100
AcDbPolyline
 90
5
 70
1
 10
120.360750
 20
44.582250
 30
0.0
 10
120.360750
 20
35.732250
 30
0.0
 10
101.993250
 20
35.732250
 30
0.0
 10
101.993250
 20
44.582250
 30
0.0
 10
120.360750
 20
44.582250
 30
0.0
  0
LWPOLYLINE
  5
124
100
AcDbEntity
  8
0
 62
7
100
AcDbPolyline
 90
5
 70
1
 10
101.993250
 20
50.582250
 30
0.0
 10
101.993250
 20
59.432250
 30
0.0
 10
120.360750
 20
59.432250
 30
0.0
 10
120.360750
 20
50.582250
 30
0.0
 10
101.993250
 20
50.582250
 30
0.0
  0
LWPOLYLINE
  5
125
100
AcDbEntity
  8
0
 62
7
100
AcDbPolyline
 90
5
 70
1
 10
120.360750
 20
65.431500
 30
0.0
 10
101.993250
 20
65.431500
 30
0.0
 10
101.993250
 20
74.281500
 30
0.0
 10
120.360750
 20
74.281500
 30
0.0
 10
120.360750
 20
65.431500
 30
0.0
  0
SPLINE
  5
126
100
AcDbEntity
  8
0
 62
7
100
AcDbSpline
 70
8
 71
3
 72
8
 73
4
 74
0
 40
0
 40
0
 40
0
 40
0
 40
1
 40
1
 40
1
 40
1
 10
111.177000
 20
6.000000
 30
0.0
 10
106.215000
 20
6.000000
 30
0.0
 10
102.170250
 20
9.958500
 30
0.0
 10
102.008250
 20
14.881500
 30
0.0
  0
LWPOLYLINE
  5
127
100
AcDbEntity
  8
0
 62
7
100
AcDbPolyline
 90
5
 70
1
 10
120.360750
 20
80.281500
 30
0.0
 10
101.993250
 20
80.281500
 30
0.0
 10
101.993250
 20
89.131500
 30
0.0
 10
120.360750
 20
89.131500
 30
0.0
 10
120.360750
 20
80.281500
 30
0.0
  0
SPLINE
  5
128
100
AcDbEntity
  8
0
 62
7
100
AcDbSpline
 70
8
 71
3
 72
8
 73
4
 74
0
 40
0
 40
0
 40
0
 40
0
 40
1
 40
1
 40
1
 40
1
 10
120.345000
 20
14.881500
 30
0.0
 10
120.183750
 20
9.958500
 30
0.0
 10
116.139000
 20
6.000000
 30
0.0
 10
111.177000
 20
6.000000
 30
0.0
  0
LWPOLYLINE
  5
129
100
AcDbEntity
  8
0
 62
7
100
AcDbPolyline
 90
2
 70
0
 10
102.008250
 20
14.881500
 30
0.0
 10
120.345000
 20
14.881500
 30
0.0
  0
LWPOLYLINE
  5
12a
100
AcDbEntity
  8
0
 62
7
100
AcDbPolyline
 90
1
 70
1
 10
111.177000
 20
6.000000
 30
0.0
  0
LWPOLYLINE
  5
12b
100
AcDbEntity
  8
0
 62
7
100
AcDbPolyline
 90
5
 70
1
 10
120.360750
 20
95.132250
 30
0.0
 10
101.993250
 20
95.132250
 30
0.0
 10
101.993250
 20
179.784750
 30
0.0
 10
120.360750
 20
179.784750
 30
0.0
 10
120.360750
 20
95.132250
 30
0.0
  0
SPLINE
  5
12c
100
AcDbEntity
  8
0
 62
7
100
AcDbSpline
 70
8
 71
3
 72
8
 73
4
 74
0
 40
0
 40
0
 40
0
 40
0
 40
1
 40
1
 40
1
 40
1
 10
150.198000
 20
205.251000
 30
0.0
 10
144.799500
 20
205.251000
 30
0.0
 10
139.871250
 20
204.860250
 30
0.0
 10
135.702000
 20
204.113250
 30
0.0
  0
LWPOLYLINE
  5
12d
100
AcDbEntity
  8
0
 62
7
100
AcDbPolyline
 90
5
 70
1
 10
129.679500
 20
185.784750
 30
0.0
 10
93.927000
 20
185.784750
 30
0.0
 10
93.927000
 20
224.883000
 30
0.0
 10
129.679500
 20
224.883000
 30
0.0
 10
129.679500
 20
185.784750
 30
0.0
  0
SPLINE
  5
12e
100
AcDbEntity
  8
0
 62
7
100
AcDbSpline
 70
8
 71
3
 72
8
 73
4
 74
0
 40
0
 40
0
 40
0
 40
0
 40
1
 40
1
 40
1
 40
1
 10
144.102000
 20
224.883000
 30
0.0
 10
160.225500
 20
224.883000
 30
0.0
 10
174.494250
 20
215.385000
 30
0.0
 10
180.599250
 20
201.189000
 30
0.0
  0
SPLINE
  5
12f
100
AcDbEntity
  8
0
 62
7
100
AcDbSpline
 70
8
 71
3
 72
8
 73
4
 74
0
 40
0
 40
0
 40
0
 40
0
 40
1
 40
1
 40
1
 40
1
 10
180.599250
 20
201.189000
 30
0.0
 10
171.628500
 20
203.766000
 30
0.0
 10
160.706250
 20
205.251000
 30
0.0
 10
150.198000
 20
205.251000
 30
0.0
  0
LWPOLYLINE
  5
130
100
AcDbEntity
  8
0
 62
7
100
AcDbPolyline
 90
3
 70
0
 10
135.702000
 20
204.113250
 30
0.0
 10
135.702000
 20
224.883000
 30
0.0
 10
144.102000
 20
224.883000
 30
0.0
  0
LWPOLYLINE
  5
131
100
AcDbEntity
  8
0
 62
7
100
AcDbPolyline
 90
1
 70
1
 10
150.198000
 20
205.251000
 30
0.0
  0
ENDSEC
  0
SECTION
  2
OBJECTS
  0
DICTIONARY
  5
C
330
0
100
AcDbDictionary
  3
ACAD_GROUP
350
D
  3
ACAD_MLINESTYLE
350
17
  0
DICTIONARY
  5
D
330
C
100
AcDbDictionary
  0
DICTIONARY
  5
1A
330
C
100
AcDbDictionary
  0
DICTIONARY
  5
17
330
C
100
AcDbDictionary
  3
STANDARD
350
18
  0
DICTIONARY
  5
19
330
C
100
AcDbDictionary
  0
ENDSEC
  0
EOF
