  0
SECTION
  2
HEADER
  9
$ACADVER
  1
AC1014
  9
$HANDSEED
  5
FFFF
  9
$MEASUREMENT
 70
     1
  0
ENDSEC
  0
SECTION
  2
TABLES
  0
TABLE
  2
VPORT
  5
8
330
0
100
AcDbSymbolTable
 70
     4
  0
VPORT
  5
2E
330
8
100
AcDbSymbolTableRecord
100
AcDbViewportTableRecord
  2
*ACTIVE
 70
     0
 10
0.0
 20
0.0
 11
1.0
 21
1.0
 12
210.0
 22
148.5
 13
0.0
 23
0.0
 14
10.0
 24
10.0
 15
10.0
 25
10.0
 16
0.0
 26
0.0
 36
1.0
 17
0.0
 27
0.0
 37
0.0
 40
341.0
 41
1.24
 42
50.0
 43
0.0
 44
0.0
 50
0.0
 51
0.0
 71
     0
 72
   100
 73
     1
 74
     3
 75
     0
 76
     0
 77
     0
 78
     0
  0
ENDTAB
  0
TABLE
  2
LTYPE
  5
5
330
0
100
AcDbSymbolTable
 70
     1
  0
LTYPE
  5
14
330
5
100
AcDbSymbolTableRecord
100
AcDbLinetypeTableRecord
  2
BYBLOCK
 70
     0
  3

 72
    65
 73
     0
 40
0.0
  0
LTYPE
  5
15
330
5
100
AcDbSymbolTableRecord
100
AcDbLinetypeTableRecord
  2
BYLAYER
 70
     0
  3

 72
    65
 73
     0
 40
0.0
  0
LTYPE
  5
16
330
5
100
AcDbSymbolTableRecord
100
AcDbLinetypeTableRecord
  2
CONTINUOUS
 70
     0
  3
Solid line
 72
    65
 73
     0
 40
0.0
  0
ENDTAB
  0
TABLE
  2
LAYER
  5
2
100
AcDbSymbolTable
 70
1
  0
LAYER
  5
50
100
AcDbSymbolTableRecord
100
AcDbLayerTableRecord
  2
0
 70
0
  6
CONTINUOUS
  0
ENDTAB
  0
TABLE
  2
STYLE
  5
3
330
0
100
AcDbSymbolTable
 70
     1
  0
STYLE
  5
11
330
3
100
AcDbSymbolTableRecord
100
AcDbTextStyleTableRecord
  2
STANDARD
 70
     0
 40
0.0
 41
1.0
 50
0.0
 71
     0
 42
2.5
  3
txt
  4

  0
ENDTAB
  0
TABLE
  2
VIEW
  5
6
330
0
100
AcDbSymbolTable
 70
     0
  0
ENDTAB
  0
TABLE
  2
UCS
  5
7
330
0
100
AcDbSymbolTable
 70
     0
  0
ENDTAB
  0
TABLE
  2
APPID
  5
9
330
0
100
AcDbSymbolTable
 70
     2
  0
APPID
  5
12
330
9
100
AcDbSymbolTableRecord
100
AcDbRegAppTableRecord
  2
ACAD
 70
     0
  0
ENDTAB
  0
TABLE
  2
DIMSTYLE
  5
A
330
0
100
AcDbSymbolTable
 70
     1
  0
DIMSTYLE
105
27
330
A
100
AcDbSymbolTableRecord
100
AcDbDimStyleTableRecord
  2
ISO-25
 70
     0
  3

  4

  5

  6

  7

 40
1.0
 41
2.5
 42
0.625
 43
3.75
 44
1.25
 45
0.0
 46
0.0
 47
0.0
 48
0.0
140
2.5
141
2.5
142
0.0
143
0.03937007874016
144
1.0
145
0.0
146
1.0
147
0.625
 71
     0
 72
     0
 73
     0
 74
     0
 75
     0
 76
     0
 77
     1
 78
     8
170
     0
171
     3
172
     1
173
     0
174
     0
175
     0
176
     0
177
     0
178
     0
270
     2
271
     2
272
     2
273
     2
274
     3
340
11
275
     0
280
     0
281
     0
282
     0
283
     0
284
     8
285
     0
286
     0
287
     3
288
     0
  0
ENDTAB
  0
TABLE
  2
BLOCK_RECORD
  5
1
330
0
100
AcDbSymbolTable
 70
     1
  0
BLOCK_RECORD
  5
1F
330
1
100
AcDbSymbolTableRecord
100
AcDbBlockTableRecord
  2
*MODEL_SPACE
  0
BLOCK_RECORD
  5
1B
330
1
100
AcDbSymbolTableRecord
100
AcDbBlockTableRecord
  2
*PAPER_SPACE
  0
ENDTAB
  0
ENDSEC
  0
SECTION
  2
BLOCKS
  0
BLOCK
  5
20
330
1F
100
AcDbEntity
  8
0
100
AcDbBlockBegin
  2
*MODEL_SPACE
 70
     0
 10
0.0
 20
0.0
 30
0.0
  3
*MODEL_SPACE
  1

  0
ENDBLK
  5
21
330
1F
100
AcDbEntity
  8
0
100
AcDbBlockEnd
  0
BLOCK
  5
1C
330
1B
100
AcDbEntity
 67
     1
  8
0
100
AcDbBlockBegin
  2
*PAPER_SPACE
  1

  0
ENDBLK
  5
1D
330
1B
100
AcDbEntity
 67
     1
  8
0
100
AcDbBlockEnd
  0
ENDSEC
  0
SECTION
  2
ENTITIES
  0
SPLINE
  5
100
100
AcDbEntity
  8
0
 62
7
100
AcDbSpline
 70
8
 71
3
 72
8
 73
4
 74
0
 40
0
 40
0
 40
0
 40
0
 40
1
 40
1
 40
1
 40
1
 10
307.814250
 20
140.679750
 30
0.0
 10
307.814250
 20
157.986000
 30
0.0
 10
297.573750
 20
178.558500
 30
0.0
 10
280.422000
 20
195.711000
 30
0.0
  0
LWPOLYLINE
  5
101
100
AcDbEntity
  8
0
 62
7
100
AcDbPolyline
 90
3
 70
0
 10
323.844000
 20
115.764000
 30
0.0
 10
307.814250
 20
118.146750
 30
0.0
 10
307.814250
 20
140.679750
 30
0.0
  0
SPLINE
  5
102
100
AcDbEntity
  8
0
 62
7
100
AcDbSpline
 70
8
 71
3
 72
8
 73
4
 74
0
 40
0
 40
0
 40
0
 40
0
 40
1
 40
1
 40
1
 40
1
 10
245.056500
 20
231.076500
 30
0.0
 10
235.433250
 20
240.699750
 30
0.0
 10
219.776250
 20
240.699000
 30
0.0
 10
210.152250
 20
231.076500
 30
0.0
  0
SPLINE
  5
103
100
AcDbEntity
  8
0
 62
7
100
AcDbSpline
 70
8
 71
3
 72
8
 73
4
 74
0
 40
0
 40
0
 40
0
 40
0
 40
1
 40
1
 40
1
 40
1
 10
210.152250
 20
231.076500
 30
0.0
 10
206.178750
 20
227.103000
 30
0.0
 10
203.990250
 20
221.819250
 30
0.0
 10
203.990250
 20
216.200250
 30
0.0
  0
SPLINE
  5
104
100
AcDbEntity
  8
0
 62
7
100
AcDbSpline
 70
8
 71
3
 72
8
 73
4
 74
0
 40
0
 40
0
 40
0
 40
0
 40
1
 40
1
 40
1
 40
1
 10
203.990250
 20
216.200250
 30
0.0
 10
203.990250
 20
210.580500
 30
0.0
 10
206.178750
 20
205.297500
 30
0.0
 10
210.152250
 20
201.323250
 30
0.0
  0
LWPOLYLINE
  5
105
100
AcDbEntity
  8
0
 62
7
100
AcDbPolyline
 90
2
 70
0
 10
280.422000
 20
195.711000
 30
0.0
 10
245.056500
 20
231.076500
 30
0.0
  0
SPLINE
  5
106
100
AcDbEntity
  8
0
 62
7
100
AcDbSpline
 70
8
 71
3
 72
8
 73
4
 74
0
 40
0
 40
0
 40
0
 40
0
 40
1
 40
1
 40
1
 40
1
 10
244.350750
 20
167.124750
 30
0.0
 10
248.268750
 20
163.207500
 30
0.0
 10
250.174500
 20
157.800750
 30
0.0
 10
249.580500
 20
152.292750
 30
0.0
  0
SPLINE
  5
107
100
AcDbEntity
  8
0
 62
7
100
AcDbSpline
 70
8
 71
3
 72
8
 73
4
 74
0
 40
0
 40
0
 40
0
 40
0
 40
1
 40
1
 40
1
 40
1
 10
249.580500
 20
152.292750
 30
0.0
 10
248.986500
 20
146.784750
 30
0.0
 10
245.973000
 20
141.911250
 30
0.0
 10
241.312500
 20
138.920250
 30
0.0
  0
LWPOLYLINE
  5
108
100
AcDbEntity
  8
0
 62
7
100
AcDbPolyline
 90
2
 70
0
 10
210.152250
 20
201.323250
 30
0.0
 10
244.350750
 20
167.124750
 30
0.0
  0
SPLINE
  5
109
100
AcDbEntity
  8
0
 62
7
100
AcDbSpline
 70
8
 71
3
 72
8
 73
4
 74
0
 40
0
 40
0
 40
0
 40
0
 40
1
 40
1
 40
1
 40
1
 10
199.756500
 20
158.422500
 30
0.0
 10
199.756500
 20
160.079250
 30
0.0
 10
198.413250
 20
161.422500
 30
0.0
 10
196.756500
 20
161.422500
 30
0.0
  0
LWPOLYLINE
  5
10a
100
AcDbEntity
  8
0
 62
7
100
AcDbPolyline
 90
4
 70
0
 10
241.312500
 20
138.920250
 30
0.0
 10
227.530500
 20
130.080000
 30
0.0
 10
199.756500
 20
134.208750
 30
0.0
 10
199.756500
 20
158.422500
 30
0.0
  0
SPLINE
  5
10b
100
AcDbEntity
  8
0
 62
7
100
AcDbSpline
 70
8
 71
3
 72
8
 73
4
 74
0
 40
0
 40
0
 40
0
 40
0
 40
1
 40
1
 40
1
 40
1
 10
185.975250
 20
180.922500
 30
0.0
 10
187.146750
 20
182.094750
 30
0.0
 10
187.146750
 20
183.993750
 30
0.0
 10
185.975250
 20
185.165250
 30
0.0
  0
LWPOLYLINE
  5
10c
100
AcDbEntity
  8
0
 62
7
100
AcDbPolyline
 90
3
 70
0
 10
196.756500
 20
161.422500
 30
0.0
 10
166.475250
 20
161.422500
 30
0.0
 10
185.975250
 20
180.922500
 30
0.0
  0
SPLINE
  5
10d
100
AcDbEntity
  8
0
 62
7
100
AcDbSpline
 70
8
 71
3
 72
8
 73
4
 74
0
 40
0
 40
0
 40
0
 40
0
 40
1
 40
1
 40
1
 40
1
 10
160.881000
 20
210.260250
 30
0.0
 10
159.709500
 20
211.431000
 30
0.0
 10
157.810500
 20
211.431000
 30
0.0
 10
156.638250
 20
210.260250
 30
0.0
  0
LWPOLYLINE
  5
10e
100
AcDbEntity
  8
0
 62
7
100
AcDbPolyline
 90
2
 70
0
 10
185.975250
 20
185.165250
 30
0.0
 10
160.881000
 20
210.260250
 30
0.0
  0
SPLINE
  5
10f
100
AcDbEntity
  8
0
 62
7
100
AcDbSpline
 70
8
 71
3
 72
8
 73
4
 74
0
 40
0
 40
0
 40
0
 40
0
 40
1
 40
1
 40
1
 40
1
 10
121.384500
 20
179.546250
 30
0.0
 10
122.556000
 20
180.718500
 30
0.0
 10
122.556000
 20
182.617500
 30
0.0
 10
121.384500
 20
183.789000
 30
0.0
  0
LWPOLYLINE
  5
110
100
AcDbEntity
  8
0
 62
7
100
AcDbPolyline
 90
4
 70
0
 10
156.638250
 20
210.260250
 30
0.0
 10
113.017500
 20
166.639500
 30
0.0
 10
110.748000
 20
168.909000
 30
0.0
 10
121.384500
 20
179.546250
 30
0.0
  0
SPLINE
  5
111
100
AcDbEntity
  8
0
 62
7
100
AcDbSpline
 70
8
 71
3
 72
8
 73
4
 74
0
 40
0
 40
0
 40
0
 40
0
 40
1
 40
1
 40
1
 40
1
 10
105.850500
 20
199.323000
 30
0.0
 10
104.679000
 20
200.493750
 30
0.0
 10
102.780000
 20
200.493750
 30
0.0
 10
101.607750
 20
199.323000
 30
0.0
  0
LWPOLYLINE
  5
112
100
AcDbEntity
  8
0
 62
7
100
AcDbPolyline
 90
2
 70
0
 10
121.384500
 20
183.789000
 30
0.0
 10
105.850500
 20
199.323000
 30
0.0
  0
SPLINE
  5
113
100
AcDbEntity
  8
0
 62
7
100
AcDbSpline
 70
8
 71
3
 72
8
 73
4
 74
0
 40
0
 40
0
 40
0
 40
0
 40
1
 40
1
 40
1
 40
1
 10
75.916500
 20
173.632500
 30
0.0
 10
75.354000
 20
173.069250
 30
0.0
 10
75.038250
 20
172.306500
 30
0.0
 10
75.038250
 20
171.510750
 30
0.0
  0
SPLINE
  5
114
100
AcDbEntity
  8
0
 62
7
100
AcDbSpline
 70
8
 71
3
 72
8
 73
4
 74
0
 40
0
 40
0
 40
0
 40
0
 40
1
 40
1
 40
1
 40
1
 10
75.038250
 20
171.510750
 30
0.0
 10
75.038250
 20
170.715000
 30
0.0
 10
75.354000
 20
169.952250
 30
0.0
 10
75.916500
 20
169.389000
 30
0.0
  0
LWPOLYLINE
  5
115
100
AcDbEntity
  8
0
 62
7
100
AcDbPolyline
 90
2
 70
0
 10
101.607750
 20
199.323000
 30
0.0
 10
75.916500
 20
173.632500
 30
0.0
  0
SPLINE
  5
116
100
AcDbEntity
  8
0
 62
7
100
AcDbSpline
 70
8
 71
3
 72
8
 73
4
 74
0
 40
0
 40
0
 40
0
 40
0
 40
1
 40
1
 40
1
 40
1
 10
91.450500
 20
153.855000
 30
0.0
 10
92.036250
 20
153.269250
 30
0.0
 10
92.804250
 20
152.976750
 30
0.0
 10
93.572250
 20
152.976750
 30
0.0
  0
SPLINE
  5
117
100
AcDbEntity
  8
0
 62
7
100
AcDbSpline
 70
8
 71
3
 72
8
 73
4
 74
0
 40
0
 40
0
 40
0
 40
0
 40
1
 40
1
 40
1
 40
1
 10
93.572250
 20
152.976750
 30
0.0
 10
94.340250
 20
152.976750
 30
0.0
 10
95.107500
 20
153.270000
 30
0.0
 10
95.694000
 20
153.855000
 30
0.0
  0
LWPOLYLINE
  5
118
100
AcDbEntity
  8
0
 62
7
100
AcDbPolyline
 90
2
 70
0
 10
75.916500
 20
169.389000
 30
0.0
 10
91.450500
 20
153.855000
 30
0.0
  0
SPLINE
  5
119
100
AcDbEntity
  8
0
 62
7
100
AcDbSpline
 70
8
 71
3
 72
8
 73
4
 74
0
 40
0
 40
0
 40
0
 40
0
 40
1
 40
1
 40
1
 40
1
 10
73.743750
 20
152.940750
 30
0.0
 10
73.011750
 20
153.050250
 30
0.0
 10
72.267000
 20
152.884500
 30
0.0
 10
71.649750
 20
152.476500
 30
0.0
  0
LWPOLYLINE
  5
11a
100
AcDbEntity
  8
0
 62
7
100
AcDbPolyline
 90
5
 70
0
 10
95.694000
 20
153.855000
 30
0.0
 10
106.505250
 20
164.666250
 30
0.0
 10
108.774750
 20
162.396750
 30
0.0
 10
96.009000
 20
149.631000
 30
0.0
 10
73.743750
 20
152.940750
 30
0.0
  0
SPLINE
  5
11b
100
AcDbEntity
  8
0
 62
7
100
AcDbSpline
 70
8
 71
3
 72
8
 73
4
 74
0
 40
0
 40
0
 40
0
 40
0
 40
1
 40
1
 40
1
 40
1
 10
49.440000
 20
158.711250
 30
0.0
 10
55.360500
 20
166.558500
 30
0.0
 10
56.887500
 20
177.336750
 30
0.0
 10
52.476750
 20
186.863250
 30
0.0
  0
SPLINE
  5
11c
100
AcDbEntity
  8
0
 62
7
100
AcDbSpline
 70
8
 71
3
 72
8
 73
4
 74
0
 40
0
 40
0
 40
0
 40
0
 40
1
 40
1
 40
1
 40
1
 10
52.476750
 20
186.863250
 30
0.0
 10
47.989500
 20
196.554750
 30
0.0
 10
38.187000
 20
202.816500
 30
0.0
 10
27.503250
 20
202.816500
 30
0.0
  0
SPLINE
  5
11d
100
AcDbEntity
  8
0
 62
7
100
AcDbSpline
 70
8
 71
3
 72
8
 73
4
 74
0
 40
0
 40
0
 40
0
 40
0
 40
1
 40
1
 40
1
 40
1
 10
27.503250
 20
202.816500
 30
0.0
 10
23.502000
 20
202.816500
 30
0.0
 10
19.619250
 20
201.957750
 30
0.0
 10
15.963000
 20
200.265750
 30
0.0
  0
SPLINE
  5
11e
100
AcDbEntity
  8
0
 62
7
100
AcDbSpline
 70
8
 71
3
 72
8
 73
4
 74
0
 40
0
 40
0
 40
0
 40
0
 40
1
 40
1
 40
1
 40
1
 10
15.963000
 20
200.265750
 30
0.0
 10
9.296250
 20
197.178750
 30
0.0
 10
4.230750
 20
191.681250
 30
0.0
 10
1.699500
 20
184.784250
 30
0.0
  0
SPLINE
  5
11f
100
AcDbEntity
  8
0
 62
7
100
AcDbSpline
 70
8
 71
3
 72
8
 73
4
 74
0
 40
0
 40
0
 40
0
 40
0
 40
1
 40
1
 40
1
 40
1
 10
1.699500
 20
184.784250
 30
0.0
 10
-0.831750
 20
177.888000
 30
0.0
 10
-0.525750
 20
170.418000
 30
0.0
 10
2.560500
 20
163.752000
 30
0.0
  0
SPLINE
  5
120
100
AcDbEntity
  8
0
 62
7
100
AcDbSpline
 70
8
 71
3
 72
8
 73
4
 74
0
 40
0
 40
0
 40
0
 40
0
 40
1
 40
1
 40
1
 40
1
 10
2.560500
 20
163.752000
 30
0.0
 10
7.047750
 20
154.061250
 30
0.0
 10
16.850250
 20
147.799500
 30
0.0
 10
27.534000
 20
147.798750
 30
0.0
  0
LWPOLYLINE
  5
121
100
AcDbEntity
  8
0
 62
7
100
AcDbPolyline
 90
3
 70
0
 10
71.649750
 20
152.476500
 30
0.0
 10
58.040250
 20
143.490000
 30
0.0
 10
49.440000
 20
158.711250
 30
0.0
  0
SPLINE
  5
122
100
AcDbEntity
  8
0
 62
7
100
AcDbSpline
 70
8
 71
3
 72
8
 73
4
 74
0
 40
0
 40
0
 40
0
 40
0
 40
1
 40
1
 40
1
 40
1
 10
27.535500
 20
147.798750
 30
0.0
 10
28.430250
 20
147.798750
 30
0.0
 10
29.319000
 20
147.848250
 30
0.0
 10
30.201000
 20
147.933750
 30
0.0
  0
LWPOLYLINE
  5
123
100
AcDbEntity
  8
0
 62
7
100
AcDbPolyline
 90
2
 70
0
 10
27.534000
 20
147.798750
 30
0.0
 10
27.535500
 20
147.798750
 30
0.0
  0
SPLINE
  5
124
100
AcDbEntity
  8
0
 62
7
100
AcDbSpline
 70
8
 71
3
 72
8
 73
4
 74
0
 40
0
 40
0
 40
0
 40
0
 40
1
 40
1
 40
1
 40
1
 10
12.784500
 20
113.610000
 30
0.0
 10
12.023250
 20
113.107500
 30
0.0
 10
11.532000
 20
112.286250
 30
0.0
 10
11.450250
 20
111.378000
 30
0.0
  0
LWPOLYLINE
  5
125
100
AcDbEntity
  8
0
 62
7
100
AcDbPolyline
 90
3
 70
0
 10
30.201000
 20
147.933750
 30
0.0
 10
39.593250
 20
131.311500
 30
0.0
 10
12.784500
 20
113.610000
 30
0.0
  0
SPLINE
  5
126
100
AcDbEntity
  8
0
 62
7
100
AcDbSpline
 70
8
 71
3
 72
8
 73
4
 74
0
 40
0
 40
0
 40
0
 40
0
 40
1
 40
1
 40
1
 40
1
 10
10.605000
 20
102.083250
 30
0.0
 10
10.528500
 20
101.244000
 30
0.0
 10
10.809000
 20
100.410750
 30
0.0
 10
11.377500
 20
99.788250
 30
0.0
  0
SPLINE
  5
127
100
AcDbEntity
  8
0
 62
7
100
AcDbSpline
 70
8
 71
3
 72
8
 73
4
 74
0
 40
0
 40
0
 40
0
 40
0
 40
1
 40
1
 40
1
 40
1
 10
11.377500
 20
99.788250
 30
0.0
 10
11.946000
 20
99.165750
 30
0.0
 10
12.750000
 20
98.811000
 30
0.0
 10
13.593000
 20
98.811000
 30
0.0
  0
LWPOLYLINE
  5
128
100
AcDbEntity
  8
0
 62
7
100
AcDbPolyline
 90
2
 70
0
 10
11.450250
 20
111.378000
 30
0.0
 10
10.605000
 20
102.083250
 30
0.0
  0
SPLINE
  5
129
100
AcDbEntity
  8
0
 62
7
100
AcDbSpline
 70
8
 71
3
 72
8
 73
4
 74
0
 40
0
 40
0
 40
0
 40
0
 40
1
 40
1
 40
1
 40
1
 10
71.744250
 20
93.230250
 30
0.0
 10
70.572750
 20
92.058000
 30
0.0
 10
70.572750
 20
90.159000
 30
0.0
 10
71.744250
 20
88.987500
 30
0.0
  0
SPLINE
  5
12a
100
AcDbEntity
  8
0
 62
7
100
AcDbSpline
 70
8
 71
3
 72
8
 73
4
 74
0
 40
0
 40
0
 40
0
 40
0
 40
1
 40
1
 40
1
 40
1
 10
71.744250
 20
88.987500
 30
0.0
 10
72.330000
 20
88.401750
 30
0.0
 10
73.098000
 20
88.109250
 30
0.0
 10
73.866000
 20
88.109250
 30
0.0
  0
SPLINE
  5
12b
100
AcDbEntity
  8
0
 62
7
100
AcDbSpline
 70
8
 71
3
 72
8
 73
4
 74
0
 40
0
 40
0
 40
0
 40
0
 40
1
 40
1
 40
1
 40
1
 10
73.866000
 20
88.109250
 30
0.0
 10
74.634000
 20
88.109250
 30
0.0
 10
75.401250
 20
88.402500
 30
0.0
 10
75.987750
 20
88.987500
 30
0.0
  0
LWPOLYLINE
  5
12c
100
AcDbEntity
  8
0
 62
7
100
AcDbPolyline
 90
3
 70
0
 10
13.593000
 20
98.811000
 30
0.0
 10
77.325000
 20
98.811000
 30
0.0
 10
71.744250
 20
93.230250
 30
0.0
  0
SPLINE
  5
12d
100
AcDbEntity
  8
0
 62
7
100
AcDbSpline
 70
8
 71
3
 72
8
 73
4
 74
0
 40
0
 40
0
 40
0
 40
0
 40
1
 40
1
 40
1
 40
1
 10
323.405250
 20
98.811750
 30
0.0
 10
325.062000
 20
98.811750
 30
0.0
 10
326.405250
 20
100.155000
 30
0.0
 10
326.405250
 20
101.811750
 30
0.0
  0
LWPOLYLINE
  5
12e
100
AcDbEntity
  8
0
 62
7
100
AcDbPolyline
 90
3
 70
0
 10
75.987750
 20
88.987500
 30
0.0
 10
85.812000
 20
98.811750
 30
0.0
 10
323.405250
 20
98.811750
 30
0.0
  0
SPLINE
  5
12f
100
AcDbEntity
  8
0
 62
7
100
AcDbSpline
 70
8
 71
3
 72
8
 73
4
 74
0
 40
0
 40
0
 40
0
 40
0
 40
1
 40
1
 40
1
 40
1
 10
326.405250
 20
112.795500
 30
0.0
 10
326.403000
 20
114.282750
 30
0.0
 10
325.314000
 20
115.545000
 30
0.0
 10
323.844000
 20
115.764000
 30
0.0
  0
LWPOLYLINE
  5
130
100
AcDbEntity
  8
0
 62
7
100
AcDbPolyline
 90
2
 70
0
 10
326.405250
 20
101.811750
 30
0.0
 10
326.405250
 20
112.795500
 30
0.0
  0
LWPOLYLINE
  5
131
100
AcDbEntity
  8
0
 62
7
100
AcDbPolyline
 90
1
 70
1
 10
323.844000
 20
115.764000
 30
0.0
  0
LWPOLYLINE
  5
132
100
AcDbEntity
  8
0
 62
7
100
AcDbPolyline
 90
5
 70
1
 10
103.727250
 20
192.959250
 30
0.0
 10
115.018500
 20
181.668000
 30
0.0
 10
112.330500
 20
178.980000
 30
0.0
 10
101.039250
 20
190.271250
 30
0.0
 10
103.727250
 20
192.959250
 30
0.0
  0
LWPOLYLINE
  5
133
100
AcDbEntity
  8
0
 62
7
100
AcDbPolyline
 90
5
 70
1
 10
108.087750
 20
174.736500
 30
0.0
 10
100.712250
 20
167.361000
 30
0.0
 10
89.421000
 20
178.653000
 30
0.0
 10
96.796500
 20
186.027750
 30
0.0
 10
108.087750
 20
174.736500
 30
0.0
  0
LWPOLYLINE
  5
134
100
AcDbEntity
  8
0
 62
7
100
AcDbPolyline
 90
5
 70
1
 10
93.570750
 20
160.219500
 30
0.0
 10
82.278750
 20
171.510750
 30
0.0
 10
85.178250
 20
174.410250
 30
0.0
 10
96.469500
 20
163.119000
 30
0.0
 10
93.570750
 20
160.219500
 30
0.0
  0
SPLINE
  5
135
100
AcDbEntity
  8
0
 62
7
100
AcDbSpline
 70
8
 71
3
 72
8
 73
4
 74
0
 40
0
 40
0
 40
0
 40
0
 40
1
 40
1
 40
1
 40
1
 10
276.177750
 20
191.468250
 30
0.0
 10
292.230000
 20
175.416750
 30
0.0
 10
301.813500
 20
156.429750
 30
0.0
 10
301.813500
 20
140.679750
 30
0.0
  0
LWPOLYLINE
  5
136
100
AcDbEntity
  8
0
 62
7
100
AcDbPolyline
 90
2
 70
0
 10
240.812250
 20
226.833750
 30
0.0
 10
276.177750
 20
191.468250
 30
0.0
  0
SPLINE
  5
137
100
AcDbEntity
  8
0
 62
7
100
AcDbSpline
 70
8
 71
3
 72
8
 73
4
 74
0
 40
0
 40
0
 40
0
 40
0
 40
1
 40
1
 40
1
 40
1
 10
265.473750
 20
127.354500
 30
0.0
 10
278.805000
 20
140.686500
 30
0.0
 10
278.805750
 20
162.387000
 30
0.0
 10
265.473000
 20
175.728750
 30
0.0
  0
LWPOLYLINE
  5
138
100
AcDbEntity
  8
0
 62
7
100
AcDbPolyline
 90
4
 70
0
 10
301.813500
 20
140.679750
 30
0.0
 10
301.813500
 20
119.039250
 30
0.0
 10
262.937250
 20
124.818000
 30
0.0
 10
265.473750
 20
127.354500
 30
0.0
  0
SPLINE
  5
139
100
AcDbEntity
  8
0
 62
7
100
AcDbSpline
 70
8
 71
3
 72
8
 73
4
 74
0
 40
0
 40
0
 40
0
 40
0
 40
1
 40
1
 40
1
 40
1
 10
214.377000
 20
226.816500
 30
0.0
 10
214.382250
 20
226.821750
 30
0.0
 10
214.387500
 20
226.828500
 30
0.0
 10
214.392750
 20
226.833750
 30
0.0
  0
SPLINE
  5
13a
100
AcDbEntity
  8
0
 62
7
100
AcDbSpline
 70
8
 71
3
 72
8
 73
4
 74
0
 40
0
 40
0
 40
0
 40
0
 40
1
 40
1
 40
1
 40
1
 10
214.392750
 20
226.833750
 30
0.0
 10
221.679000
 20
234.117750
 30
0.0
 10
233.530500
 20
234.117000
 30
0.0
 10
240.812250
 20
226.833750
 30
0.0
  0
LWPOLYLINE
  5
13b
100
AcDbEntity
  8
0
 62
7
100
AcDbPolyline
 90
2
 70
0
 10
265.473000
 20
175.728750
 30
0.0
 10
214.377000
 20
226.816500
 30
0.0
  0
LWPOLYLINE
  5
13c
100
AcDbEntity
  8
0
 62
7
100
AcDbPolyline
 90
1
 70
1
 10
240.812250
 20
226.833750
 30
0.0
  0
LWPOLYLINE
  5
13d
100
AcDbEntity
  8
0
 62
7
100
AcDbPolyline
 90
5
 70
1
 10
228.424500
 20
204.286500
 30
0.0
 10
222.048750
 20
197.910750
 30
0.0
 10
216.715500
 20
203.244000
 30
0.0
 10
223.090500
 20
209.619000
 30
0.0
 10
228.424500
 20
204.286500
 30
0.0
  0
LWPOLYLINE
  5
13e
100
AcDbEntity
  8
0
 62
7
100
AcDbPolyline
 90
5
 70
1
 10
232.668000
 20
200.044500
 30
0.0
 10
237.720000
 20
194.993250
 30
0.0
 10
231.343500
 20
188.616750
 30
0.0
 10
226.292250
 20
193.668000
 30
0.0
 10
232.668000
 20
200.044500
 30
0.0
  0
LWPOLYLINE
  5
13f
100
AcDbEntity
  8
0
 62
7
100
AcDbPolyline
 90
5
 70
1
 10
241.963500
 20
190.750500
 30
0.0
 10
247.015500
 20
185.699250
 30
0.0
 10
240.638250
 20
179.322000
 30
0.0
 10
235.587000
 20
184.373250
 30
0.0
 10
241.963500
 20
190.750500
 30
0.0
  0
SPLINE
  5
140
100
AcDbEntity
  8
0
 62
7
100
AcDbSpline
 70
8
 71
3
 72
8
 73
4
 74
0
 40
0
 40
0
 40
0
 40
0
 40
1
 40
1
 40
1
 40
1
 10
212.655750
 20
207.669750
 30
0.0
 10
209.790750
 20
211.822500
 30
0.0
 10
209.247000
 20
217.098750
 30
0.0
 10
211.031250
 20
221.677500
 30
0.0
  0
LWPOLYLINE
  5
141
100
AcDbEntity
  8
0
 62
7
100
AcDbPolyline
 90
3
 70
0
 10
211.031250
 20
221.677500
 30
0.0
 10
218.847750
 20
213.861750
 30
0.0
 10
212.655750
 20
207.669750
 30
0.0
  0
SPLINE
  5
142
100
AcDbEntity
  8
0
 62
7
100
AcDbSpline
 70
8
 71
3
 72
8
 73
4
 74
0
 40
0
 40
0
 40
0
 40
0
 40
1
 40
1
 40
1
 40
1
 10
244.551000
 20
133.870500
 30
0.0
 10
250.747500
 20
137.847000
 30
0.0
 10
254.754750
 20
144.327000
 30
0.0
 10
255.544500
 20
151.649250
 30
0.0
  0
SPLINE
  5
143
100
AcDbEntity
  8
0
 62
7
100
AcDbSpline
 70
8
 71
3
 72
8
 73
4
 74
0
 40
0
 40
0
 40
0
 40
0
 40
1
 40
1
 40
1
 40
1
 10
255.544500
 20
151.649250
 30
0.0
 10
256.334250
 20
158.972250
 30
0.0
 10
253.800000
 20
166.159500
 30
0.0
 10
248.592000
 20
171.367500
 30
0.0
  0
LWPOLYLINE
  5
144
100
AcDbEntity
  8
0
 62
7
100
AcDbPolyline
 90
1
 70
1
 10
211.031250
 20
221.677500
 30
0.0
  0
SPLINE
  5
145
100
AcDbEntity
  8
0
 62
7
100
AcDbSpline
 70
8
 71
3
 72
8
 73
4
 74
0
 40
0
 40
0
 40
0
 40
0
 40
1
 40
1
 40
1
 40
1
 10
261.230250
 20
171.485250
 30
0.0
 10
272.223750
 20
160.484250
 30
0.0
 10
272.224500
 20
142.589250
 30
0.0
 10
261.231000
 20
131.596500
 30
0.0
  0
LWPOLYLINE
  5
146
100
AcDbEntity
  8
0
 62
7
100
AcDbPolyline
 90
4
 70
0
 10
248.592000
 20
171.367500
 30
0.0
 10
244.880250
 20
175.079250
 30
0.0
 10
251.257500
 20
181.456500
 30
0.0
 10
261.230250
 20
171.485250
 30
0.0
  0
SPLINE
  5
147
100
AcDbEntity
  8
0
 62
7
100
AcDbSpline
 70
8
 71
3
 72
8
 73
4
 74
0
 40
0
 40
0
 40
0
 40
0
 40
1
 40
1
 40
1
 40
1
 10
157.110000
 20
160.545000
 30
0.0
 10
156.252000
 20
159.687000
 30
0.0
 10
155.995500
 20
158.396250
 30
0.0
 10
156.459750
 20
157.275750
 30
0.0
  0
SPLINE
  5
148
100
AcDbEntity
  8
0
 62
7
100
AcDbSpline
 70
8
 71
3
 72
8
 73
4
 74
0
 40
0
 40
0
 40
0
 40
0
 40
1
 40
1
 40
1
 40
1
 10
156.459750
 20
157.275750
 30
0.0
 10
156.924000
 20
156.154500
 30
0.0
 10
158.018250
 20
155.424000
 30
0.0
 10
159.231000
 20
155.424000
 30
0.0
  0
LWPOLYLINE
  5
149
100
AcDbEntity
  8
0
 62
7
100
AcDbPolyline
 90
5
 70
0
 10
261.231000
 20
131.596500
 30
0.0
 10
255.549750
 20
125.915250
 30
0.0
 10
236.550750
 20
128.739750
 30
0.0
 10
244.551000
 20
133.870500
 30
0.0
 10
244.551000
 20
133.870500
 30
0.0
  0
LWPOLYLINE
  5
14a
100
AcDbEntity
  8
0
 62
7
100
AcDbPolyline
 90
8
 70
0
 10
159.231000
 20
155.424000
 30
0.0
 10
193.755000
 20
155.424000
 30
0.0
 10
193.755000
 20
135.102000
 30
0.0
 10
119.357250
 20
146.161500
 30
0.0
 10
167.925750
 20
194.730000
 30
0.0
 10
179.610000
 20
183.045750
 30
0.0
 10
157.110000
 20
160.545000
 30
0.0
 10
157.110000
 20
160.545000
 30
0.0
  0
LWPOLYLINE
  5
14b
100
AcDbEntity
  8
0
 62
7
100
AcDbPolyline
 90
5
 70
1
 10
158.757750
 20
203.896500
 30
0.0
 10
163.682250
 20
198.972000
 30
0.0
 10
111.969000
 20
147.258750
 30
0.0
 10
103.394250
 20
148.533000
 30
0.0
 10
158.757750
 20
203.896500
 30
0.0
  0
SPLINE
  5
14c
100
AcDbEntity
  8
0
 62
7
100
AcDbSpline
 70
8
 71
3
 72
8
 73
4
 74
0
 40
0
 40
0
 40
0
 40
0
 40
1
 40
1
 40
1
 40
1
 10
27.534000
 20
153.798750
 30
0.0
 10
19.179000
 20
153.798750
 30
0.0
 10
11.513250
 20
158.695500
 30
0.0
 10
8.004750
 20
166.272750
 30
0.0
  0
SPLINE
  5
14d
100
AcDbEntity
  8
0
 62
7
100
AcDbSpline
 70
8
 71
3
 72
8
 73
4
 74
0
 40
0
 40
0
 40
0
 40
0
 40
1
 40
1
 40
1
 40
1
 10
8.004750
 20
166.272750
 30
0.0
 10
5.591250
 20
171.485250
 30
0.0
 10
5.352000
 20
177.324750
 30
0.0
 10
7.331250
 20
182.717250
 30
0.0
  0
SPLINE
  5
14e
100
AcDbEntity
  8
0
 62
7
100
AcDbSpline
 70
8
 71
3
 72
8
 73
4
 74
0
 40
0
 40
0
 40
0
 40
0
 40
1
 40
1
 40
1
 40
1
 10
7.331250
 20
182.717250
 30
0.0
 10
9.310500
 20
188.109000
 30
0.0
 10
13.270500
 20
192.407250
 30
0.0
 10
18.483000
 20
194.820750
 30
0.0
  0
SPLINE
  5
14f
100
AcDbEntity
  8
0
 62
7
100
AcDbSpline
 70
8
 71
3
 72
8
 73
4
 74
0
 40
0
 40
0
 40
0
 40
0
 40
1
 40
1
 40
1
 40
1
 10
18.483000
 20
194.820750
 30
0.0
 10
21.343500
 20
196.145250
 30
0.0
 10
24.378000
 20
196.816500
 30
0.0
 10
27.501750
 20
196.816500
 30
0.0
  0
SPLINE
  5
150
100
AcDbEntity
  8
0
 62
7
100
AcDbSpline
 70
8
 71
3
 72
8
 73
4
 74
0
 40
0
 40
0
 40
0
 40
0
 40
1
 40
1
 40
1
 40
1
 10
27.501750
 20
196.816500
 30
0.0
 10
35.856750
 20
196.816500
 30
0.0
 10
43.521750
 20
191.920500
 30
0.0
 10
47.031000
 20
184.342500
 30
0.0
  0
SPLINE
  5
151
100
AcDbEntity
  8
0
 62
7
100
AcDbSpline
 70
8
 71
3
 72
8
 73
4
 74
0
 40
0
 40
0
 40
0
 40
0
 40
1
 40
1
 40
1
 40
1
 10
47.031000
 20
184.342500
 30
0.0
 10
52.012500
 20
173.583000
 30
0.0
 10
47.312250
 20
160.776000
 30
0.0
 10
36.552000
 20
155.794500
 30
0.0
  0
SPLINE
  5
152
100
AcDbEntity
  8
0
 62
7
100
AcDbSpline
 70
8
 71
3
 72
8
 73
4
 74
0
 40
0
 40
0
 40
0
 40
0
 40
1
 40
1
 40
1
 40
1
 10
36.552000
 20
155.794500
 30
0.0
 10
33.691500
 20
154.470000
 30
0.0
 10
30.657750
 20
153.798750
 30
0.0
 10
27.534750
 20
153.798750
 30
0.0
  0
LWPOLYLINE
  5
153
100
AcDbEntity
  8
0
 62
7
100
AcDbPolyline
 90
4
 70
1
 10
73.995750
 20
146.837250
 30
0.0
 10
282.818250
 20
115.796250
 30
0.0
 10
26.983500
 20
115.796250
 30
0.0
 10
73.995750
 20
146.837250
 30
0.0
  0
LWPOLYLINE
  5
154
100
AcDbEntity
  8
0
 62
7
100
AcDbPolyline
 90
3
 70
0
 10
27.534750
 20
153.798750
 30
0.0
 10
27.534000
 20
153.798750
 30
0.0
 10
27.534000
 20
153.798750
 30
0.0
  0
LWPOLYLINE
  5
155
100
AcDbEntity
  8
0
 62
7
100
AcDbPolyline
 90
5
 70
1
 10
36.792000
 20
148.464750
 30
0.0
 10
45.543750
 20
153.407250
 30
0.0
 10
53.018250
 20
140.176500
 30
0.0
 10
44.610750
 20
134.625000
 30
0.0
 10
36.792000
 20
148.464750
 30
0.0
  0
LWPOLYLINE
  5
156
100
AcDbEntity
  8
0
 62
7
100
AcDbPolyline
 90
5
 70
1
 10
17.708250
 20
104.812500
 30
0.0
 10
17.708250
 20
109.796250
 30
0.0
 10
320.403000
 20
109.796250
 30
0.0
 10
320.403000
 20
104.812500
 30
0.0
 10
17.708250
 20
104.812500
 30
0.0
  0
ENDSEC
  0
SECTION
  2
OBJECTS
  0
DICTIONARY
  5
C
330
0
100
AcDbDictionary
  3
ACAD_GROUP
350
D
  3
ACAD_MLINESTYLE
350
17
  0
DICTIONARY
  5
D
330
C
100
AcDbDictionary
  0
DICTIONARY
  5
1A
330
C
100
AcDbDictionary
  0
DICTIONARY
  5
17
330
C
100
AcDbDictionary
  3
STANDARD
350
18
  0
DICTIONARY
  5
19
330
C
100
AcDbDictionary
  0
ENDSEC
  0
EOF
