999
"DXF R12 Output" (www.mydxf.blogspot.com)
 0 
SECTION
 2 
HEADER
 9 
$ACADVER
 1 
AC1009
 9 
$EXTMIN
 10 
 0 
 20 
 0 
 9 
$EXTMAX
 10 
 8.5 
 20 
 11 
 0 
ENDSEC
 0 
SECTION
 2 
ENTITIES
0
LINE
8
Layer 1
10
4.302490
20
-13.134700
11
-20.659510
21
-12.998830
0
LINE
8
Layer 1
10
-20.659510
20
-12.998830
11
-21.045057
21
-12.779315
0
LINE
8
Layer 1
10
-21.045057
20
-12.779315
11
-21.510281
21
-12.640995
0
LINE
8
Layer 1
10
-21.510281
20
-12.640995
11
-21.898920
21
-12.545846
0
LINE
8
Layer 1
10
-21.898920
20
-12.545846
11
-22.394146
21
-12.185271
0
LINE
8
Layer 1
10
-22.394146
20
-12.185271
11
-22.927578
21
-11.729547
0
LINE
8
Layer 1
10
-22.927578
20
-11.729547
11
-22.927600
21
-11.004000
0
LINE
8
Layer 1
10
-22.927600
20
-11.004000
11
-22.746549
21
-10.024881
0
LINE
8
Layer 1
10
-22.746549
20
-10.024881
11
-22.489110
21
-9.816354
0
LINE
8
Layer 1
10
-22.489110
20
-9.816354
11
-22.092727
21
-9.753750
0
LINE
8
Layer 1
10
-22.092727
20
-9.753750
11
-21.680278
21
-9.683981
0
LINE
8
Layer 1
10
-21.680278
20
-9.683981
11
-21.380437
21
-9.477851
0
LINE
8
Layer 1
10
-21.380437
20
-9.477851
11
-21.197432
21
-9.140119
0
LINE
8
Layer 1
10
-21.197432
20
-9.140119
11
-21.135491
21
-8.675550
0
LINE
8
Layer 1
10
-21.135491
20
-8.675550
11
-21.095522
21
-8.231703
0
LINE
8
Layer 1
10
-21.095522
20
-8.231703
11
-20.907385
21
-8.069109
0
LINE
8
Layer 1
10
-20.907385
20
-8.069109
11
-20.546729
21
-7.822670
0
LINE
8
Layer 1
10
-20.546729
20
-7.822670
11
-20.133018
21
-7.662955
0
LINE
8
Layer 1
10
-20.133018
20
-7.662955
11
-19.257292
21
-7.314490
0
LINE
8
Layer 1
10
-19.257292
20
-7.314490
11
-18.359406
21
-6.966025
0
LINE
8
Layer 1
10
-18.359406
20
-6.966025
11
-17.949519
21
-6.766900
0
LINE
8
Layer 1
10
-17.949519
20
-6.766900
11
-17.773438
21
-6.610266
0
LINE
8
Layer 1
10
-17.773438
20
-6.610266
11
-17.410618
21
-6.567775
0
LINE
8
Layer 1
10
-17.410618
20
-6.567775
11
-16.854341
21
-6.418434
0
LINE
8
Layer 1
10
-16.854341
20
-6.418434
11
-16.240749
21
-6.269091
0
LINE
8
Layer 1
10
-16.240749
20
-6.269091
11
-15.431557
21
-6.047087
0
LINE
8
Layer 1
10
-15.431557
20
-6.047087
11
-14.790905
21
-5.528185
0
LINE
8
Layer 1
10
-14.790905
20
-5.528185
11
-14.564424
21
-5.162067
0
LINE
8
Layer 1
10
-14.564424
20
-5.162067
11
-14.261415
21
-4.772587
0
LINE
8
Layer 1
10
-14.261415
20
-4.772587
11
-14.004700
21
-4.495994
0
LINE
8
Layer 1
10
-14.004700
20
-4.495994
11
-13.987621
21
-3.904509
0
LINE
8
Layer 1
10
-13.987621
20
-3.904509
11
-14.016835
21
-3.252192
0
LINE
8
Layer 1
10
-14.016835
20
-3.252192
11
-14.696805
21
-3.066275
0
LINE
8
Layer 1
10
-14.696805
20
-3.066275
11
-17.141566
21
-2.116546
0
LINE
8
Layer 1
10
-17.141566
20
-2.116546
11
-19.381525
21
-0.703425
0
LINE
8
Layer 1
10
-19.381525
20
-0.703425
11
-20.377141
21
0.066093
0
LINE
8
Layer 1
10
-20.377141
20
0.066093
11
-22.115215
21
1.717677
0
LINE
8
Layer 1
10
-22.115215
20
1.717677
11
-23.226291
21
3.078563
0
LINE
8
Layer 1
10
-23.226291
20
3.078563
11
-23.535348
21
3.548925
0
LINE
8
Layer 1
10
-23.535348
20
3.548925
11
-24.621504
21
5.495421
0
LINE
8
Layer 1
10
-24.621504
20
5.495421
11
-25.555118
21
7.891045
0
LINE
8
Layer 1
10
-25.555118
20
7.891045
11
-26.019001
21
10.078878
0
LINE
8
Layer 1
10
-26.019001
20
10.078878
11
-26.207039
21
12.414404
0
LINE
8
Layer 1
10
-26.207039
20
12.414404
11
-26.120157
21
14.941995
0
LINE
8
Layer 1
10
-26.120157
20
14.941995
11
-25.759276
21
17.706025
0
LINE
8
Layer 1
10
-25.759276
20
17.706025
11
-25.349294
21
19.403141
0
LINE
8
Layer 1
10
-25.349294
20
19.403141
11
-25.123233
21
19.737478
0
LINE
8
Layer 1
10
-25.123233
20
19.737478
11
-24.852905
21
19.798775
0
LINE
8
Layer 1
10
-24.852905
20
19.798775
11
-24.602311
21
19.416909
0
LINE
8
Layer 1
10
-24.602311
20
19.416909
11
-24.273835
21
17.625695
0
LINE
8
Layer 1
10
-24.273835
20
17.625695
11
-23.369248
21
12.996075
0
LINE
8
Layer 1
10
-23.369248
20
12.996075
11
-22.585149
21
9.732875
0
LINE
8
Layer 1
10
-22.585149
20
9.732875
11
-22.006290
21
8.033650
0
LINE
8
Layer 1
10
-22.006290
20
8.033650
11
-21.252739
21
6.353205
0
LINE
8
Layer 1
10
-21.252739
20
6.353205
11
-20.361129
21
4.973585
0
LINE
8
Layer 1
10
-20.361129
20
4.973585
11
-19.210325
21
3.724863
0
LINE
8
Layer 1
10
-19.210325
20
3.724863
11
-17.881567
21
2.682116
0
LINE
8
Layer 1
10
-17.881567
20
2.682116
11
-16.456099
21
1.920425
0
LINE
8
Layer 1
10
-16.456099
20
1.920425
11
-13.860484
21
1.143647
0
LINE
8
Layer 1
10
-13.860484
20
1.143647
11
-11.001979
21
0.899615
0
LINE
8
Layer 1
10
-11.001979
20
0.899615
11
-9.827599
21
1.032728
0
LINE
8
Layer 1
10
-9.827599
20
1.032728
11
-9.930286
21
2.195218
0
LINE
8
Layer 1
10
-9.930286
20
2.195218
11
-10.087784
21
3.994270
0
LINE
8
Layer 1
10
-10.087784
20
3.994270
11
-10.031626
21
5.836812
0
LINE
8
Layer 1
10
-10.031626
20
5.836812
11
-9.764666
21
7.713413
0
LINE
8
Layer 1
10
-9.764666
20
7.713413
11
-9.289758
21
9.614643
0
LINE
8
Layer 1
10
-9.289758
20
9.614643
11
-8.609754
21
11.531070
0
LINE
8
Layer 1
10
-8.609754
20
11.531070
11
-7.727509
21
13.453262
0
LINE
8
Layer 1
10
-7.727509
20
13.453262
11
-6.645875
21
15.371788
0
LINE
8
Layer 1
10
-6.645875
20
15.371788
11
-5.367706
21
17.277218
0
LINE
8
Layer 1
10
-5.367706
20
17.277218
11
-2.724426
21
20.313848
0
LINE
8
Layer 1
10
-2.724426
20
20.313848
11
-0.855413
21
21.948343
0
LINE
8
Layer 1
10
-0.855413
20
21.948343
11
1.237109
21
23.409012
0
LINE
8
Layer 1
10
1.237109
20
23.409012
11
3.366051
21
24.579256
0
LINE
8
Layer 1
10
3.366051
20
24.579256
11
5.344324
21
25.342478
0
LINE
8
Layer 1
10
5.344324
20
25.342478
11
7.090224
21
25.931865
0
LINE
8
Layer 1
10
7.090224
20
25.931865
11
8.732994
21
26.481800
0
LINE
8
Layer 1
10
8.732994
20
26.481800
11
10.482442
21
27.109258
0
LINE
8
Layer 1
10
10.482442
20
27.109258
11
12.864174
21
28.187534
0
LINE
8
Layer 1
10
12.864174
20
28.187534
11
15.373031
21
29.472524
0
LINE
8
Layer 1
10
15.373031
20
29.472524
11
17.503854
21
30.720120
0
LINE
8
Layer 1
10
17.503854
20
30.720120
11
19.833123
21
32.368854
0
LINE
8
Layer 1
10
19.833123
20
32.368854
11
21.928984
21
34.052950
0
LINE
8
Layer 1
10
21.928984
20
34.052950
11
23.069874
21
34.945850
0
LINE
8
Layer 1
10
23.069874
20
34.945850
11
24.232380
21
36.031537
0
LINE
8
Layer 1
10
24.232380
20
36.031537
11
25.458904
21
37.874570
0
LINE
8
Layer 1
10
25.458904
20
37.874570
11
25.885873
21
38.659147
0
LINE
8
Layer 1
10
25.885873
20
38.659147
11
25.484532
21
39.865797
0
LINE
8
Layer 1
10
25.484532
20
39.865797
11
24.815885
21
42.140117
0
LINE
8
Layer 1
10
24.815885
20
42.140117
11
24.368069
21
42.799269
0
LINE
8
Layer 1
10
24.368069
20
42.799269
11
23.909354
21
43.473932
0
LINE
8
Layer 1
10
23.909354
20
43.473932
11
23.600044
21
44.706452
0
LINE
8
Layer 1
10
23.600044
20
44.706452
11
23.265982
21
46.100312
0
LINE
8
Layer 1
10
23.265982
20
46.100312
11
22.870285
21
47.842642
0
LINE
8
Layer 1
10
22.870285
20
47.842642
11
21.873406
21
52.522042
0
LINE
8
Layer 1
10
21.873406
20
52.522042
11
21.493648
21
54.857422
0
LINE
8
Layer 1
10
21.493648
20
54.857422
11
21.539950
21
55.418512
0
LINE
8
Layer 1
10
21.539950
20
55.418512
11
21.725793
21
55.996852
0
LINE
8
Layer 1
10
21.725793
20
55.996852
11
21.921247
21
56.710730
0
LINE
8
Layer 1
10
21.921247
20
56.710730
11
21.974697
21
57.498072
0
LINE
8
Layer 1
10
21.974697
20
57.498072
11
21.974700
21
58.313100
0
LINE
8
Layer 1
10
21.974700
20
58.313100
11
21.551563
21
58.652664
0
LINE
8
Layer 1
10
21.551563
20
58.652664
11
20.033200
21
59.973700
0
LINE
8
Layer 1
10
20.033200
20
59.973700
11
17.958600
21
61.816300
0
LINE
8
Layer 1
10
17.958600
20
61.816300
11
15.431048
21
64.135833
0
LINE
8
Layer 1
10
15.431048
20
64.135833
11
13.454738
21
66.165163
0
LINE
8
Layer 1
10
13.454738
20
66.165163
11
12.030258
21
67.903661
0
LINE
8
Layer 1
10
12.030258
20
67.903661
11
11.158200
21
69.350700
0
LINE
8
Layer 1
10
11.158200
20
69.350700
11
10.846460
21
70.745080
0
LINE
8
Layer 1
10
10.846460
20
70.745080
11
10.927032
21
72.309250
0
LINE
8
Layer 1
10
10.927032
20
72.309250
11
11.315063
21
73.547126
0
LINE
8
Layer 1
10
11.315063
20
73.547126
11
11.871297
21
74.737020
0
LINE
8
Layer 1
10
11.871297
20
74.737020
11
12.646842
21
75.488766
0
LINE
8
Layer 1
10
12.646842
20
75.488766
11
13.707677
21
75.769780
0
LINE
8
Layer 1
10
13.707677
20
75.769780
11
14.539167
21
75.686149
0
LINE
8
Layer 1
10
14.539167
20
75.686149
11
16.249857
21
75.229512
0
LINE
8
Layer 1
10
16.249857
20
75.229512
11
17.798457
21
74.974524
0
LINE
8
Layer 1
10
17.798457
20
74.974524
11
18.502671
21
75.067848
0
LINE
8
Layer 1
10
18.502671
20
75.067848
11
19.170288
21
75.444632
0
LINE
8
Layer 1
10
19.170288
20
75.444632
11
19.977595
21
76.245650
0
LINE
8
Layer 1
10
19.977595
20
76.245650
11
21.100877
21
77.611674
0
LINE
8
Layer 1
10
21.100877
20
77.611674
11
23.122487
21
79.841318
0
LINE
8
Layer 1
10
23.122487
20
79.841318
11
23.993274
21
80.473304
0
LINE
8
Layer 1
10
23.993274
20
80.473304
11
24.902777
21
80.897534
0
LINE
8
Layer 1
10
24.902777
20
80.897534
11
26.018879
21
81.131152
0
LINE
8
Layer 1
10
26.018879
20
81.131152
11
27.327078
21
81.138151
0
LINE
8
Layer 1
10
27.327078
20
81.138151
11
28.669577
21
80.930477
0
LINE
8
Layer 1
10
28.669577
20
80.930477
11
29.888577
21
80.520076
0
LINE
8
Layer 1
10
29.888577
20
80.520076
11
31.418345
21
79.541531
0
LINE
8
Layer 1
10
31.418345
20
79.541531
11
32.671495
21
78.154307
0
LINE
8
Layer 1
10
32.671495
20
78.154307
11
33.624978
21
76.391305
0
LINE
8
Layer 1
10
33.624978
20
76.391305
11
34.255747
21
74.285426
0
LINE
8
Layer 1
10
34.255747
20
74.285426
11
34.400082
21
73.608678
0
LINE
8
Layer 1
10
34.400082
20
73.608678
11
34.563221
21
73.300506
0
LINE
8
Layer 1
10
34.563221
20
73.300506
11
34.887443
21
73.258755
0
LINE
8
Layer 1
10
34.887443
20
73.258755
11
35.515027
21
73.381272
0
LINE
8
Layer 1
10
35.515027
20
73.381272
11
36.562050
21
73.747066
0
LINE
8
Layer 1
10
36.562050
20
73.747066
11
37.226957
21
74.326130
0
LINE
8
Layer 1
10
37.226957
20
74.326130
11
37.917125
21
75.736040
0
LINE
8
Layer 1
10
37.917125
20
75.736040
11
38.397417
21
76.717888
0
LINE
8
Layer 1
10
38.397417
20
76.717888
11
39.026245
21
77.627710
0
LINE
8
Layer 1
10
39.026245
20
77.627710
11
40.960767
21
80.325350
0
LINE
8
Layer 1
10
40.960767
20
80.325350
11
42.862305
21
83.734710
0
LINE
8
Layer 1
10
42.862305
20
83.734710
11
44.137032
21
85.969595
0
LINE
8
Layer 1
10
44.137032
20
85.969595
11
44.476750
21
86.287192
0
LINE
8
Layer 1
10
44.476750
20
86.287192
11
44.725945
21
86.215180
0
LINE
8
Layer 1
10
44.725945
20
86.215180
11
44.831170
21
85.940739
0
LINE
8
Layer 1
10
44.831170
20
85.940739
11
44.732859
21
85.171470
0
LINE
8
Layer 1
10
44.732859
20
85.171470
11
43.950819
21
81.451644
0
LINE
8
Layer 1
10
43.950819
20
81.451644
11
42.758379
21
78.079900
0
LINE
8
Layer 1
10
42.758379
20
78.079900
11
42.351938
21
76.808180
0
LINE
8
Layer 1
10
42.351938
20
76.808180
11
42.518895
21
76.718729
0
LINE
8
Layer 1
10
42.518895
20
76.718729
11
42.947081
21
76.903500
0
LINE
8
Layer 1
10
42.947081
20
76.903500
11
49.254521
21
80.006810
0
LINE
8
Layer 1
10
49.254521
20
80.006810
11
50.036633
21
80.215475
0
LINE
8
Layer 1
10
50.036633
20
80.215475
11
50.608789
21
80.181079
0
LINE
8
Layer 1
10
50.608789
20
80.181079
11
50.946071
21
79.911938
0
LINE
8
Layer 1
10
50.946071
20
79.911938
11
51.023561
21
79.416370
0
LINE
8
Layer 1
10
51.023561
20
79.416370
11
50.939840
21
78.868642
0
LINE
8
Layer 1
10
50.939840
20
78.868642
11
51.038335
21
78.697051
0
LINE
8
Layer 1
10
51.038335
20
78.697051
11
51.432619
21
78.910944
0
LINE
8
Layer 1
10
51.432619
20
78.910944
11
52.202679
21
79.287584
0
LINE
8
Layer 1
10
52.202679
20
79.287584
11
53.144629
21
79.452385
0
LINE
8
Layer 1
10
53.144629
20
79.452385
11
54.157133
21
79.079321
0
LINE
8
Layer 1
10
54.157133
20
79.079321
11
55.532329
21
77.959115
0
LINE
8
Layer 1
10
55.532329
20
77.959115
11
56.869782
21
76.840634
0
LINE
8
Layer 1
10
56.869782
20
76.840634
11
57.887659
21
76.408575
0
LINE
8
Layer 1
10
57.887659
20
76.408575
11
59.143163
21
76.640665
0
LINE
8
Layer 1
10
59.143163
20
76.640665
11
61.351259
21
77.565645
0
LINE
8
Layer 1
10
61.351259
20
77.565645
11
63.353192
21
78.478712
0
LINE
8
Layer 1
10
63.353192
20
78.478712
11
64.449649
21
78.812285
0
LINE
8
Layer 1
10
64.449649
20
78.812285
11
66.161979
21
78.921577
0
LINE
8
Layer 1
10
66.161979
20
78.921577
11
67.130514
21
78.786942
0
LINE
8
Layer 1
10
67.130514
20
78.786942
11
68.225649
21
78.295583
0
LINE
8
Layer 1
10
68.225649
20
78.295583
11
69.330183
21
77.668363
0
LINE
8
Layer 1
10
69.330183
20
77.668363
11
70.160553
21
76.999310
0
LINE
8
Layer 1
10
70.160553
20
76.999310
11
70.829469
21
76.176253
0
LINE
8
Layer 1
10
70.829469
20
76.176253
11
71.449639
21
75.087023
0
LINE
8
Layer 1
10
71.449639
20
75.087023
11
71.843362
21
74.222681
0
LINE
8
Layer 1
10
71.843362
20
74.222681
11
72.058802
21
73.441557
0
LINE
8
Layer 1
10
72.058802
20
73.441557
11
72.123709
21
71.140163
0
LINE
8
Layer 1
10
72.123709
20
71.140163
11
71.893084
21
68.516157
0
LINE
8
Layer 1
10
71.893084
20
68.516157
11
71.592451
21
67.554154
0
LINE
8
Layer 1
10
71.592451
20
67.554154
11
71.087509
21
66.460763
0
LINE
8
Layer 1
10
71.087509
20
66.460763
11
70.262063
21
64.917553
0
LINE
8
Layer 1
10
70.262063
20
64.917553
11
69.768976
21
64.130055
0
LINE
8
Layer 1
10
69.768976
20
64.130055
11
68.641970
21
62.582657
0
LINE
8
Layer 1
10
68.641970
20
62.582657
11
66.997599
21
60.695366
0
LINE
8
Layer 1
10
66.997599
20
60.695366
11
65.310462
21
58.981230
0
LINE
8
Layer 1
10
65.310462
20
58.981230
11
64.055156
21
57.953295
0
LINE
8
Layer 1
10
64.055156
20
57.953295
11
62.495322
21
57.286894
0
LINE
8
Layer 1
10
62.495322
20
57.286894
11
61.072516
21
56.956769
0
LINE
8
Layer 1
10
61.072516
20
56.956769
11
60.328400
21
57.101950
0
LINE
8
Layer 1
10
60.328400
20
57.101950
11
59.763416
21
57.584174
0
LINE
8
Layer 1
10
59.763416
20
57.584174
11
59.542621
21
58.101033
0
LINE
8
Layer 1
10
59.542621
20
58.101033
11
59.508609
21
59.650184
0
LINE
8
Layer 1
10
59.508609
20
59.650184
11
59.404387
21
62.030264
0
LINE
8
Layer 1
10
59.404387
20
62.030264
11
58.843175
21
64.282683
0
LINE
8
Layer 1
10
58.843175
20
64.282683
11
58.268717
21
65.996794
0
LINE
8
Layer 1
10
58.268717
20
65.996794
11
57.865618
21
65.989337
0
LINE
8
Layer 1
10
57.865618
20
65.989337
11
57.233977
21
65.483091
0
LINE
8
Layer 1
10
57.233977
20
65.483091
11
56.085019
21
63.790395
0
LINE
8
Layer 1
10
56.085019
20
63.790395
11
54.822247
21
61.557771
0
LINE
8
Layer 1
10
54.822247
20
61.557771
11
54.511466
21
60.825425
0
LINE
8
Layer 1
10
54.511466
20
60.825425
11
54.489341
21
60.380731
0
LINE
8
Layer 1
10
54.489341
20
60.380731
11
54.776956
21
59.940698
0
LINE
8
Layer 1
10
54.776956
20
59.940698
11
56.183286
21
57.738208
0
LINE
8
Layer 1
10
56.183286
20
57.738208
11
57.866606
21
54.894878
0
LINE
8
Layer 1
10
57.866606
20
54.894878
11
59.842026
21
52.283098
0
LINE
8
Layer 1
10
59.842026
20
52.283098
11
60.196974
21
51.944511
0
LINE
8
Layer 1
10
60.196974
20
51.944511
11
61.819524
21
51.927295
0
LINE
8
Layer 1
10
61.819524
20
51.927295
11
63.281692
21
51.871246
0
LINE
8
Layer 1
10
63.281692
20
51.871246
11
64.224034
21
51.689314
0
LINE
8
Layer 1
10
64.224034
20
51.689314
11
65.868931
21
51.062973
0
LINE
8
Layer 1
10
65.868931
20
51.062973
11
67.432419
21
50.164255
0
LINE
8
Layer 1
10
67.432419
20
50.164255
11
68.806705
21
49.066419
0
LINE
8
Layer 1
10
68.806705
20
49.066419
11
69.883994
21
47.842724
0
LINE
8
Layer 1
10
69.883994
20
47.842724
11
70.593217
21
46.635291
0
LINE
8
Layer 1
10
70.593217
20
46.635291
11
71.143774
21
45.353684
0
LINE
8
Layer 1
10
71.143774
20
45.353684
11
71.596232
21
43.471779
0
LINE
8
Layer 1
10
71.596232
20
43.471779
11
71.698662
21
41.022754
0
LINE
8
Layer 1
10
71.698662
20
41.022754
11
71.567680
21
38.140824
0
LINE
8
Layer 1
10
71.567680
20
38.140824
11
71.147031
21
36.454034
0
LINE
8
Layer 1
10
71.147031
20
36.454034
11
70.859396
21
35.750658
0
LINE
8
Layer 1
10
70.859396
20
35.750658
11
70.206501
21
34.455958
0
LINE
8
Layer 1
10
70.206501
20
34.455958
11
69.637107
21
33.145098
0
LINE
8
Layer 1
10
69.637107
20
33.145098
11
72.057227
21
33.034808
0
LINE
8
Layer 1
10
72.057227
20
33.034808
11
74.393837
21
33.008026
0
LINE
8
Layer 1
10
74.393837
20
33.008026
11
74.393900
21
18.621300
0
LINE
8
Layer 1
10
74.393900
20
18.621300
11
74.393900
21
4.234680
0
LINE
8
Layer 1
10
74.393900
20
4.234680
11
52.394600
21
4.184902
0
LINE
8
Layer 1
10
52.394600
20
4.184902
11
30.395300
21
4.135121
0
LINE
8
Layer 1
10
30.395300
20
4.135121
11
30.178071
21
3.376870
0
LINE
8
Layer 1
10
30.178071
20
3.376870
11
29.491972
21
1.485200
0
LINE
8
Layer 1
10
29.491972
20
1.485200
11
28.912440
21
0.079370
0
LINE
8
Layer 1
10
28.912440
20
0.079370
11
28.897764
21
-0.286822
0
LINE
8
Layer 1
10
28.897764
20
-0.286822
11
31.983624
21
-0.490581
0
LINE
8
Layer 1
10
31.983624
20
-0.490581
11
35.518064
21
-0.753349
0
LINE
8
Layer 1
10
35.518064
20
-0.753349
11
36.261742
21
-0.962775
0
LINE
8
Layer 1
10
36.261742
20
-0.962775
11
37.057492
21
-1.475002
0
LINE
8
Layer 1
10
37.057492
20
-1.475002
11
37.797212
21
-2.274555
0
LINE
8
Layer 1
10
37.797212
20
-2.274555
11
38.353315
21
-3.438162
0
LINE
8
Layer 1
10
38.353315
20
-3.438162
11
38.608160
21
-4.902435
0
LINE
8
Layer 1
10
38.608160
20
-4.902435
11
38.581841
21
-6.902733
0
LINE
8
Layer 1
10
38.581841
20
-6.902733
11
38.095579
21
-8.435764
0
LINE
8
Layer 1
10
38.095579
20
-8.435764
11
37.673809
21
-9.038232
0
LINE
8
Layer 1
10
37.673809
20
-9.038232
11
37.129660
21
-9.537296
0
LINE
8
Layer 1
10
37.129660
20
-9.537296
11
35.664370
21
-10.243095
0
LINE
8
Layer 1
10
35.664370
20
-10.243095
11
34.589723
21
-10.635673
0
LINE
8
Layer 1
10
34.589723
20
-10.635673
11
34.177791
21
-11.134104
0
LINE
8
Layer 1
10
34.177791
20
-11.134104
11
33.494215
21
-12.008683
0
LINE
8
Layer 1
10
33.494215
20
-12.008683
11
32.526730
21
-12.761974
0
LINE
8
Layer 1
10
32.526730
20
-12.761974
11
31.421741
21
-13.120780
0
LINE
8
Layer 1
10
31.421741
20
-13.120780
11
29.881650
21
-13.213905
0
LINE
8
Layer 1
10
29.881650
20
-13.213905
11
4.302450
21
-13.134734
0
LINE
8
Layer 1
10
4.302450
20
-13.134734
11
4.302490
21
-13.134700
0
LINE
8
Layer 1
10
31.163790
20
-12.727804
11
32.209190
21
-12.451808
0
LINE
8
Layer 1
10
32.209190
20
-12.451808
11
33.115326
21
-11.777901
0
LINE
8
Layer 1
10
33.115326
20
-11.777901
11
33.778250
21
-10.937628
0
LINE
8
Layer 1
10
33.778250
20
-10.937628
11
34.255104
21
-10.323102
0
LINE
8
Layer 1
10
34.255104
20
-10.323102
11
35.301790
21
-9.900978
0
LINE
8
Layer 1
10
35.301790
20
-9.900978
11
36.364672
21
-9.488304
0
LINE
8
Layer 1
10
36.364672
20
-9.488304
11
37.130490
21
-8.987307
0
LINE
8
Layer 1
10
37.130490
20
-8.987307
11
37.669493
21
-8.335951
0
LINE
8
Layer 1
10
37.669493
20
-8.335951
11
38.051930
21
-7.472198
0
LINE
8
Layer 1
10
38.051930
20
-7.472198
11
38.234868
21
-5.650947
0
LINE
8
Layer 1
10
38.234868
20
-5.650947
11
37.998505
21
-3.730228
0
LINE
8
Layer 1
10
37.998505
20
-3.730228
11
37.634439
21
-2.851728
0
LINE
8
Layer 1
10
37.634439
20
-2.851728
11
37.141026
21
-2.145041
0
LINE
8
Layer 1
10
37.141026
20
-2.145041
11
36.517727
21
-1.609566
0
LINE
8
Layer 1
10
36.517727
20
-1.609566
11
35.764005
21
-1.244708
0
LINE
8
Layer 1
10
35.764005
20
-1.244708
11
34.658216
21
-1.030430
0
LINE
8
Layer 1
10
34.658216
20
-1.030430
11
31.582415
21
-0.898549
0
LINE
8
Layer 1
10
31.582415
20
-0.898549
11
28.732105
21
-0.746285
0
LINE
8
Layer 1
10
28.732105
20
-0.746285
11
28.510562
21
-0.156247
0
LINE
8
Layer 1
10
28.510562
20
-0.156247
11
28.639102
21
0.600705
0
LINE
8
Layer 1
10
28.639102
20
0.600705
11
29.011751
21
1.397198
0
LINE
8
Layer 1
10
29.011751
20
1.397198
11
29.473734
21
2.641718
0
LINE
8
Layer 1
10
29.473734
20
2.641718
11
29.892930
21
3.911128
0
LINE
8
Layer 1
10
29.892930
20
3.911128
11
30.053339
21
4.483607
0
LINE
8
Layer 1
10
30.053339
20
4.483607
11
51.942700
21
4.483590
0
LINE
8
Layer 1
10
51.942700
20
4.483590
11
70.325163
21
4.508840
0
LINE
8
Layer 1
10
70.325163
20
4.508840
11
73.988500
21
4.640043
0
LINE
8
Layer 1
10
73.988500
20
4.640043
11
74.119257
21
7.016913
0
LINE
8
Layer 1
10
74.119257
20
7.016913
11
74.143429
21
18.603543
0
LINE
8
Layer 1
10
74.143429
20
18.603543
11
74.047629
21
32.559943
0
LINE
8
Layer 1
10
74.047629
20
32.559943
11
73.486187
21
32.690578
0
LINE
8
Layer 1
10
73.486187
20
32.690578
11
71.372899
21
32.759068
0
LINE
8
Layer 1
10
71.372899
20
32.759068
11
68.792449
21
32.808849
0
LINE
8
Layer 1
10
68.792449
20
32.808849
11
69.159315
21
33.455998
0
LINE
8
Layer 1
10
69.159315
20
33.455998
11
70.938435
21
37.089998
0
LINE
8
Layer 1
10
70.938435
20
37.089998
11
71.157055
21
38.214639
0
LINE
8
Layer 1
10
71.157055
20
38.214639
11
71.289442
21
39.907145
0
LINE
8
Layer 1
10
71.289442
20
39.907145
11
71.213435
21
43.178418
0
LINE
8
Layer 1
10
71.213435
20
43.178418
11
70.941758
21
44.472874
0
LINE
8
Layer 1
10
70.941758
20
44.472874
11
70.527918
21
45.698636
0
LINE
8
Layer 1
10
70.527918
20
45.698636
11
69.974577
21
46.849161
0
LINE
8
Layer 1
10
69.974577
20
46.849161
11
69.284395
21
47.917908
0
LINE
8
Layer 1
10
69.284395
20
47.917908
11
67.926564
21
49.222789
0
LINE
8
Layer 1
10
67.926564
20
49.222789
11
66.360085
21
50.351728
0
LINE
8
Layer 1
10
66.360085
20
50.351728
11
64.082465
21
51.273330
0
LINE
8
Layer 1
10
64.082465
20
51.273330
11
62.271378
21
51.571089
0
LINE
8
Layer 1
10
62.271378
20
51.571089
11
60.692135
21
51.573939
0
LINE
8
Layer 1
10
60.692135
20
51.573939
11
60.193877
21
51.525127
0
LINE
8
Layer 1
10
60.193877
20
51.525127
11
59.769356
21
51.718424
0
LINE
8
Layer 1
10
59.769356
20
51.718424
11
58.321385
21
53.496389
0
LINE
8
Layer 1
10
58.321385
20
53.496389
11
57.240609
21
55.058180
0
LINE
8
Layer 1
10
57.240609
20
55.058180
11
55.928155
21
57.301009
0
LINE
8
Layer 1
10
55.928155
20
57.301009
11
54.480405
21
59.592769
0
LINE
8
Layer 1
10
54.480405
20
59.592769
11
54.190757
21
60.024101
0
LINE
8
Layer 1
10
54.190757
20
60.024101
11
54.053560
21
60.559400
0
LINE
8
Layer 1
10
54.053560
20
60.559400
11
54.081888
21
61.072724
0
LINE
8
Layer 1
10
54.081888
20
61.072724
11
54.288819
21
61.438129
0
LINE
8
Layer 1
10
54.288819
20
61.438129
11
54.431759
21
61.744886
0
LINE
8
Layer 1
10
54.431759
20
61.744886
11
54.865438
21
62.603860
0
LINE
8
Layer 1
10
54.865438
20
62.603860
11
55.885948
21
64.270320
0
LINE
8
Layer 1
10
55.885948
20
64.270320
11
56.870152
21
65.701390
0
LINE
8
Layer 1
10
56.870152
20
65.701390
11
57.760170
21
66.446277
0
LINE
8
Layer 1
10
57.760170
20
66.446277
11
58.421392
21
66.754940
0
LINE
8
Layer 1
10
58.421392
20
66.754940
11
58.707865
21
66.201325
0
LINE
8
Layer 1
10
58.707865
20
66.201325
11
59.243860
21
64.419670
0
LINE
8
Layer 1
10
59.243860
20
64.419670
11
59.814058
21
62.089914
0
LINE
8
Layer 1
10
59.814058
20
62.089914
11
59.921198
21
59.893770
0
LINE
8
Layer 1
10
59.921198
20
59.893770
11
59.932035
21
58.097510
0
LINE
8
Layer 1
10
59.932035
20
58.097510
11
60.333595
21
57.713385
0
LINE
8
Layer 1
10
60.333595
20
57.713385
11
60.745076
21
57.393752
0
LINE
8
Layer 1
10
60.745076
20
57.393752
11
61.205399
21
57.391639
0
LINE
8
Layer 1
10
61.205399
20
57.391639
11
62.901778
21
57.886355
0
LINE
8
Layer 1
10
62.901778
20
57.886355
11
64.487479
21
58.797809
0
LINE
8
Layer 1
10
64.487479
20
58.797809
11
66.825593
21
61.120208
0
LINE
8
Layer 1
10
66.825593
20
61.120208
11
69.034039
21
63.822309
0
LINE
8
Layer 1
10
69.034039
20
63.822309
11
69.679896
21
64.783066
0
LINE
8
Layer 1
10
69.679896
20
64.783066
11
70.750459
21
66.772320
0
LINE
8
Layer 1
10
70.750459
20
66.772320
11
71.515656
21
68.660076
0
LINE
8
Layer 1
10
71.515656
20
68.660076
11
71.725640
21
71.145446
0
LINE
8
Layer 1
10
71.725640
20
71.145446
11
71.670209
21
73.256767
0
LINE
8
Layer 1
10
71.670209
20
73.256767
11
71.106586
21
74.791286
0
LINE
8
Layer 1
10
71.106586
20
74.791286
11
70.495926
21
75.855130
0
LINE
8
Layer 1
10
70.495926
20
75.855130
11
69.799307
21
76.693365
0
LINE
8
Layer 1
10
69.799307
20
76.693365
11
68.936198
21
77.384981
0
LINE
8
Layer 1
10
68.936198
20
77.384981
11
67.826066
21
78.008966
0
LINE
8
Layer 1
10
67.826066
20
78.008966
11
66.984663
21
78.346788
0
LINE
8
Layer 1
10
66.984663
20
78.346788
11
65.908206
21
78.439976
0
LINE
8
Layer 1
10
65.908206
20
78.439976
11
64.447585
21
78.377156
0
LINE
8
Layer 1
10
64.447585
20
78.377156
11
63.193176
21
77.911919
0
LINE
8
Layer 1
10
63.193176
20
77.911919
11
59.758296
21
76.391049
0
LINE
8
Layer 1
10
59.758296
20
76.391049
11
58.903805
21
76.112311
0
LINE
8
Layer 1
10
58.903805
20
76.112311
11
58.165306
21
76.030223
0
LINE
8
Layer 1
10
58.165306
20
76.030223
11
57.499340
21
76.085792
0
LINE
8
Layer 1
10
57.499340
20
76.085792
11
56.886253
21
76.311164
0
LINE
8
Layer 1
10
56.886253
20
76.311164
11
55.427366
21
77.478293
0
LINE
8
Layer 1
10
55.427366
20
77.478293
11
54.049151
21
78.627425
0
LINE
8
Layer 1
10
54.049151
20
78.627425
11
53.099536
21
79.055233
0
LINE
8
Layer 1
10
53.099536
20
79.055233
11
52.270018
21
78.840163
0
LINE
8
Layer 1
10
52.270018
20
78.840163
11
51.638447
21
78.496131
0
LINE
8
Layer 1
10
51.638447
20
78.496131
11
50.839898
21
77.763123
0
LINE
8
Layer 1
10
50.839898
20
77.763123
11
49.626182
21
76.367153
0
LINE
8
Layer 1
10
49.626182
20
76.367153
11
49.366903
21
75.828396
0
LINE
8
Layer 1
10
49.366903
20
75.828396
11
49.239918
21
75.238933
0
LINE
8
Layer 1
10
49.239918
20
75.238933
11
49.205058
21
73.853213
0
LINE
8
Layer 1
10
49.205058
20
73.853213
11
49.406319
21
72.107473
0
LINE
8
Layer 1
10
49.406319
20
72.107473
11
49.501503
21
71.320827
0
LINE
8
Layer 1
10
49.501503
20
71.320827
11
49.374465
21
71.002999
0
LINE
8
Layer 1
10
49.374465
20
71.002999
11
48.925098
21
71.118926
0
LINE
8
Layer 1
10
48.925098
20
71.118926
11
48.053299
21
71.633547
0
LINE
8
Layer 1
10
48.053299
20
71.633547
11
46.404108
21
72.540769
0
LINE
8
Layer 1
10
46.404108
20
72.540769
11
44.909019
21
73.034937
0
LINE
8
Layer 1
10
44.909019
20
73.034937
11
44.052961
21
73.394755
0
LINE
8
Layer 1
10
44.052961
20
73.394755
11
43.929020
21
73.614044
0
LINE
8
Layer 1
10
43.929020
20
73.614044
11
44.052961
21
73.902543
0
LINE
8
Layer 1
10
44.052961
20
73.902543
11
45.223037
21
75.047399
0
LINE
8
Layer 1
10
45.223037
20
75.047399
11
47.955651
21
77.153313
0
LINE
8
Layer 1
10
47.955651
20
77.153313
11
50.190365
21
78.860894
0
LINE
8
Layer 1
10
50.190365
20
78.860894
11
50.559743
21
79.242217
0
LINE
8
Layer 1
10
50.559743
20
79.242217
11
50.628731
21
79.481223
0
LINE
8
Layer 1
10
50.628731
20
79.481223
11
50.377345
21
79.808468
0
LINE
8
Layer 1
10
50.377345
20
79.808468
11
49.732216
21
79.708956
0
LINE
8
Layer 1
10
49.732216
20
79.708956
11
43.579736
21
76.730496
0
LINE
8
Layer 1
10
43.579736
20
76.730496
11
41.765406
21
75.968827
0
LINE
8
Layer 1
10
41.765406
20
75.968827
11
41.587273
21
76.032095
0
LINE
8
Layer 1
10
41.587273
20
76.032095
11
41.583334
21
76.299071
0
LINE
8
Layer 1
10
41.583334
20
76.299071
11
42.202430
21
77.907197
0
LINE
8
Layer 1
10
42.202430
20
77.907197
11
43.371816
21
81.016226
0
LINE
8
Layer 1
10
43.371816
20
81.016226
11
44.128650
21
84.063117
0
LINE
8
Layer 1
10
44.128650
20
84.063117
11
44.244761
21
84.840974
0
LINE
8
Layer 1
10
44.244761
20
84.840974
11
44.158767
21
85.030289
0
LINE
8
Layer 1
10
44.158767
20
85.030289
11
43.277102
21
83.585293
0
LINE
8
Layer 1
10
43.277102
20
83.585293
11
41.315813
21
80.054687
0
LINE
8
Layer 1
10
41.315813
20
80.054687
11
38.932200
21
76.782600
0
LINE
8
Layer 1
10
38.932200
20
76.782600
11
38.601518
21
76.203595
0
LINE
8
Layer 1
10
38.601518
20
76.203595
11
37.599538
21
74.067255
0
LINE
8
Layer 1
10
37.599538
20
74.067255
11
36.795053
21
73.383242
0
LINE
8
Layer 1
10
36.795053
20
73.383242
11
35.440698
21
72.978035
0
LINE
8
Layer 1
10
35.440698
20
72.978035
11
34.491408
21
72.762551
0
LINE
8
Layer 1
10
34.491408
20
72.762551
11
34.157915
21
72.713012
0
LINE
8
Layer 1
10
34.157915
20
72.713012
11
33.919415
21
73.796702
0
LINE
8
Layer 1
10
33.919415
20
73.796702
11
33.230782
21
76.217742
0
LINE
8
Layer 1
10
33.230782
20
76.217742
11
32.888763
21
76.964454
0
LINE
8
Layer 1
10
32.888763
20
76.964454
11
32.391889
21
77.808420
0
LINE
8
Layer 1
10
32.391889
20
77.808420
11
31.695922
21
78.647948
0
LINE
8
Layer 1
10
31.695922
20
78.647948
11
30.879800
21
79.399948
0
LINE
8
Layer 1
10
30.879800
20
79.399948
11
30.022463
21
79.981334
0
LINE
8
Layer 1
10
30.022463
20
79.981334
11
28.940685
21
80.413886
0
LINE
8
Layer 1
10
28.940685
20
80.413886
11
27.672223
21
80.677209
0
LINE
8
Layer 1
10
27.672223
20
80.677209
11
26.406626
21
80.746427
0
LINE
8
Layer 1
10
26.406626
20
80.746427
11
25.333443
21
80.596666
0
LINE
8
Layer 1
10
25.333443
20
80.596666
11
24.479424
21
80.235332
0
LINE
8
Layer 1
10
24.479424
20
80.235332
11
23.611757
21
79.660953
0
LINE
8
Layer 1
10
23.611757
20
79.660953
11
22.772227
21
78.906066
0
LINE
8
Layer 1
10
22.772227
20
78.906066
11
22.002623
21
78.003206
0
LINE
8
Layer 1
10
22.002623
20
78.003206
11
20.247988
21
75.918687
0
LINE
8
Layer 1
10
20.247988
20
75.918687
11
18.901053
21
74.764206
0
LINE
8
Layer 1
10
18.901053
20
74.764206
11
18.345772
21
74.587891
0
LINE
8
Layer 1
10
18.345772
20
74.587891
11
17.666786
21
74.559606
0
LINE
8
Layer 1
10
17.666786
20
74.559606
11
15.597703
21
74.968111
0
LINE
8
Layer 1
10
15.597703
20
74.968111
11
13.691593
21
75.371470
0
LINE
8
Layer 1
10
13.691593
20
75.371470
11
13.115136
21
75.249936
0
LINE
8
Layer 1
10
13.115136
20
75.249936
11
12.598922
21
74.885593
0
LINE
8
Layer 1
10
12.598922
20
74.885593
11
12.143336
21
74.278825
0
LINE
8
Layer 1
10
12.143336
20
74.278825
11
11.748763
21
73.430020
0
LINE
8
Layer 1
10
11.748763
20
73.430020
11
11.299023
21
72.013389
0
LINE
8
Layer 1
10
11.299023
20
72.013389
11
11.241821
21
70.904610
0
LINE
8
Layer 1
10
11.241821
20
70.904610
11
11.601702
21
69.461853
0
LINE
8
Layer 1
10
11.601702
20
69.461853
11
12.610191
21
67.817080
0
LINE
8
Layer 1
10
12.610191
20
67.817080
11
14.822713
21
65.367248
0
LINE
8
Layer 1
10
14.822713
20
65.367248
11
17.316901
21
62.939400
0
LINE
8
Layer 1
10
17.316901
20
62.939400
11
19.337351
21
61.183940
0
LINE
8
Layer 1
10
19.337351
20
61.183940
11
21.307011
21
59.462900
0
LINE
8
Layer 1
10
21.307011
20
59.462900
11
22.084056
21
58.789372
0
LINE
8
Layer 1
10
22.084056
20
58.789372
11
22.306125
21
57.541692
0
LINE
8
Layer 1
10
22.306125
20
57.541692
11
22.322007
21
56.516082
0
LINE
8
Layer 1
10
22.322007
20
56.516082
11
22.122128
21
55.833462
0
LINE
8
Layer 1
10
22.122128
20
55.833462
11
21.875169
21
54.948123
0
LINE
8
Layer 1
10
21.875169
20
54.948123
11
22.226310
21
52.949163
0
LINE
8
Layer 1
10
22.226310
20
52.949163
11
22.727041
21
50.431283
0
LINE
8
Layer 1
10
22.727041
20
50.431283
11
24.410871
21
43.445583
0
LINE
8
Layer 1
10
24.410871
20
43.445583
11
24.741466
21
43.070380
0
LINE
8
Layer 1
10
24.741466
20
43.070380
11
25.043490
21
42.638736
0
LINE
8
Layer 1
10
25.043490
20
42.638736
11
26.270410
21
39.114606
0
LINE
8
Layer 1
10
26.270410
20
39.114606
11
26.374176
21
38.653392
0
LINE
8
Layer 1
10
26.374176
20
38.653392
11
25.915300
21
37.805996
0
LINE
8
Layer 1
10
25.915300
20
37.805996
11
25.558948
21
37.181746
0
LINE
8
Layer 1
10
25.558948
20
37.181746
11
24.836508
21
36.113103
0
LINE
8
Layer 1
10
24.836508
20
36.113103
11
23.751128
21
34.956706
0
LINE
8
Layer 1
10
23.751128
20
34.956706
11
22.298788
21
33.774976
0
LINE
8
Layer 1
10
22.298788
20
33.774976
11
19.254158
21
31.387176
0
LINE
8
Layer 1
10
19.254158
20
31.387176
11
16.434328
21
29.573116
0
LINE
8
Layer 1
10
16.434328
20
29.573116
11
16.110090
21
29.380759
0
LINE
8
Layer 1
10
16.110090
20
29.380759
11
11.570540
21
27.109169
0
LINE
8
Layer 1
10
11.570540
20
27.109169
11
5.746180
21
25.018669
0
LINE
8
Layer 1
10
5.746180
20
25.018669
11
3.130100
21
23.984865
0
LINE
8
Layer 1
10
3.130100
20
23.984865
11
0.744111
21
22.616859
0
LINE
8
Layer 1
10
0.744111
20
22.616859
11
-1.506800
21
20.850423
0
LINE
8
Layer 1
10
-1.506800
20
20.850423
11
-3.717650
21
18.621329
0
LINE
8
Layer 1
10
-3.717650
20
18.621329
11
-5.000794
21
17.054638
0
LINE
8
Layer 1
10
-5.000794
20
17.054638
11
-6.158801
21
15.371548
0
LINE
8
Layer 1
10
-6.158801
20
15.371548
11
-7.177508
21
13.605138
0
LINE
8
Layer 1
10
-7.177508
20
13.605138
11
-8.042753
21
11.788485
0
LINE
8
Layer 1
10
-8.042753
20
11.788485
11
-8.740373
21
9.954670
0
LINE
8
Layer 1
10
-8.740373
20
9.954670
11
-9.256208
21
8.136769
0
LINE
8
Layer 1
10
-9.256208
20
8.136769
11
-9.576094
21
6.367863
0
LINE
8
Layer 1
10
-9.576094
20
6.367863
11
-9.685870
21
4.681029
0
LINE
8
Layer 1
10
-9.685870
20
4.681029
11
-9.552267
21
2.566737
0
LINE
8
Layer 1
10
-9.552267
20
2.566737
11
-9.325975
21
1.079939
0
LINE
8
Layer 1
10
-9.325975
20
1.079939
11
-9.516748
21
0.760695
0
LINE
8
Layer 1
10
-9.516748
20
0.760695
11
-9.906226
21
0.554649
0
LINE
8
Layer 1
10
-9.906226
20
0.554649
11
-11.040428
21
0.516819
0
LINE
8
Layer 1
10
-11.040428
20
0.516819
11
-13.468544
21
0.670389
0
LINE
8
Layer 1
10
-13.468544
20
0.670389
11
-15.650278
21
1.190438
0
LINE
8
Layer 1
10
-15.650278
20
1.190438
11
-17.446556
21
1.922430
0
LINE
8
Layer 1
10
-17.446556
20
1.922430
11
-18.900488
21
2.897478
0
LINE
8
Layer 1
10
-18.900488
20
2.897478
11
-20.465108
21
4.432718
0
LINE
8
Layer 1
10
-20.465108
20
4.432718
11
-21.692097
21
6.270767
0
LINE
8
Layer 1
10
-21.692097
20
6.270767
11
-22.654297
21
8.548568
0
LINE
8
Layer 1
10
-22.654297
20
8.548568
11
-23.424548
21
11.403068
0
LINE
8
Layer 1
10
-23.424548
20
11.403068
11
-23.713125
21
12.597808
0
LINE
8
Layer 1
10
-23.713125
20
12.597808
11
-24.419472
21
16.082468
0
LINE
8
Layer 1
10
-24.419472
20
16.082468
11
-24.679529
21
17.536048
0
LINE
8
Layer 1
10
-24.679529
20
17.536048
11
-24.819242
21
18.556558
0
LINE
8
Layer 1
10
-24.819242
20
18.556558
11
-24.949301
21
18.816056
0
LINE
8
Layer 1
10
-24.949301
20
18.816056
11
-25.149751
21
18.681969
0
LINE
8
Layer 1
10
-25.149751
20
18.681969
11
-25.743217
21
14.397499
0
LINE
8
Layer 1
10
-25.743217
20
14.397499
11
-25.806494
21
12.598200
0
LINE
8
Layer 1
10
-25.806494
20
12.598200
11
-25.706268
21
10.848104
0
LINE
8
Layer 1
10
-25.706268
20
10.848104
11
-25.445060
21
9.171103
0
LINE
8
Layer 1
10
-25.445060
20
9.171103
11
-25.025388
21
7.591089
0
LINE
8
Layer 1
10
-25.025388
20
7.591089
11
-24.160181
21
5.532834
0
LINE
8
Layer 1
10
-24.160181
20
5.532834
11
-23.277448
21
3.896909
0
LINE
8
Layer 1
10
-23.277448
20
3.896909
11
-22.607669
21
2.984632
0
LINE
8
Layer 1
10
-22.607669
20
2.984632
11
-21.339508
21
1.546539
0
LINE
8
Layer 1
10
-21.339508
20
1.546539
11
-19.971509
21
0.275842
0
LINE
8
Layer 1
10
-19.971509
20
0.275842
11
-19.080042
21
-0.401700
0
LINE
8
Layer 1
10
-19.080042
20
-0.401700
11
-16.996222
21
-1.711531
0
LINE
8
Layer 1
10
-16.996222
20
-1.711531
11
-14.714582
21
-2.632080
0
LINE
8
Layer 1
10
-14.714582
20
-2.632080
11
-13.735352
21
-2.976303
0
LINE
8
Layer 1
10
-13.735352
20
-2.976303
11
-13.663809
21
-4.877393
0
LINE
8
Layer 1
10
-13.663809
20
-4.877393
11
-13.917238
21
-5.092497
0
LINE
8
Layer 1
10
-13.917238
20
-5.092497
11
-14.169777
21
-5.463718
0
LINE
8
Layer 1
10
-14.169777
20
-5.463718
11
-14.272408
21
-5.729122
0
LINE
8
Layer 1
10
-14.272408
20
-5.729122
11
-14.642695
21
-6.015047
0
LINE
8
Layer 1
10
-14.642695
20
-6.015047
11
-15.191596
21
-6.438185
0
LINE
8
Layer 1
10
-15.191596
20
-6.438185
11
-15.739185
21
-6.568419
0
LINE
8
Layer 1
10
-15.739185
20
-6.568419
11
-16.492331
21
-6.717760
0
LINE
8
Layer 1
10
-16.492331
20
-6.717760
11
-17.001603
21
-6.866491
0
LINE
8
Layer 1
10
-17.001603
20
-6.866491
11
-17.478844
21
-7.065613
0
LINE
8
Layer 1
10
-17.478844
20
-7.065613
11
-18.014970
21
-7.271353
0
LINE
8
Layer 1
10
-18.014970
20
-7.271353
11
-18.795759
21
-7.569616
0
LINE
8
Layer 1
10
-18.795759
20
-7.569616
11
-19.844339
21
-8.004131
0
LINE
8
Layer 1
10
-19.844339
20
-8.004131
11
-20.469450
21
-8.322188
0
LINE
8
Layer 1
10
-20.469450
20
-8.322188
11
-20.836772
21
-8.748624
0
LINE
8
Layer 1
10
-20.836772
20
-8.748624
11
-20.388745
21
-9.203755
0
LINE
8
Layer 1
10
-20.388745
20
-9.203755
11
-20.266696
21
-9.361558
0
LINE
8
Layer 1
10
-20.266696
20
-9.361558
11
-20.294334
21
-9.525350
0
LINE
8
Layer 1
10
-20.294334
20
-9.525350
11
-20.714947
21
-9.734643
0
LINE
8
Layer 1
10
-20.714947
20
-9.734643
11
-21.140234
21
-9.908876
0
LINE
8
Layer 1
10
-21.140234
20
-9.908876
11
-21.653116
21
-10.052465
0
LINE
8
Layer 1
10
-21.653116
20
-10.052465
11
-22.028023
21
-10.115730
0
LINE
8
Layer 1
10
-22.028023
20
-10.115730
11
-22.350321
21
-10.355958
0
LINE
8
Layer 1
10
-22.350321
20
-10.355958
11
-22.593553
21
-10.678662
0
LINE
8
Layer 1
10
-22.593553
20
-10.678662
11
-22.597723
21
-11.077619
0
LINE
8
Layer 1
10
-22.597723
20
-11.077619
11
-22.489681
21
-11.450152
0
LINE
8
Layer 1
10
-22.489681
20
-11.450152
11
-22.261682
21
-11.717284
0
LINE
8
Layer 1
10
-22.261682
20
-11.717284
11
-21.807499
21
-12.090791
0
LINE
8
Layer 1
10
-21.807499
20
-12.090791
11
-21.304713
21
-12.242821
0
LINE
8
Layer 1
10
-21.304713
20
-12.242821
11
-20.852408
21
-12.367272
0
LINE
8
Layer 1
10
-20.852408
20
-12.367272
11
-20.260016
21
-12.662344
0
LINE
8
Layer 1
10
-20.260016
20
-12.662344
11
-16.105546
21
-12.806138
0
LINE
8
Layer 1
10
-16.105546
20
-12.806138
11
5.347984
21
-12.824091
0
LINE
8
Layer 1
10
5.347984
20
-12.824091
11
31.163884
21
-12.727876
0
LINE
8
Layer 1
10
31.163884
20
-12.727876
11
31.163790
21
-12.727804
0
LINE
8
Layer 1
10
48.984600
20
71.947300
11
48.794866
21
74.725341
0
LINE
8
Layer 1
10
48.794866
20
74.725341
11
48.867306
21
75.588468
0
LINE
8
Layer 1
10
48.867306
20
75.588468
11
49.053332
21
76.228600
0
LINE
8
Layer 1
10
49.053332
20
76.228600
11
49.939664
21
77.442010
0
LINE
8
Layer 1
10
49.939664
20
77.442010
11
50.580117
21
78.238796
0
LINE
8
Layer 1
10
50.580117
20
78.238796
11
50.640625
21
78.407470
0
LINE
8
Layer 1
10
50.640625
20
78.407470
11
50.548908
21
78.457880
0
LINE
8
Layer 1
10
50.548908
20
78.457880
11
46.417028
21
75.460640
0
LINE
8
Layer 1
10
46.417028
20
75.460640
11
45.044933
21
74.338532
0
LINE
8
Layer 1
10
45.044933
20
74.338532
11
44.475578
21
73.694670
0
LINE
8
Layer 1
10
44.475578
20
73.694670
11
44.600032
21
73.541277
0
LINE
8
Layer 1
10
44.600032
20
73.541277
11
45.393680
21
73.348766
0
LINE
8
Layer 1
10
45.393680
20
73.348766
11
46.697863
21
72.878207
0
LINE
8
Layer 1
10
46.697863
20
72.878207
11
48.159360
21
72.096016
0
LINE
8
Layer 1
10
48.159360
20
72.096016
11
48.841364
21
71.747751
0
LINE
8
Layer 1
10
48.841364
20
71.747751
11
48.966305
21
71.781579
0
LINE
8
Layer 1
10
48.966305
20
71.781579
11
48.984603
21
71.947307
0
LINE
8
Layer 1
10
48.984603
20
71.947307
11
48.984600
21
71.947300
0
LINE
8
Layer 1
10
26.106500
20
-12.639800
11
22.522280
21
-12.475792
0
LINE
8
Layer 1
10
22.522280
20
-12.475792
11
20.973330
21
-11.667210
0
LINE
8
Layer 1
10
20.973330
20
-11.667210
11
19.828660
21
-10.498902
0
LINE
8
Layer 1
10
19.828660
20
-10.498902
11
19.441696
21
-9.937046
0
LINE
8
Layer 1
10
19.441696
20
-9.937046
11
19.677117
21
-9.759469
0
LINE
8
Layer 1
10
19.677117
20
-9.759469
11
19.838611
21
-9.485003
0
LINE
8
Layer 1
10
19.838611
20
-9.485003
11
19.542037
21
-9.258395
0
LINE
8
Layer 1
10
19.542037
20
-9.258395
11
19.395102
21
-9.127222
0
LINE
8
Layer 1
10
19.395102
20
-9.127222
11
19.270434
21
-8.578562
0
LINE
8
Layer 1
10
19.270434
20
-8.578562
11
18.825293
21
-4.476925
0
LINE
8
Layer 1
10
18.825293
20
-4.476925
11
18.612044
21
0.422126
0
LINE
8
Layer 1
10
18.612044
20
0.422126
11
18.732495
21
5.159305
0
LINE
8
Layer 1
10
18.732495
20
5.159305
11
19.398152
21
10.432463
0
LINE
8
Layer 1
10
19.398152
20
10.432463
11
20.022285
21
13.615745
0
LINE
8
Layer 1
10
20.022285
20
13.615745
11
20.075858
21
12.781451
0
LINE
8
Layer 1
10
20.075858
20
12.781451
11
19.979091
21
10.507105
0
LINE
8
Layer 1
10
19.979091
20
10.507105
11
19.886715
21
3.670919
0
LINE
8
Layer 1
10
19.886715
20
3.670919
11
19.979170
21
-4.178195
0
LINE
8
Layer 1
10
19.979170
20
-4.178195
11
20.102061
21
-6.490235
0
LINE
8
Layer 1
10
20.102061
20
-6.490235
11
20.373793
21
-7.668365
0
LINE
8
Layer 1
10
20.373793
20
-7.668365
11
20.777338
21
-8.701638
0
LINE
8
Layer 1
10
20.777338
20
-8.701638
11
21.278293
21
-9.515607
0
LINE
8
Layer 1
10
21.278293
20
-9.515607
11
21.913900
21
-10.157996
0
LINE
8
Layer 1
10
21.913900
20
-10.157996
11
22.721403
21
-10.676525
0
LINE
8
Layer 1
10
22.721403
20
-10.676525
11
23.404857
21
-10.856255
0
LINE
8
Layer 1
10
23.404857
20
-10.856255
11
25.310003
21
-10.916072
0
LINE
8
Layer 1
10
25.310003
20
-10.916072
11
29.093343
21
-11.043072
0
LINE
8
Layer 1
10
29.093343
20
-11.043072
11
30.405946
21
-11.083095
0
LINE
8
Layer 1
10
30.405946
20
-11.083095
11
31.275243
21
-10.990852
0
LINE
8
Layer 1
10
31.275243
20
-10.990852
11
31.844075
21
-10.731432
0
LINE
8
Layer 1
10
31.844075
20
-10.731432
11
32.255283
21
-10.269925
0
LINE
8
Layer 1
10
32.255283
20
-10.269925
11
32.800855
21
-8.956801
0
LINE
8
Layer 1
10
32.800855
20
-8.956801
11
32.975858
21
-7.165045
0
LINE
8
Layer 1
10
32.975858
20
-7.165045
11
32.934299
21
-6.021272
0
LINE
8
Layer 1
10
32.934299
20
-6.021272
11
32.696128
21
-5.350075
0
LINE
8
Layer 1
10
32.696128
20
-5.350075
11
32.071559
21
-4.495707
0
LINE
8
Layer 1
10
32.071559
20
-4.495707
11
31.423305
21
-4.141819
0
LINE
8
Layer 1
10
31.423305
20
-4.141819
11
30.422169
21
-3.795174
0
LINE
8
Layer 1
10
30.422169
20
-3.795174
11
28.068209
21
-3.329547
0
LINE
8
Layer 1
10
28.068209
20
-3.329547
11
27.561091
21
-3.258981
0
LINE
8
Layer 1
10
27.561091
20
-3.258981
11
27.249839
21
-3.085033
0
LINE
8
Layer 1
10
27.249839
20
-3.085033
11
26.738919
21
-1.923477
0
LINE
8
Layer 1
10
26.738919
20
-1.923477
11
26.458946
21
-0.708051
0
LINE
8
Layer 1
10
26.458946
20
-0.708051
11
26.412186
21
0.620373
0
LINE
8
Layer 1
10
26.412186
20
0.620373
11
26.597440
21
2.038025
0
LINE
8
Layer 1
10
26.597440
20
2.038025
11
27.013509
21
3.521133
0
LINE
8
Layer 1
10
27.013509
20
3.521133
11
27.196611
21
4.292734
0
LINE
8
Layer 1
10
27.196611
20
4.292734
11
25.901491
21
4.384106
0
LINE
8
Layer 1
10
25.901491
20
4.384106
11
24.662800
21
4.384030
0
LINE
8
Layer 1
10
24.662800
20
4.384030
11
24.662800
21
18.621300
0
LINE
8
Layer 1
10
24.662800
20
18.621300
11
24.662800
21
32.858700
0
LINE
8
Layer 1
10
24.662800
20
32.858700
11
25.353900
21
32.858700
0
LINE
8
Layer 1
10
25.353900
20
32.858700
11
26.106013
21
32.957495
0
LINE
8
Layer 1
10
26.106013
20
32.957495
11
24.680983
21
35.150255
0
LINE
8
Layer 1
10
24.680983
20
35.150255
11
24.603172
21
35.353723
0
LINE
8
Layer 1
10
24.603172
20
35.353723
11
24.705167
21
35.631997
0
LINE
8
Layer 1
10
24.705167
20
35.631997
11
24.964859
21
35.996950
0
LINE
8
Layer 1
10
24.964859
20
35.996950
11
25.916711
21
37.488320
0
LINE
8
Layer 1
10
25.916711
20
37.488320
11
26.308665
21
38.085691
0
LINE
8
Layer 1
10
26.308665
20
38.085691
11
27.089948
21
36.790601
0
LINE
8
Layer 1
10
27.089948
20
36.790601
11
29.509268
21
33.008041
0
LINE
8
Layer 1
10
29.509268
20
33.008041
11
30.184450
21
32.161767
0
LINE
8
Layer 1
10
30.184450
20
32.161767
11
31.461533
21
30.645152
0
LINE
8
Layer 1
10
31.461533
20
30.645152
11
32.912183
21
29.221683
0
LINE
8
Layer 1
10
32.912183
20
29.221683
11
34.445107
21
27.973123
0
LINE
8
Layer 1
10
34.445107
20
27.973123
11
35.969010
21
26.981237
0
LINE
8
Layer 1
10
35.969010
20
26.981237
11
38.850370
21
25.807987
0
LINE
8
Layer 1
10
38.850370
20
25.807987
11
40.419828
21
25.477739
0
LINE
8
Layer 1
10
40.419828
20
25.477739
11
42.303947
21
25.297600
0
LINE
8
Layer 1
10
42.303947
20
25.297600
11
44.211222
21
25.282575
0
LINE
8
Layer 1
10
44.211222
20
25.282575
11
45.850150
21
25.447669
0
LINE
8
Layer 1
10
45.850150
20
25.447669
11
48.376511
21
26.087271
0
LINE
8
Layer 1
10
48.376511
20
26.087271
11
50.659036
21
27.069022
0
LINE
8
Layer 1
10
50.659036
20
27.069022
11
52.877835
21
28.489021
0
LINE
8
Layer 1
10
52.877835
20
28.489021
11
55.213020
21
30.443369
0
LINE
8
Layer 1
10
55.213020
20
30.443369
11
56.645700
21
31.663959
0
LINE
8
Layer 1
10
56.645700
20
31.663959
11
56.685851
21
31.091480
0
LINE
8
Layer 1
10
56.685851
20
31.091480
11
56.557587
21
28.922500
0
LINE
8
Layer 1
10
56.557587
20
28.922500
11
56.544057
21
27.520845
0
LINE
8
Layer 1
10
56.544057
20
27.520845
11
56.694792
21
26.718193
0
LINE
8
Layer 1
10
56.694792
20
26.718193
11
57.083874
21
26.354478
0
LINE
8
Layer 1
10
57.083874
20
26.354478
11
57.785387
21
26.269630
0
LINE
8
Layer 1
10
57.785387
20
26.269630
11
58.959537
21
26.447039
0
LINE
8
Layer 1
10
58.959537
20
26.447039
11
60.320506
21
26.939887
0
LINE
8
Layer 1
10
60.320506
20
26.939887
11
61.746145
21
27.693546
0
LINE
8
Layer 1
10
61.746145
20
27.693546
11
63.114307
21
28.653390
0
LINE
8
Layer 1
10
63.114307
20
28.653390
11
64.501806
21
29.933258
0
LINE
8
Layer 1
10
64.501806
20
29.933258
11
65.622557
21
31.166150
0
LINE
8
Layer 1
10
65.622557
20
31.166150
11
67.785914
21
34.481085
0
LINE
8
Layer 1
10
67.785914
20
34.481085
11
69.160427
21
37.323370
0
LINE
8
Layer 1
10
69.160427
20
37.323370
11
69.473088
21
38.641984
0
LINE
8
Layer 1
10
69.473088
20
38.641984
11
69.625815
21
40.295871
0
LINE
8
Layer 1
10
69.625815
20
40.295871
11
69.607389
21
42.004195
0
LINE
8
Layer 1
10
69.607389
20
42.004195
11
69.406592
21
43.486120
0
LINE
8
Layer 1
10
69.406592
20
43.486120
11
69.018623
21
44.753648
0
LINE
8
Layer 1
10
69.018623
20
44.753648
11
68.552165
21
45.791960
0
LINE
8
Layer 1
10
68.552165
20
45.791960
11
67.434894
21
47.192878
0
LINE
8
Layer 1
10
67.434894
20
47.192878
11
66.130255
21
48.358410
0
LINE
8
Layer 1
10
66.130255
20
48.358410
11
65.483106
21
48.787963
0
LINE
8
Layer 1
10
65.483106
20
48.787963
11
64.606973
21
49.236242
0
LINE
8
Layer 1
10
64.606973
20
49.236242
11
63.881646
21
49.700441
0
LINE
8
Layer 1
10
63.881646
20
49.700441
11
63.651421
21
49.883739
0
LINE
8
Layer 1
10
63.651421
20
49.883739
11
62.757768
21
50.638516
0
LINE
8
Layer 1
10
62.757768
20
50.638516
11
62.140811
21
51.438039
0
LINE
8
Layer 1
10
62.140811
20
51.438039
11
64.238591
21
51.062218
0
LINE
8
Layer 1
10
64.238591
20
51.062218
11
65.635160
21
50.506329
0
LINE
8
Layer 1
10
65.635160
20
50.506329
11
67.028780
21
49.689178
0
LINE
8
Layer 1
10
67.028780
20
49.689178
11
68.282658
21
48.703891
0
LINE
8
Layer 1
10
68.282658
20
48.703891
11
69.260001
21
47.643598
0
LINE
8
Layer 1
10
69.260001
20
47.643598
11
70.287764
21
45.861913
0
LINE
8
Layer 1
10
70.287764
20
45.861913
11
70.975701
21
43.661128
0
LINE
8
Layer 1
10
70.975701
20
43.661128
11
71.134333
21
42.589882
0
LINE
8
Layer 1
10
71.134333
20
42.589882
11
71.165495
21
40.972968
0
LINE
8
Layer 1
10
71.165495
20
40.972968
11
70.998562
21
38.061219
0
LINE
8
Layer 1
10
70.998562
20
38.061219
11
70.792325
21
37.138567
0
LINE
8
Layer 1
10
70.792325
20
37.138567
11
70.492825
21
36.495428
0
LINE
8
Layer 1
10
70.492825
20
36.495428
11
70.361634
21
36.170977
0
LINE
8
Layer 1
10
70.361634
20
36.170977
11
68.705764
21
33.049977
0
LINE
8
Layer 1
10
68.705764
20
33.049977
11
68.569524
21
32.726401
0
LINE
8
Layer 1
10
68.569524
20
32.726401
11
68.996531
21
32.586437
0
LINE
8
Layer 1
10
68.996531
20
32.586437
11
71.257684
21
32.560006
0
LINE
8
Layer 1
10
71.257684
20
32.560006
11
73.945900
21
32.560000
0
LINE
8
Layer 1
10
73.945900
20
32.560000
11
73.945900
21
18.621300
0
LINE
8
Layer 1
10
73.945900
20
18.621300
11
73.945900
21
4.682710
0
LINE
8
Layer 1
10
73.945900
20
4.682710
11
52.004700
21
4.682710
0
LINE
8
Layer 1
10
52.004700
20
4.682710
11
29.963800
21
4.558259
0
LINE
8
Layer 1
10
29.963800
20
4.558259
11
29.699406
21
3.836437
0
LINE
8
Layer 1
10
29.699406
20
3.836437
11
29.150343
21
2.243447
0
LINE
8
Layer 1
10
29.150343
20
2.243447
11
28.690208
21
1.048707
0
LINE
8
Layer 1
10
28.690208
20
1.048707
11
28.600255
21
0.911304
0
LINE
8
Layer 1
10
28.600255
20
0.911304
11
28.569360
21
1.094033
0
LINE
8
Layer 1
10
28.569360
20
1.094033
11
28.685523
21
2.221827
0
LINE
8
Layer 1
10
28.685523
20
2.221827
11
28.867689
21
3.786647
0
LINE
8
Layer 1
10
28.867689
20
3.786647
11
28.894190
21
4.334237
0
LINE
8
Layer 1
10
28.894190
20
4.334237
11
28.231301
21
4.363467
0
LINE
8
Layer 1
10
28.231301
20
4.363467
11
27.568415
21
4.392699
0
LINE
8
Layer 1
10
27.568415
20
4.392699
11
27.464501
21
4.064782
0
LINE
8
Layer 1
10
27.464501
20
4.064782
11
27.188645
21
2.416623
0
LINE
8
Layer 1
10
27.188645
20
2.416623
11
27.187512
21
0.505329
0
LINE
8
Layer 1
10
27.187512
20
0.505329
11
27.425957
21
-1.142099
0
LINE
8
Layer 1
10
27.425957
20
-1.142099
11
27.624040
21
-1.702174
0
LINE
8
Layer 1
10
27.624040
20
-1.702174
11
27.868839
21
-1.998658
0
LINE
8
Layer 1
10
27.868839
20
-1.998658
11
29.298959
21
-2.295302
0
LINE
8
Layer 1
10
29.298959
20
-2.295302
11
31.859266
21
-2.863489
0
LINE
8
Layer 1
10
31.859266
20
-2.863489
11
32.622701
21
-3.231045
0
LINE
8
Layer 1
10
32.622701
20
-3.231045
11
33.198169
21
-3.711072
0
LINE
8
Layer 1
10
33.198169
20
-3.711072
11
33.863894
21
-4.509040
0
LINE
8
Layer 1
10
33.863894
20
-4.509040
11
34.280689
21
-5.282357
0
LINE
8
Layer 1
10
34.280689
20
-5.282357
11
34.497496
21
-6.158439
0
LINE
8
Layer 1
10
34.497496
20
-6.158439
11
34.563259
21
-7.264702
0
LINE
8
Layer 1
10
34.563259
20
-7.264702
11
34.484824
21
-9.031322
0
LINE
8
Layer 1
10
34.484824
20
-9.031322
11
34.454777
21
-9.520035
0
LINE
8
Layer 1
10
34.454777
20
-9.520035
11
34.560364
21
-9.719111
0
LINE
8
Layer 1
10
34.560364
20
-9.719111
11
35.315144
21
-9.291133
0
LINE
8
Layer 1
10
35.315144
20
-9.291133
11
35.987937
21
-8.661617
0
LINE
8
Layer 1
10
35.987937
20
-8.661617
11
36.416799
21
-8.020432
0
LINE
8
Layer 1
10
36.416799
20
-8.020432
11
36.643490
21
-7.279529
0
LINE
8
Layer 1
10
36.643490
20
-7.279529
11
36.709774
21
-6.350863
0
LINE
8
Layer 1
10
36.709774
20
-6.350863
11
36.538428
21
-4.957490
0
LINE
8
Layer 1
10
36.538428
20
-4.957490
11
36.140357
21
-3.759463
0
LINE
8
Layer 1
10
36.140357
20
-3.759463
11
35.763564
21
-3.249481
0
LINE
8
Layer 1
10
35.763564
20
-3.249481
11
35.196290
21
-2.863125
0
LINE
8
Layer 1
10
35.196290
20
-2.863125
11
33.025997
21
-2.233843
0
LINE
8
Layer 1
10
33.025997
20
-2.233843
11
29.367107
21
-1.324735
0
LINE
8
Layer 1
10
29.367107
20
-1.324735
11
28.844409
21
-0.992704
0
LINE
8
Layer 1
10
28.844409
20
-0.992704
11
29.367107
21
-0.938926
0
LINE
8
Layer 1
10
29.367107
20
-0.938926
11
31.980597
21
-1.044257
0
LINE
8
Layer 1
10
31.980597
20
-1.044257
11
35.313532
21
-1.299583
0
LINE
8
Layer 1
10
35.313532
20
-1.299583
11
36.177564
21
-1.597096
0
LINE
8
Layer 1
10
36.177564
20
-1.597096
11
36.837617
21
-2.078307
0
LINE
8
Layer 1
10
36.837617
20
-2.078307
11
37.386530
21
-2.742546
0
LINE
8
Layer 1
10
37.386530
20
-2.742546
11
37.782717
21
-3.578217
0
LINE
8
Layer 1
10
37.782717
20
-3.578217
11
38.022861
21
-4.575768
0
LINE
8
Layer 1
10
38.022861
20
-4.575768
11
38.103647
21
-5.725647
0
LINE
8
Layer 1
10
38.103647
20
-5.725647
11
37.891616
21
-7.440276
0
LINE
8
Layer 1
10
37.891616
20
-7.440276
11
37.601597
21
-8.079590
0
LINE
8
Layer 1
10
37.601597
20
-8.079590
11
37.166704
21
-8.642707
0
LINE
8
Layer 1
10
37.166704
20
-8.642707
11
36.350255
21
-9.320014
0
LINE
8
Layer 1
10
36.350255
20
-9.320014
11
35.110204
21
-9.793237
0
LINE
8
Layer 1
10
35.110204
20
-9.793237
11
34.123077
21
-10.212248
0
LINE
8
Layer 1
10
34.123077
20
-10.212248
11
33.663824
21
-10.806117
0
LINE
8
Layer 1
10
33.663824
20
-10.806117
11
33.001436
21
-11.642974
0
LINE
8
Layer 1
10
33.001436
20
-11.642974
11
32.069174
21
-12.337067
0
LINE
8
Layer 1
10
32.069174
20
-12.337067
11
31.006550
21
-12.621416
0
LINE
8
Layer 1
10
31.006550
20
-12.621416
11
29.790244
21
-12.716458
0
LINE
8
Layer 1
10
29.790244
20
-12.716458
11
26.106464
21
-12.639855
0
LINE
8
Layer 1
10
26.106464
20
-12.639855
11
26.106500
21
-12.639800
0
LINE
8
Layer 1
10
29.012390
20
5.641100
11
29.174923
21
5.760877
0
LINE
8
Layer 1
10
29.174923
20
5.760877
11
29.671116
21
5.740651
0
LINE
8
Layer 1
10
29.671116
20
5.740651
11
30.387940
21
5.578514
0
LINE
8
Layer 1
10
30.387940
20
5.578514
11
51.953240
21
5.503852
0
LINE
8
Layer 1
10
51.953240
20
5.503852
11
73.398340
21
5.528970
0
LINE
8
Layer 1
10
73.398340
20
5.528970
11
73.398300
21
18.571600
0
LINE
8
Layer 1
10
73.398300
20
18.571600
11
73.398300
21
31.614100
0
LINE
8
Layer 1
10
73.398300
20
31.614100
11
70.748020
21
31.640601
0
LINE
8
Layer 1
10
70.748020
20
31.640601
11
68.097740
21
31.667101
0
LINE
8
Layer 1
10
68.097740
20
31.667101
11
67.780844
21
31.292144
0
LINE
8
Layer 1
10
67.780844
20
31.292144
11
66.685534
21
29.971354
0
LINE
8
Layer 1
10
66.685534
20
29.971354
11
65.670244
21
28.808404
0
LINE
8
Layer 1
10
65.670244
20
28.808404
11
65.326876
21
28.459939
0
LINE
8
Layer 1
10
65.326876
20
28.459939
11
63.753783
21
27.119574
0
LINE
8
Layer 1
10
63.753783
20
27.119574
11
61.521646
21
25.819669
0
LINE
8
Layer 1
10
61.521646
20
25.819669
11
60.111397
21
25.211425
0
LINE
8
Layer 1
10
60.111397
20
25.211425
11
58.960426
21
24.860352
0
LINE
8
Layer 1
10
58.960426
20
24.860352
11
57.944815
21
24.739455
0
LINE
8
Layer 1
10
57.944815
20
24.739455
11
56.940646
21
24.821740
0
LINE
8
Layer 1
10
56.940646
20
24.821740
11
56.319796
21
25.054434
0
LINE
8
Layer 1
10
56.319796
20
25.054434
11
55.822488
21
25.532850
0
LINE
8
Layer 1
10
55.822488
20
25.532850
11
55.436399
21
26.274002
0
LINE
8
Layer 1
10
55.436399
20
26.274002
11
55.149206
21
27.294900
0
LINE
8
Layer 1
10
55.149206
20
27.294900
11
54.977700
21
27.948257
0
LINE
8
Layer 1
10
54.977700
20
27.948257
11
54.808866
21
28.159566
0
LINE
8
Layer 1
10
54.808866
20
28.159566
11
54.082065
21
27.834252
0
LINE
8
Layer 1
10
54.082065
20
27.834252
11
50.870876
21
25.987843
0
LINE
8
Layer 1
10
50.870876
20
25.987843
11
48.179235
21
24.951202
0
LINE
8
Layer 1
10
48.179235
20
24.951202
11
46.019701
21
24.458867
0
LINE
8
Layer 1
10
46.019701
20
24.458867
11
44.004876
21
24.273299
0
LINE
8
Layer 1
10
44.004876
20
24.273299
11
41.832141
21
24.389484
0
LINE
8
Layer 1
10
41.832141
20
24.389484
11
39.198875
21
24.802409
0
LINE
8
Layer 1
10
39.198875
20
24.802409
11
36.844108
21
25.439573
0
LINE
8
Layer 1
10
36.844108
20
25.439573
11
34.768385
21
26.374549
0
LINE
8
Layer 1
10
34.768385
20
26.374549
11
33.822549
21
26.903269
0
LINE
8
Layer 1
10
33.822549
20
26.903269
11
31.519873
21
28.558852
0
LINE
8
Layer 1
10
31.519873
20
28.558852
11
28.925619
21
31.099269
0
LINE
8
Layer 1
10
28.925619
20
31.099269
11
28.459179
21
31.614112
0
LINE
8
Layer 1
10
28.459179
20
31.614112
11
27.083700
21
31.614200
0
LINE
8
Layer 1
10
27.083700
20
31.614200
11
25.708200
21
31.614200
0
LINE
8
Layer 1
10
25.708200
20
31.614200
11
25.682597
21
18.671200
0
LINE
8
Layer 1
10
25.682597
20
18.671200
11
25.704362
21
5.603700
0
LINE
8
Layer 1
10
25.704362
20
5.603700
11
27.350972
21
5.479249
0
LINE
8
Layer 1
10
27.350972
20
5.479249
11
28.680801
21
5.507626
0
LINE
8
Layer 1
10
28.680801
20
5.507626
11
29.012342
21
5.641157
0
LINE
8
Layer 1
10
29.012342
20
5.641157
11
29.012390
21
5.641100
0
LINE
8
Layer 1
10
-20.286610
20
-12.475400
11
-20.851073
21
-12.180139
0
LINE
8
Layer 1
10
-20.851073
20
-12.180139
11
-21.253282
21
-12.057926
0
LINE
8
Layer 1
10
-21.253282
20
-12.057926
11
-21.679398
21
-11.939475
0
LINE
8
Layer 1
10
-21.679398
20
-11.939475
11
-22.240162
21
-11.521001
0
LINE
8
Layer 1
10
-22.240162
20
-11.521001
11
-22.431759
21
-10.966319
0
LINE
8
Layer 1
10
-22.431759
20
-10.966319
11
-22.247728
21
-10.416361
0
LINE
8
Layer 1
10
-22.247728
20
-10.416361
11
-21.719168
21
-10.251586
0
LINE
8
Layer 1
10
-21.719168
20
-10.251586
11
-21.179418
21
-10.105409
0
LINE
8
Layer 1
10
-21.179418
20
-10.105409
11
-20.729716
21
-9.956068
0
LINE
8
Layer 1
10
-20.729716
20
-9.956068
11
-20.229532
21
-9.700290
0
LINE
8
Layer 1
10
-20.229532
20
-9.700290
11
-20.090410
21
-9.478388
0
LINE
8
Layer 1
10
-20.090410
20
-9.478388
11
-20.101576
21
-9.276387
0
LINE
8
Layer 1
10
-20.101576
20
-9.276387
11
-20.421820
21
-9.008347
0
LINE
8
Layer 1
10
-20.421820
20
-9.008347
11
-20.637009
21
-8.759444
0
LINE
8
Layer 1
10
-20.637009
20
-8.759444
11
-20.292865
21
-8.380526
0
LINE
8
Layer 1
10
-20.292865
20
-8.380526
11
-19.701397
21
-8.160792
0
LINE
8
Layer 1
10
-19.701397
20
-8.160792
11
-19.171432
21
-7.961667
0
LINE
8
Layer 1
10
-19.171432
20
-7.961667
11
-18.794563
21
-7.762545
0
LINE
8
Layer 1
10
-18.794563
20
-7.762545
11
-18.546895
21
-7.613202
0
LINE
8
Layer 1
10
-18.546895
20
-7.613202
11
-18.100103
21
-7.463859
0
LINE
8
Layer 1
10
-18.100103
20
-7.463859
11
-17.524111
21
-7.264737
0
LINE
8
Layer 1
10
-17.524111
20
-7.264737
11
-16.987985
21
-7.062449
0
LINE
8
Layer 1
10
-16.987985
20
-7.062449
11
-16.511742
21
-6.913106
0
LINE
8
Layer 1
10
-16.511742
20
-6.913106
11
-15.828628
21
-6.766929
0
LINE
8
Layer 1
10
-15.828628
20
-6.766929
11
-15.343751
21
-6.699578
0
LINE
8
Layer 1
10
-15.343751
20
-6.699578
11
-14.876504
21
-6.393572
0
LINE
8
Layer 1
10
-14.876504
20
-6.393572
11
-14.215536
21
-5.910487
0
LINE
8
Layer 1
10
-14.215536
20
-5.910487
11
-13.985500
21
-5.590538
0
LINE
8
Layer 1
10
-13.985500
20
-5.590538
11
-13.662149
21
-5.073970
0
LINE
8
Layer 1
10
-13.662149
20
-5.073970
11
-13.191054
21
-4.775695
0
LINE
8
Layer 1
10
-13.191054
20
-4.775695
11
-12.935438
21
-4.925038
0
LINE
8
Layer 1
10
-12.935438
20
-4.925038
11
-12.729166
21
-5.074381
0
LINE
8
Layer 1
10
-12.729166
20
-5.074381
11
-12.477356
21
-5.266552
0
LINE
8
Layer 1
10
-12.477356
20
-5.266552
11
-12.150277
21
-5.490566
0
LINE
8
Layer 1
10
-12.150277
20
-5.490566
11
-11.970116
21
-5.579114
0
LINE
8
Layer 1
10
-11.970116
20
-5.579114
11
-11.894022
21
-5.801589
0
LINE
8
Layer 1
10
-11.894022
20
-5.801589
11
-11.620227
21
-6.190926
0
LINE
8
Layer 1
10
-11.620227
20
-6.190926
11
-11.421434
21
-6.367591
0
LINE
8
Layer 1
10
-11.421434
20
-6.367591
11
-11.378456
21
-6.785376
0
LINE
8
Layer 1
10
-11.378456
20
-6.785376
11
-11.420127
21
-7.200198
0
LINE
8
Layer 1
10
-11.420127
20
-7.200198
11
-11.615009
21
-7.359605
0
LINE
8
Layer 1
10
-11.615009
20
-7.359605
11
-11.894112
21
-7.739459
0
LINE
8
Layer 1
10
-11.894112
20
-7.739459
11
-11.862170
21
-8.166723
0
LINE
8
Layer 1
10
-11.862170
20
-8.166723
11
-11.443888
21
-8.260356
0
LINE
8
Layer 1
10
-11.443888
20
-8.260356
11
-11.092877
21
-8.304611
0
LINE
8
Layer 1
10
-11.092877
20
-8.304611
11
-10.903752
21
-8.459478
0
LINE
8
Layer 1
10
-10.903752
20
-8.459478
11
-10.585145
21
-8.658603
0
LINE
8
Layer 1
10
-10.585145
20
-8.658603
11
-10.417833
21
-8.792445
0
LINE
8
Layer 1
10
-10.417833
20
-8.792445
11
-10.361975
21
-9.479985
0
LINE
8
Layer 1
10
-10.361975
20
-9.479985
11
-10.333059
21
-10.301370
0
LINE
8
Layer 1
10
-10.333059
20
-10.301370
11
-9.691605
21
-10.331508
0
LINE
8
Layer 1
10
-9.691605
20
-10.331508
11
-9.154933
21
-10.395580
0
LINE
8
Layer 1
10
-9.154933
20
-10.395580
11
-8.914357
21
-10.555522
0
LINE
8
Layer 1
10
-8.914357
20
-10.555522
11
-8.604997
21
-10.749397
0
LINE
8
Layer 1
10
-8.604997
20
-10.749397
11
-8.311957
21
-10.868873
0
LINE
8
Layer 1
10
-8.311957
20
-10.868873
11
-8.197560
21
-11.442336
0
LINE
8
Layer 1
10
-8.197560
20
-11.442336
11
-8.358488
21
-12.104943
0
LINE
8
Layer 1
10
-8.358488
20
-12.104943
11
-8.554294
21
-12.300790
0
LINE
8
Layer 1
10
-8.554294
20
-12.300790
11
-8.853807
21
-12.296518
0
LINE
8
Layer 1
10
-8.853807
20
-12.296518
11
-9.151020
21
-12.289483
0
LINE
8
Layer 1
10
-9.151020
20
-12.289483
11
-9.357080
21
-12.437906
0
LINE
8
Layer 1
10
-9.357080
20
-12.437906
11
-9.548901
21
-12.553807
0
LINE
8
Layer 1
10
-9.548901
20
-12.553807
11
-10.186352
21
-12.612960
0
LINE
8
Layer 1
10
-10.186352
20
-12.612960
11
-14.711010
21
-12.629464
0
LINE
8
Layer 1
10
-14.711010
20
-12.629464
11
-18.960601
21
-12.592414
0
LINE
8
Layer 1
10
-18.960601
20
-12.592414
11
-20.286610
21
-12.475402
0
LINE
8
Layer 1
10
-20.286610
20
-12.475402
11
-20.286610
21
-12.475400
0
LINE
8
Layer 1
10
2.012570
20
-8.992000
11
-1.421690
21
-7.918070
0
LINE
8
Layer 1
10
-1.421690
20
-7.918070
11
-3.023221
21
-7.006891
0
LINE
8
Layer 1
10
-3.023221
20
-7.006891
11
-4.907210
21
-5.464290
0
LINE
8
Layer 1
10
-4.907210
20
-5.464290
11
-6.200320
21
-4.377390
0
LINE
8
Layer 1
10
-6.200320
20
-4.377390
11
-8.640520
21
-4.069810
0
LINE
8
Layer 1
10
-8.640520
20
-4.069810
11
-11.717519
21
-3.479997
0
LINE
8
Layer 1
10
-11.717519
20
-3.479997
11
-13.618600
21
-2.887070
0
LINE
8
Layer 1
10
-13.618600
20
-2.887070
11
-14.464874
21
-2.527045
0
LINE
8
Layer 1
10
-14.464874
20
-2.527045
11
-16.988631
21
-1.532606
0
LINE
8
Layer 1
10
-16.988631
20
-1.532606
11
-19.064894
21
-0.205675
0
LINE
8
Layer 1
10
-19.064894
20
-0.205675
11
-19.940767
21
0.471014
0
LINE
8
Layer 1
10
-19.940767
20
0.471014
11
-21.238268
21
1.668921
0
LINE
8
Layer 1
10
-21.238268
20
1.668921
11
-22.712597
21
3.410114
0
LINE
8
Layer 1
10
-22.712597
20
3.410114
11
-23.538491
21
4.691446
0
LINE
8
Layer 1
10
-23.538491
20
4.691446
11
-24.293489
21
6.193324
0
LINE
8
Layer 1
10
-24.293489
20
6.193324
11
-24.911069
21
7.766707
0
LINE
8
Layer 1
10
-24.911069
20
7.766707
11
-25.324707
21
9.262554
0
LINE
8
Layer 1
10
-25.324707
20
9.262554
11
-25.579571
21
11.154224
0
LINE
8
Layer 1
10
-25.579571
20
11.154224
11
-25.692144
21
12.624734
0
LINE
8
Layer 1
10
-25.692144
20
12.624734
11
-25.626298
21
14.190854
0
LINE
8
Layer 1
10
-25.626298
20
14.190854
11
-25.333476
21
16.814345
0
LINE
8
Layer 1
10
-25.333476
20
16.814345
11
-25.011722
21
18.422224
0
LINE
8
Layer 1
10
-25.011722
20
18.422224
11
-24.943612
21
18.474103
0
LINE
8
Layer 1
10
-24.943612
20
18.474103
11
-24.921878
21
18.284361
0
LINE
8
Layer 1
10
-24.921878
20
18.284361
11
-24.560217
21
15.933181
0
LINE
8
Layer 1
10
-24.560217
20
15.933181
11
-24.316622
21
14.688661
0
LINE
8
Layer 1
10
-24.316622
20
14.688661
11
-23.826118
21
12.348961
0
LINE
8
Layer 1
10
-23.826118
20
12.348961
11
-23.563700
21
11.253781
0
LINE
8
Layer 1
10
-23.563700
20
11.253781
11
-22.605377
21
7.951391
0
LINE
8
Layer 1
10
-22.605377
20
7.951391
11
-21.981857
21
6.493684
0
LINE
8
Layer 1
10
-21.981857
20
6.493684
11
-21.295800
21
5.254131
0
LINE
8
Layer 1
10
-21.295800
20
5.254131
11
-19.245630
21
2.927931
0
LINE
8
Layer 1
10
-19.245630
20
2.927931
11
-18.080160
21
2.105498
0
LINE
8
Layer 1
10
-18.080160
20
2.105498
11
-16.821670
21
1.432971
0
LINE
8
Layer 1
10
-16.821670
20
1.432971
11
-15.526076
21
0.955481
0
LINE
8
Layer 1
10
-15.526076
20
0.955481
11
-14.201986
21
0.636303
0
LINE
8
Layer 1
10
-14.201986
20
0.636303
11
-11.072250
21
0.401841
0
LINE
8
Layer 1
10
-11.072250
20
0.401841
11
-9.785696
21
0.434619
0
LINE
8
Layer 1
10
-9.785696
20
0.434619
11
-9.390930
21
0.646536
0
LINE
8
Layer 1
10
-9.390930
20
0.646536
11
-9.217078
21
0.916729
0
LINE
8
Layer 1
10
-9.217078
20
0.916729
11
-9.226005
21
1.268796
0
LINE
8
Layer 1
10
-9.226005
20
1.268796
11
-9.567001
21
4.303376
0
LINE
8
Layer 1
10
-9.567001
20
4.303376
11
-9.340392
21
6.925366
0
LINE
8
Layer 1
10
-9.340392
20
6.925366
11
-8.573430
21
9.918637
0
LINE
8
Layer 1
10
-8.573430
20
9.918637
11
-7.361003
21
12.875146
0
LINE
8
Layer 1
10
-7.361003
20
12.875146
11
-5.758651
21
15.681190
0
LINE
8
Layer 1
10
-5.758651
20
15.681190
11
-3.821912
21
18.223066
0
LINE
8
Layer 1
10
-3.821912
20
18.223066
11
-1.386206
21
20.722021
0
LINE
8
Layer 1
10
-1.386206
20
20.722021
11
1.166298
21
22.669096
0
LINE
8
Layer 1
10
1.166298
20
22.669096
11
2.437129
21
23.442083
0
LINE
8
Layer 1
10
2.437129
20
23.442083
11
3.849896
21
24.122055
0
LINE
8
Layer 1
10
3.849896
20
24.122055
11
8.185398
21
25.665816
0
LINE
8
Layer 1
10
8.185398
20
25.665816
11
11.769618
21
27.013216
0
LINE
8
Layer 1
10
11.769618
20
27.013216
11
16.200108
21
29.217706
0
LINE
8
Layer 1
10
16.200108
20
29.217706
11
16.946820
21
29.677846
0
LINE
8
Layer 1
10
16.946820
20
29.677846
11
20.198590
21
31.836396
0
LINE
8
Layer 1
10
20.198590
20
31.836396
11
22.265830
21
33.494026
0
LINE
8
Layer 1
10
22.265830
20
33.494026
11
22.610135
21
33.754700
0
LINE
8
Layer 1
10
22.610135
20
33.754700
11
22.192342
21
33.224146
0
LINE
8
Layer 1
10
22.192342
20
33.224146
11
20.771115
21
31.927250
0
LINE
8
Layer 1
10
20.771115
20
31.927250
11
18.399314
21
30.003065
0
LINE
8
Layer 1
10
18.399314
20
30.003065
11
16.061823
21
28.397701
0
LINE
8
Layer 1
10
16.061823
20
28.397701
11
13.505027
21
26.953117
0
LINE
8
Layer 1
10
13.505027
20
26.953117
11
10.475315
21
25.511270
0
LINE
8
Layer 1
10
10.475315
20
25.511270
11
7.787155
21
24.448800
0
LINE
8
Layer 1
10
7.787155
20
24.448800
11
3.611445
21
22.717776
0
LINE
8
Layer 1
10
3.611445
20
22.717776
11
2.178029
21
21.858630
0
LINE
8
Layer 1
10
2.178029
20
21.858630
11
0.614795
21
20.708510
0
LINE
8
Layer 1
10
0.614795
20
20.708510
11
-1.157146
21
19.151913
0
LINE
8
Layer 1
10
-1.157146
20
19.151913
11
-2.790654
21
17.353457
0
LINE
8
Layer 1
10
-2.790654
20
17.353457
11
-4.255694
21
15.369212
0
LINE
8
Layer 1
10
-4.255694
20
15.369212
11
-5.522225
21
13.255244
0
LINE
8
Layer 1
10
-5.522225
20
13.255244
11
-6.560211
21
11.067622
0
LINE
8
Layer 1
10
-6.560211
20
11.067622
11
-7.339613
21
8.862413
0
LINE
8
Layer 1
10
-7.339613
20
8.862413
11
-7.830394
21
6.695687
0
LINE
8
Layer 1
10
-7.830394
20
6.695687
11
-8.002515
21
4.623510
0
LINE
8
Layer 1
10
-8.002515
20
4.623510
11
-7.828230
21
2.167935
0
LINE
8
Layer 1
10
-7.828230
20
2.167935
11
-7.551379
21
1.202928
0
LINE
8
Layer 1
10
-7.551379
20
1.202928
11
-7.098542
21
0.169140
0
LINE
8
Layer 1
10
-7.098542
20
0.169140
11
-6.180055
21
-1.329921
0
LINE
8
Layer 1
10
-6.180055
20
-1.329921
11
-4.907968
21
-2.916350
0
LINE
8
Layer 1
10
-4.907968
20
-2.916350
11
-3.473893
21
-4.374566
0
LINE
8
Layer 1
10
-3.473893
20
-4.374566
11
-2.069442
21
-5.488990
0
LINE
8
Layer 1
10
-2.069442
20
-5.488990
11
-0.635672
21
-6.352745
0
LINE
8
Layer 1
10
-0.635672
20
-6.352745
11
0.718508
21
-6.849300
0
LINE
8
Layer 1
10
0.718508
20
-6.849300
11
1.843750
21
-7.140406
0
LINE
8
Layer 1
10
1.843750
20
-7.140406
11
3.140543
21
-7.293112
0
LINE
8
Layer 1
10
3.140543
20
-7.293112
11
8.426648
21
-7.314862
0
LINE
8
Layer 1
10
8.426648
20
-7.314862
11
13.488031
21
-7.194972
0
LINE
8
Layer 1
10
13.488031
20
-7.194972
11
15.475958
21
-6.956166
0
LINE
8
Layer 1
10
15.475958
20
-6.956166
11
16.227388
21
-6.347460
0
LINE
8
Layer 1
10
16.227388
20
-6.347460
11
16.906568
21
-5.192206
0
LINE
8
Layer 1
10
16.906568
20
-5.192206
11
17.178084
21
-4.377428
0
LINE
8
Layer 1
10
17.178084
20
-4.377428
11
17.268570
21
-3.381776
0
LINE
8
Layer 1
10
17.268570
20
-3.381776
11
17.161429
21
-2.076500
0
LINE
8
Layer 1
10
17.161429
20
-2.076500
11
16.929184
21
-1.706439
0
LINE
8
Layer 1
10
16.929184
20
-1.706439
11
16.538230
21
-1.418316
0
LINE
8
Layer 1
10
16.538230
20
-1.418316
11
14.903258
21
-0.834874
0
LINE
8
Layer 1
10
14.903258
20
-0.834874
11
12.777100
21
-0.543408
0
LINE
8
Layer 1
10
12.777100
20
-0.543408
11
6.916000
21
-0.396176
0
LINE
8
Layer 1
10
6.916000
20
-0.396176
11
6.443082
21
-0.312418
0
LINE
8
Layer 1
10
6.443082
20
-0.312418
11
7.413808
21
0.149094
0
LINE
8
Layer 1
10
7.413808
20
0.149094
11
9.381788
21
1.020118
0
LINE
8
Layer 1
10
9.381788
20
1.020118
11
11.096718
21
2.027214
0
LINE
8
Layer 1
10
11.096718
20
2.027214
11
11.986219
21
2.745527
0
LINE
8
Layer 1
10
11.986219
20
2.745527
11
12.694354
21
3.586953
0
LINE
8
Layer 1
10
12.694354
20
3.586953
11
13.217122
21
4.533446
0
LINE
8
Layer 1
10
13.217122
20
4.533446
11
13.550523
21
5.566959
0
LINE
8
Layer 1
10
13.550523
20
5.566959
11
13.690557
21
6.669445
0
LINE
8
Layer 1
10
13.690557
20
6.669445
11
13.633225
21
7.822859
0
LINE
8
Layer 1
10
13.633225
20
7.822859
11
13.374525
21
9.009154
0
LINE
8
Layer 1
10
13.374525
20
9.009154
11
12.910458
21
10.210284
0
LINE
8
Layer 1
10
12.910458
20
10.210284
11
12.270522
21
11.381487
0
LINE
8
Layer 1
10
12.270522
20
11.381487
11
11.532886
21
12.399723
0
LINE
8
Layer 1
10
11.532886
20
12.399723
11
10.709091
21
13.251171
0
LINE
8
Layer 1
10
10.709091
20
13.251171
11
9.810678
21
13.922014
0
LINE
8
Layer 1
10
9.810678
20
13.922014
11
8.671981
21
14.406807
0
LINE
8
Layer 1
10
8.671981
20
14.406807
11
7.410728
21
14.706549
0
LINE
8
Layer 1
10
7.410728
20
14.706549
11
6.802424
21
14.854616
0
LINE
8
Layer 1
10
6.802424
20
14.854616
11
7.429755
21
14.937579
0
LINE
8
Layer 1
10
7.429755
20
14.937579
11
8.836785
21
14.704024
0
LINE
8
Layer 1
10
8.836785
20
14.704024
11
10.169265
21
14.113892
0
LINE
8
Layer 1
10
10.169265
20
14.113892
11
11.538211
21
13.000371
0
LINE
8
Layer 1
10
11.538211
20
13.000371
11
12.761612
21
11.566497
0
LINE
8
Layer 1
10
12.761612
20
11.566497
11
13.725575
21
9.970053
0
LINE
8
Layer 1
10
13.725575
20
9.970053
11
14.316205
21
8.368822
0
LINE
8
Layer 1
10
14.316205
20
8.368822
11
14.576414
21
6.797927
0
LINE
8
Layer 1
10
14.576414
20
6.797927
11
14.418440
21
5.383722
0
LINE
8
Layer 1
10
14.418440
20
5.383722
11
13.833314
21
3.609573
0
LINE
8
Layer 1
10
13.833314
20
3.609573
11
12.754000
21
2.054102
0
LINE
8
Layer 1
10
12.754000
20
2.054102
11
12.018546
21
1.079194
0
LINE
8
Layer 1
10
12.018546
20
1.079194
11
13.437296
21
0.762730
0
LINE
8
Layer 1
10
13.437296
20
0.762730
11
15.254296
21
0.482441
0
LINE
8
Layer 1
10
15.254296
20
0.482441
11
16.629906
21
0.069290
0
LINE
8
Layer 1
10
16.629906
20
0.069290
11
17.338286
21
-0.335735
0
LINE
8
Layer 1
10
17.338286
20
-0.335735
11
17.638721
21
-0.783265
0
LINE
8
Layer 1
10
17.638721
20
-0.783265
11
17.824688
21
-1.938125
0
LINE
8
Layer 1
10
17.824688
20
-1.938125
11
18.126267
21
-5.384483
0
LINE
8
Layer 1
10
18.126267
20
-5.384483
11
18.072274
21
-6.410551
0
LINE
8
Layer 1
10
18.072274
20
-6.410551
11
17.883220
21
-7.100545
0
LINE
8
Layer 1
10
17.883220
20
-7.100545
11
17.209556
21
-7.747697
0
LINE
8
Layer 1
10
17.209556
20
-7.747697
11
16.408760
21
-8.287111
0
LINE
8
Layer 1
10
16.408760
20
-8.287111
11
15.420105
21
-8.650937
0
LINE
8
Layer 1
10
15.420105
20
-8.650937
11
13.561750
21
-8.852258
0
LINE
8
Layer 1
10
13.561750
20
-8.852258
11
2.012550
21
-8.991986
0
LINE
8
Layer 1
10
2.012550
20
-8.991986
11
2.012570
21
-8.992000
0
LINE
8
Layer 1
10
53.734800
20
36.034000
11
51.975768
21
36.476423
0
LINE
8
Layer 1
10
51.975768
20
36.476423
11
50.413966
21
37.076854
0
LINE
8
Layer 1
10
50.413966
20
37.076854
11
49.059594
21
37.830558
0
LINE
8
Layer 1
10
49.059594
20
37.830558
11
47.922850
21
38.732800
0
LINE
8
Layer 1
10
47.922850
20
38.732800
11
47.036743
21
39.693635
0
LINE
8
Layer 1
10
47.036743
20
39.693635
11
46.362294
21
40.685143
0
LINE
8
Layer 1
10
46.362294
20
40.685143
11
45.900246
21
41.701861
0
LINE
8
Layer 1
10
45.900246
20
41.701861
11
45.651342
21
42.738322
0
LINE
8
Layer 1
10
45.651342
20
42.738322
11
45.616327
21
43.789063
0
LINE
8
Layer 1
10
45.616327
20
43.789063
11
45.795942
21
44.848618
0
LINE
8
Layer 1
10
45.795942
20
44.848618
11
46.190932
21
45.911522
0
LINE
8
Layer 1
10
46.190932
20
45.911522
11
46.802040
21
46.972310
0
LINE
8
Layer 1
10
46.802040
20
46.972310
11
47.515909
21
47.842617
0
LINE
8
Layer 1
10
47.515909
20
47.842617
11
48.407727
21
48.632740
0
LINE
8
Layer 1
10
48.407727
20
48.632740
11
49.452677
21
49.331733
0
LINE
8
Layer 1
10
49.452677
20
49.331733
11
50.625948
21
49.928650
0
LINE
8
Layer 1
10
50.625948
20
49.928650
11
53.258187
21
50.772467
0
LINE
8
Layer 1
10
53.258187
20
50.772467
11
54.667528
21
50.997475
0
LINE
8
Layer 1
10
54.667528
20
50.997475
11
56.105930
21
51.076620
0
LINE
8
Layer 1
10
56.105930
20
51.076620
11
57.185137
21
51.151873
0
LINE
8
Layer 1
10
57.185137
20
51.151873
11
57.518140
21
51.390256
0
LINE
8
Layer 1
10
57.518140
20
51.390256
11
56.955677
21
52.357479
0
LINE
8
Layer 1
10
56.955677
20
52.357479
11
56.221349
21
53.517709
0
LINE
8
Layer 1
10
56.221349
20
53.517709
11
55.654715
21
54.463545
0
LINE
8
Layer 1
10
55.654715
20
54.463545
11
54.635365
21
56.355215
0
LINE
8
Layer 1
10
54.635365
20
56.355215
11
53.937306
21
57.699295
0
LINE
8
Layer 1
10
53.937306
20
57.699295
11
52.826612
21
60.078679
0
LINE
8
Layer 1
10
52.826612
20
60.078679
11
51.181446
21
64.121025
0
LINE
8
Layer 1
10
51.181446
20
64.121025
11
49.545896
21
68.157785
0
LINE
8
Layer 1
10
49.545896
20
68.157785
11
49.453640
21
68.390980
0
LINE
8
Layer 1
10
49.453640
20
68.390980
11
49.339092
21
68.760546
0
LINE
8
Layer 1
10
49.339092
20
68.760546
11
49.019464
21
69.205732
0
LINE
8
Layer 1
10
49.019464
20
69.205732
11
47.909073
21
70.213156
0
LINE
8
Layer 1
10
47.909073
20
70.213156
11
46.410673
21
71.193639
0
LINE
8
Layer 1
10
46.410673
20
71.193639
11
44.812470
21
71.927570
0
LINE
8
Layer 1
10
44.812470
20
71.927570
11
43.515572
21
72.404842
0
LINE
8
Layer 1
10
43.515572
20
72.404842
11
42.996460
21
72.728574
0
LINE
8
Layer 1
10
42.996460
20
72.728574
11
42.694192
21
73.163178
0
LINE
8
Layer 1
10
42.694192
20
73.163178
11
42.674863
21
73.690231
0
LINE
8
Layer 1
10
42.674863
20
73.690231
11
42.936787
21
74.301813
0
LINE
8
Layer 1
10
42.936787
20
74.301813
11
43.478275
21
74.990004
0
LINE
8
Layer 1
10
43.478275
20
74.990004
11
44.026855
21
75.699499
0
LINE
8
Layer 1
10
44.026855
20
75.699499
11
44.077867
21
75.898441
0
LINE
8
Layer 1
10
44.077867
20
75.898441
11
43.967702
21
75.968863
0
LINE
8
Layer 1
10
43.967702
20
75.968863
11
42.399602
21
75.261240
0
LINE
8
Layer 1
10
42.399602
20
75.261240
11
39.347452
21
73.900630
0
LINE
8
Layer 1
10
39.347452
20
73.900630
11
40.113095
21
75.222150
0
LINE
8
Layer 1
10
40.113095
20
75.222150
11
41.453735
21
77.611630
0
LINE
8
Layer 1
10
41.453735
20
77.611630
11
42.590715
21
80.181775
0
LINE
8
Layer 1
10
42.590715
20
80.181775
11
43.179815
21
81.967450
0
LINE
8
Layer 1
10
43.179815
20
81.967450
11
43.131978
21
82.123977
0
LINE
8
Layer 1
10
43.131978
20
82.123977
11
43.004392
21
82.120707
0
LINE
8
Layer 1
10
43.004392
20
82.120707
11
42.628410
21
81.693655
0
LINE
8
Layer 1
10
42.628410
20
81.693655
11
42.324194
21
81.245628
0
LINE
8
Layer 1
10
42.324194
20
81.245628
11
42.686715
21
82.095829
0
LINE
8
Layer 1
10
42.686715
20
82.095829
11
43.342107
21
83.298209
0
LINE
8
Layer 1
10
43.342107
20
83.298209
11
43.952374
21
84.431609
0
LINE
8
Layer 1
10
43.952374
20
84.431609
11
43.928241
21
83.918546
0
LINE
8
Layer 1
10
43.928241
20
83.918546
11
43.671664
21
82.656529
0
LINE
8
Layer 1
10
43.671664
20
82.656529
11
43.005610
21
80.453823
0
LINE
8
Layer 1
10
43.005610
20
80.453823
11
42.020145
21
77.914719
0
LINE
8
Layer 1
10
42.020145
20
77.914719
11
41.520914
21
76.620262
0
LINE
8
Layer 1
10
41.520914
20
76.620262
11
41.440832
21
75.943848
0
LINE
8
Layer 1
10
41.440832
20
75.943848
11
41.568006
21
75.808937
0
LINE
8
Layer 1
10
41.568006
20
75.808937
11
41.812008
21
75.794374
0
LINE
8
Layer 1
10
41.812008
20
75.794374
11
42.666548
21
76.080739
0
LINE
8
Layer 1
10
42.666548
20
76.080739
11
43.579511
21
76.528875
0
LINE
8
Layer 1
10
43.579511
20
76.528875
11
49.587381
21
79.453525
0
LINE
8
Layer 1
10
49.587381
20
79.453525
11
49.802112
21
79.553087
0
LINE
8
Layer 1
10
49.802112
20
79.553087
11
50.156456
21
79.652648
0
LINE
8
Layer 1
10
50.156456
20
79.652648
11
50.445190
21
79.556579
0
LINE
8
Layer 1
10
50.445190
20
79.556579
11
50.341627
21
79.267991
0
LINE
8
Layer 1
10
50.341627
20
79.267991
11
48.955836
21
78.110978
0
LINE
8
Layer 1
10
48.955836
20
78.110978
11
48.097825
21
77.467502
0
LINE
8
Layer 1
10
48.097825
20
77.467502
11
46.872805
21
76.566235
0
LINE
8
Layer 1
10
46.872805
20
76.566235
11
45.203267
21
75.289189
0
LINE
8
Layer 1
10
45.203267
20
75.289189
11
44.095785
21
74.265485
0
LINE
8
Layer 1
10
44.095785
20
74.265485
11
43.844281
21
73.897898
0
LINE
8
Layer 1
10
43.844281
20
73.897898
11
43.797101
21
73.573815
0
LINE
8
Layer 1
10
43.797101
20
73.573815
11
44.067090
21
73.147177
0
LINE
8
Layer 1
10
44.067090
20
73.147177
11
45.019051
21
72.839531
0
LINE
8
Layer 1
10
45.019051
20
72.839531
11
46.120771
21
72.483023
0
LINE
8
Layer 1
10
46.120771
20
72.483023
11
46.593163
21
72.285082
0
LINE
8
Layer 1
10
46.593163
20
72.285082
11
48.755913
21
70.941972
0
LINE
8
Layer 1
10
48.755913
20
70.941972
11
49.215037
21
70.791662
0
LINE
8
Layer 1
10
49.215037
20
70.791662
11
49.474571
21
70.847563
0
LINE
8
Layer 1
10
49.474571
20
70.847563
11
49.610668
21
71.043126
0
LINE
8
Layer 1
10
49.610668
20
71.043126
11
49.559404
21
72.020422
0
LINE
8
Layer 1
10
49.559404
20
72.020422
11
49.325624
21
74.624791
0
LINE
8
Layer 1
10
49.325624
20
74.624791
11
49.438042
21
75.516718
0
LINE
8
Layer 1
10
49.438042
20
75.516718
11
49.704593
21
76.171232
0
LINE
8
Layer 1
10
49.704593
20
76.171232
11
50.977103
21
77.596132
0
LINE
8
Layer 1
10
50.977103
20
77.596132
11
51.920960
21
78.473915
0
LINE
8
Layer 1
10
51.920960
20
78.473915
11
52.572133
21
78.779612
0
LINE
8
Layer 1
10
52.572133
20
78.779612
11
53.151792
21
78.945531
0
LINE
8
Layer 1
10
53.151792
20
78.945531
11
53.717094
21
78.641559
0
LINE
8
Layer 1
10
53.717094
20
78.641559
11
55.149064
21
77.483559
0
LINE
8
Layer 1
10
55.149064
20
77.483559
11
56.039287
21
76.658676
0
LINE
8
Layer 1
10
56.039287
20
76.658676
11
56.742974
21
76.167874
0
LINE
8
Layer 1
10
56.742974
20
76.167874
11
57.410317
21
75.931495
0
LINE
8
Layer 1
10
57.410317
20
75.931495
11
58.191504
21
75.869879
0
LINE
8
Layer 1
10
58.191504
20
75.869879
11
59.539055
21
76.148638
0
LINE
8
Layer 1
10
59.539055
20
76.148638
11
61.749514
21
77.044209
0
LINE
8
Layer 1
10
61.749514
20
77.044209
11
62.794914
21
77.506276
0
LINE
8
Layer 1
10
62.794914
20
77.506276
11
63.259418
21
77.755134
0
LINE
8
Layer 1
10
63.259418
20
77.755134
11
64.360326
21
78.173111
0
LINE
8
Layer 1
10
64.360326
20
78.173111
11
65.597348
21
78.358368
0
LINE
8
Layer 1
10
65.597348
20
78.358368
11
66.710155
21
78.226891
0
LINE
8
Layer 1
10
66.710155
20
78.226891
11
67.673438
21
77.921430
0
LINE
8
Layer 1
10
67.673438
20
77.921430
11
68.824710
21
77.253890
0
LINE
8
Layer 1
10
68.824710
20
77.253890
11
69.694015
21
76.543115
0
LINE
8
Layer 1
10
69.694015
20
76.543115
11
70.391901
21
75.677943
0
LINE
8
Layer 1
10
70.391901
20
75.677943
11
71.028918
21
74.547210
0
LINE
8
Layer 1
10
71.028918
20
74.547210
11
71.561819
21
73.057022
0
LINE
8
Layer 1
10
71.561819
20
73.057022
11
71.623611
21
71.140150
0
LINE
8
Layer 1
10
71.623611
20
71.140150
11
71.380212
21
68.852008
0
LINE
8
Layer 1
10
71.380212
20
68.852008
11
70.651441
21
66.947520
0
LINE
8
Layer 1
10
70.651441
20
66.947520
11
69.673559
21
65.111545
0
LINE
8
Layer 1
10
69.673559
20
65.111545
11
68.620508
21
63.530999
0
LINE
8
Layer 1
10
68.620508
20
63.530999
11
67.265944
21
61.904372
0
LINE
8
Layer 1
10
67.265944
20
61.904372
11
65.383521
21
59.930150
0
LINE
8
Layer 1
10
65.383521
20
59.930150
11
63.811713
21
58.539297
0
LINE
8
Layer 1
10
63.811713
20
58.539297
11
62.159421
21
57.799630
0
LINE
8
Layer 1
10
62.159421
20
57.799630
11
61.028918
21
57.556006
0
LINE
8
Layer 1
10
61.028918
20
57.556006
11
60.687133
21
57.664558
0
LINE
8
Layer 1
10
60.687133
20
57.664558
11
60.379021
21
57.935483
0
LINE
8
Layer 1
10
60.379021
20
57.935483
11
60.030742
21
58.320985
0
LINE
8
Layer 1
10
60.030742
20
58.320985
11
60.078015
21
59.204894
0
LINE
8
Layer 1
10
60.078015
20
59.204894
11
59.990433
21
61.736463
0
LINE
8
Layer 1
10
59.990433
20
61.736463
11
59.420401
21
64.422074
0
LINE
8
Layer 1
10
59.420401
20
64.422074
11
58.816769
21
66.383691
0
LINE
8
Layer 1
10
58.816769
20
66.383691
11
58.488972
21
66.935194
0
LINE
8
Layer 1
10
58.488972
20
66.935194
11
57.979316
21
67.940494
0
LINE
8
Layer 1
10
57.979316
20
67.940494
11
56.696766
21
70.525422
0
LINE
8
Layer 1
10
56.696766
20
70.525422
11
55.315636
21
72.632704
0
LINE
8
Layer 1
10
55.315636
20
72.632704
11
54.503040
21
73.368056
0
LINE
8
Layer 1
10
54.503040
20
73.368056
11
53.848021
21
73.566415
0
LINE
8
Layer 1
10
53.848021
20
73.566415
11
53.380667
21
73.231443
0
LINE
8
Layer 1
10
53.380667
20
73.231443
11
53.131066
21
72.366799
0
LINE
8
Layer 1
10
53.131066
20
72.366799
11
53.041709
21
70.170580
0
LINE
8
Layer 1
10
53.041709
20
70.170580
11
53.145966
21
67.408538
0
LINE
8
Layer 1
10
53.145966
20
67.408538
11
53.405189
21
64.665942
0
LINE
8
Layer 1
10
53.405189
20
64.665942
11
53.780735
21
62.528059
0
LINE
8
Layer 1
10
53.780735
20
62.528059
11
53.941256
21
61.640994
0
LINE
8
Layer 1
10
53.941256
20
61.640994
11
53.902130
21
60.935069
0
LINE
8
Layer 1
10
53.902130
20
60.935069
11
53.967742
21
60.070428
0
LINE
8
Layer 1
10
53.967742
20
60.070428
11
54.328531
21
59.474849
0
LINE
8
Layer 1
10
54.328531
20
59.474849
11
55.128678
21
58.396769
0
LINE
8
Layer 1
10
55.128678
20
58.396769
11
55.990155
21
56.828379
0
LINE
8
Layer 1
10
55.990155
20
56.828379
11
58.395268
21
53.068898
0
LINE
8
Layer 1
10
58.395268
20
53.068898
11
59.358305
21
51.898063
0
LINE
8
Layer 1
10
59.358305
20
51.898063
11
60.003935
21
51.412649
0
LINE
8
Layer 1
10
60.003935
20
51.412649
11
61.073973
21
50.622185
0
LINE
8
Layer 1
10
61.073973
20
50.622185
11
62.000665
21
49.628959
0
LINE
8
Layer 1
10
62.000665
20
49.628959
11
61.978792
21
49.058289
0
LINE
8
Layer 1
10
61.978792
20
49.058289
11
61.640731
21
48.681415
0
LINE
8
Layer 1
10
61.640731
20
48.681415
11
60.669662
21
48.590523
0
LINE
8
Layer 1
10
60.669662
20
48.590523
11
59.586660
21
48.403473
0
LINE
8
Layer 1
10
59.586660
20
48.403473
11
58.337042
21
47.815762
0
LINE
8
Layer 1
10
58.337042
20
47.815762
11
57.130695
21
46.953672
0
LINE
8
Layer 1
10
57.130695
20
46.953672
11
56.324982
21
46.053152
0
LINE
8
Layer 1
10
56.324982
20
46.053152
11
56.132460
21
45.162104
0
LINE
8
Layer 1
10
56.132460
20
45.162104
11
56.458445
21
44.268412
0
LINE
8
Layer 1
10
56.458445
20
44.268412
11
57.261092
21
43.556225
0
LINE
8
Layer 1
10
57.261092
20
43.556225
11
58.337253
21
43.072096
0
LINE
8
Layer 1
10
58.337253
20
43.072096
11
59.547321
21
42.858626
0
LINE
8
Layer 1
10
59.547321
20
42.858626
11
60.751685
21
42.958412
0
LINE
8
Layer 1
10
60.751685
20
42.958412
11
62.253628
21
43.621660
0
LINE
8
Layer 1
10
62.253628
20
43.621660
11
62.851993
21
44.099848
0
LINE
8
Layer 1
10
62.851993
20
44.099848
11
63.242075
21
44.605292
0
LINE
8
Layer 1
10
63.242075
20
44.605292
11
63.388551
21
45.564134
0
LINE
8
Layer 1
10
63.388551
20
45.564134
11
63.254296
21
46.971122
0
LINE
8
Layer 1
10
63.254296
20
46.971122
11
63.173730
21
47.928932
0
LINE
8
Layer 1
10
63.173730
20
47.928932
11
63.464422
21
48.514582
0
LINE
8
Layer 1
10
63.464422
20
48.514582
11
63.661629
21
48.658966
0
LINE
8
Layer 1
10
63.661629
20
48.658966
11
63.887258
21
48.632326
0
LINE
8
Layer 1
10
63.887258
20
48.632326
11
64.635082
21
47.967176
0
LINE
8
Layer 1
10
64.635082
20
47.967176
11
65.510055
21
46.926147
0
LINE
8
Layer 1
10
65.510055
20
46.926147
11
66.087540
21
45.950770
0
LINE
8
Layer 1
10
66.087540
20
45.950770
11
66.418754
21
44.928449
0
LINE
8
Layer 1
10
66.418754
20
44.928449
11
66.554912
21
43.746586
0
LINE
8
Layer 1
10
66.554912
20
43.746586
11
66.555488
21
42.716541
0
LINE
8
Layer 1
10
66.555488
20
42.716541
11
66.387261
21
41.971106
0
LINE
8
Layer 1
10
66.387261
20
41.971106
11
65.757573
21
40.629692
0
LINE
8
Layer 1
10
65.757573
20
40.629692
11
64.854591
21
39.298186
0
LINE
8
Layer 1
10
64.854591
20
39.298186
11
63.774470
21
38.309145
0
LINE
8
Layer 1
10
63.774470
20
38.309145
11
62.396661
21
37.365036
0
LINE
8
Layer 1
10
62.396661
20
37.365036
11
60.835417
21
36.684068
0
LINE
8
Layer 1
10
60.835417
20
36.684068
11
59.011571
21
36.142466
0
LINE
8
Layer 1
10
59.011571
20
36.142466
11
56.337489
21
35.879234
0
LINE
8
Layer 1
10
56.337489
20
35.879234
11
53.734801
21
36.034039
0
LINE
8
Layer 1
10
53.734801
20
36.034039
11
53.734800
21
36.034000
0
LINE
8
Layer 1
10
26.353400
20
39.282800
11
26.283362
21
39.490450
0
LINE
8
Layer 1
10
26.283362
20
39.490450
11
26.450395
21
39.338702
0
LINE
8
Layer 1
10
26.450395
20
39.338702
11
26.517925
21
39.138495
0
LINE
8
Layer 1
10
26.517925
20
39.138495
11
26.353401
21
39.282800
0
LINE
8
Layer 1
10
26.353401
20
39.282800
11
26.353400
21
39.282800
0
LINE
8
Layer 1
10
24.613110
20
43.447950
11
23.763891
21
46.498610
0
LINE
8
Layer 1
10
23.763891
20
46.498610
11
23.368140
21
48.240940
0
LINE
8
Layer 1
10
23.368140
20
48.240940
11
22.859830
21
50.580640
0
LINE
8
Layer 1
10
22.859830
20
50.580640
11
22.561978
21
52.024280
0
LINE
8
Layer 1
10
22.561978
20
52.024280
11
22.137671
21
54.180521
0
LINE
8
Layer 1
10
22.137671
20
54.180521
11
22.062955
21
55.235560
0
LINE
8
Layer 1
10
22.062955
20
55.235560
11
22.266388
21
55.696035
0
LINE
8
Layer 1
10
22.266388
20
55.696035
11
22.427314
21
55.935772
0
LINE
8
Layer 1
10
22.427314
20
55.935772
11
22.817369
21
53.608092
0
LINE
8
Layer 1
10
22.817369
20
53.608092
11
23.842630
21
47.254950
0
LINE
8
Layer 1
10
23.842630
20
47.254950
11
24.516829
21
44.507372
0
LINE
8
Layer 1
10
24.516829
20
44.507372
11
24.903655
21
43.428837
0
LINE
8
Layer 1
10
24.903655
20
43.428837
11
24.870983
21
43.213072
0
LINE
8
Layer 1
10
24.870983
20
43.213072
11
24.613113
21
43.447943
0
LINE
8
Layer 1
10
24.613113
20
43.447943
11
24.613110
21
43.447950
0
LINE
8
Layer 1
10
37.380310
20
49.095980
11
36.613976
21
49.394240
0
LINE
8
Layer 1
10
36.613976
20
49.394240
11
35.914849
21
49.906276
0
LINE
8
Layer 1
10
35.914849
20
49.906276
11
35.295490
21
50.620410
0
LINE
8
Layer 1
10
35.295490
20
50.620410
11
34.768460
21
51.524960
0
LINE
8
Layer 1
10
34.768460
20
51.524960
11
34.298117
21
52.848263
0
LINE
8
Layer 1
10
34.298117
20
52.848263
11
34.204191
21
54.714340
0
LINE
8
Layer 1
10
34.204191
20
54.714340
11
34.363776
21
56.589639
0
LINE
8
Layer 1
10
34.363776
20
56.589639
11
35.023295
21
58.246890
0
LINE
8
Layer 1
10
35.023295
20
58.246890
11
35.798650
21
59.459331
0
LINE
8
Layer 1
10
35.798650
20
59.459331
11
36.739035
21
60.378530
0
LINE
8
Layer 1
10
36.739035
20
60.378530
11
37.714972
21
60.851575
0
LINE
8
Layer 1
10
37.714972
20
60.851575
11
38.834085
21
61.045467
0
LINE
8
Layer 1
10
38.834085
20
61.045467
11
39.846324
21
60.894916
0
LINE
8
Layer 1
10
39.846324
20
60.894916
11
40.393605
21
60.617716
0
LINE
8
Layer 1
10
40.393605
20
60.617716
11
40.219372
21
60.586272
0
LINE
8
Layer 1
10
40.219372
20
60.586272
11
39.560696
21
60.732604
0
LINE
8
Layer 1
10
39.560696
20
60.732604
11
38.774086
21
60.734022
0
LINE
8
Layer 1
10
38.774086
20
60.734022
11
37.998972
21
60.602169
0
LINE
8
Layer 1
10
37.998972
20
60.602169
11
37.374782
21
60.348691
0
LINE
8
Layer 1
10
37.374782
20
60.348691
11
36.653569
21
59.721919
0
LINE
8
Layer 1
10
36.653569
20
59.721919
11
35.935004
21
58.795230
0
LINE
8
Layer 1
10
35.935004
20
58.795230
11
35.321893
21
57.722947
0
LINE
8
Layer 1
10
35.321893
20
57.722947
11
34.917042
21
56.659391
0
LINE
8
Layer 1
10
34.917042
20
56.659391
11
34.664309
21
54.907191
0
LINE
8
Layer 1
10
34.664309
20
54.907191
11
34.632534
21
53.542601
0
LINE
8
Layer 1
10
34.632534
20
53.542601
11
34.764194
21
53.393131
0
LINE
8
Layer 1
10
34.764194
20
53.393131
11
34.922922
21
53.418213
0
LINE
8
Layer 1
10
34.922922
20
53.418213
11
35.395744
21
54.040410
0
LINE
8
Layer 1
10
35.395744
20
54.040410
11
36.134875
21
55.016808
0
LINE
8
Layer 1
10
36.134875
20
55.016808
11
36.957894
21
55.506380
0
LINE
8
Layer 1
10
36.957894
20
55.506380
11
37.965005
21
55.613161
0
LINE
8
Layer 1
10
37.965005
20
55.613161
11
38.905354
21
55.405407
0
LINE
8
Layer 1
10
38.905354
20
55.405407
11
39.414511
21
55.008259
0
LINE
8
Layer 1
10
39.414511
20
55.008259
11
39.875466
21
54.399960
0
LINE
8
Layer 1
10
39.875466
20
54.399960
11
40.238620
21
53.661561
0
LINE
8
Layer 1
10
40.238620
20
53.661561
11
40.454374
21
52.874117
0
LINE
8
Layer 1
10
40.454374
20
52.874117
11
40.443791
21
52.020150
0
LINE
8
Layer 1
10
40.443791
20
52.020150
11
40.235260
21
51.509247
0
LINE
8
Layer 1
10
40.235260
20
51.509247
11
39.720242
21
51.716874
0
LINE
8
Layer 1
10
39.720242
20
51.716874
11
39.234660
21
52.304238
0
LINE
8
Layer 1
10
39.234660
20
52.304238
11
38.971874
21
52.720199
0
LINE
8
Layer 1
10
38.971874
20
52.720199
11
38.644086
21
52.980439
0
LINE
8
Layer 1
10
38.644086
20
52.980439
11
38.280842
21
53.070001
0
LINE
8
Layer 1
10
38.280842
20
53.070001
11
37.911690
21
52.973928
0
LINE
8
Layer 1
10
37.911690
20
52.973928
11
37.658843
21
52.698107
0
LINE
8
Layer 1
10
37.658843
20
52.698107
11
37.544725
21
52.282802
0
LINE
8
Layer 1
10
37.544725
20
52.282802
11
37.579130
21
51.834163
0
LINE
8
Layer 1
10
37.579130
20
51.834163
11
37.771852
21
51.458338
0
LINE
8
Layer 1
10
37.771852
20
51.458338
11
38.043285
21
51.314980
0
LINE
8
Layer 1
10
38.043285
20
51.314980
11
38.620141
21
51.277572
0
LINE
8
Layer 1
10
38.620141
20
51.277572
11
39.588988
21
51.146763
0
LINE
8
Layer 1
10
39.588988
20
51.146763
11
39.995381
21
50.834912
0
LINE
8
Layer 1
10
39.995381
20
50.834912
11
39.646913
21
50.295064
0
LINE
8
Layer 1
10
39.646913
20
50.295064
11
39.298448
21
49.734162
0
LINE
8
Layer 1
10
39.298448
20
49.734162
11
39.367418
21
49.602787
0
LINE
8
Layer 1
10
39.367418
20
49.602787
11
39.668802
21
49.619069
0
LINE
8
Layer 1
10
39.668802
20
49.619069
11
40.039156
21
49.679171
0
LINE
8
Layer 1
10
40.039156
20
49.679171
11
39.743472
21
49.502988
0
LINE
8
Layer 1
10
39.743472
20
49.502988
11
38.887016
21
49.152508
0
LINE
8
Layer 1
10
38.887016
20
49.152508
11
38.067382
21
48.997653
0
LINE
8
Layer 1
10
38.067382
20
48.997653
11
37.380338
21
49.095982
0
LINE
8
Layer 1
10
37.380338
20
49.095982
11
37.380310
21
49.095980
0
LINE
8
Layer 1
10
48.059810
20
52.436890
11
46.834627
21
52.836831
0
LINE
8
Layer 1
10
46.834627
20
52.836831
11
45.670282
21
53.537863
0
LINE
8
Layer 1
10
45.670282
20
53.537863
11
44.650647
21
54.477002
0
LINE
8
Layer 1
10
44.650647
20
54.477002
11
43.859590
21
55.591260
0
LINE
8
Layer 1
10
43.859590
20
55.591260
11
43.239335
21
57.083050
0
LINE
8
Layer 1
10
43.239335
20
57.083050
11
42.982165
21
58.426440
0
LINE
8
Layer 1
10
42.982165
20
58.426440
11
43.101464
21
59.322334
0
LINE
8
Layer 1
10
43.101464
20
59.322334
11
43.415196
21
60.255361
0
LINE
8
Layer 1
10
43.415196
20
60.255361
11
43.857112
21
61.072118
0
LINE
8
Layer 1
10
43.857112
20
61.072118
11
44.360965
21
61.619200
0
LINE
8
Layer 1
10
44.360965
20
61.619200
11
45.682265
21
62.229354
0
LINE
8
Layer 1
10
45.682265
20
62.229354
11
45.686030
21
62.150203
0
LINE
8
Layer 1
10
45.686030
20
62.150203
11
45.290880
21
61.924345
0
LINE
8
Layer 1
10
45.290880
20
61.924345
11
44.375743
21
61.250559
0
LINE
8
Layer 1
10
44.375743
20
61.250559
11
43.743449
21
60.324659
0
LINE
8
Layer 1
10
43.743449
20
60.324659
11
43.430075
21
59.223960
0
LINE
8
Layer 1
10
43.430075
20
59.223960
11
43.471700
21
58.025775
0
LINE
8
Layer 1
10
43.471700
20
58.025775
11
43.933788
21
56.457113
0
LINE
8
Layer 1
10
43.933788
20
56.457113
11
44.865830
21
54.932955
0
LINE
8
Layer 1
10
44.865830
20
54.932955
11
45.427429
21
54.463546
0
LINE
8
Layer 1
10
45.427429
20
54.463546
11
45.620679
21
54.574063
0
LINE
8
Layer 1
10
45.620679
20
54.574063
11
45.687525
21
55.185368
0
LINE
8
Layer 1
10
45.687525
20
55.185368
11
45.983742
21
56.475795
0
LINE
8
Layer 1
10
45.983742
20
56.475795
11
46.282836
21
56.960982
0
LINE
8
Layer 1
10
46.282836
20
56.960982
11
46.672203
21
57.317008
0
LINE
8
Layer 1
10
46.672203
20
57.317008
11
47.130086
21
57.542760
0
LINE
8
Layer 1
10
47.130086
20
57.542760
11
47.701543
21
57.598059
0
LINE
8
Layer 1
10
47.701543
20
57.598059
11
48.279559
21
57.544088
0
LINE
8
Layer 1
10
48.279559
20
57.544088
11
48.756753
21
57.297747
0
LINE
8
Layer 1
10
48.756753
20
57.297747
11
49.513060
21
56.508379
0
LINE
8
Layer 1
10
49.513060
20
56.508379
11
49.953773
21
55.448407
0
LINE
8
Layer 1
10
49.953773
20
55.448407
11
50.032191
21
54.925689
0
LINE
8
Layer 1
10
50.032191
20
54.925689
11
49.925607
21
54.693675
0
LINE
8
Layer 1
10
49.925607
20
54.693675
11
49.707256
21
54.586649
0
LINE
8
Layer 1
10
49.707256
20
54.586649
11
49.298998
21
54.625380
0
LINE
8
Layer 1
10
49.298998
20
54.625380
11
48.758560
21
54.861797
0
LINE
8
Layer 1
10
48.758560
20
54.861797
11
48.415990
21
55.504067
0
LINE
8
Layer 1
10
48.415990
20
55.504067
11
48.087741
21
55.639250
0
LINE
8
Layer 1
10
48.087741
20
55.639250
11
47.804964
21
55.611903
0
LINE
8
Layer 1
10
47.804964
20
55.611903
11
47.610696
21
55.421672
0
LINE
8
Layer 1
10
47.610696
20
55.421672
11
47.473029
21
54.975052
0
LINE
8
Layer 1
10
47.473029
20
54.975052
11
47.638408
21
54.581209
0
LINE
8
Layer 1
10
47.638408
20
54.581209
11
48.071482
21
54.281136
0
LINE
8
Layer 1
10
48.071482
20
54.281136
11
48.736896
21
54.115822
0
LINE
8
Layer 1
10
48.736896
20
54.115822
11
49.530063
21
53.957024
0
LINE
8
Layer 1
10
49.530063
20
53.957024
11
49.684010
21
53.676021
0
LINE
8
Layer 1
10
49.684010
20
53.676021
11
49.492717
21
53.359444
0
LINE
8
Layer 1
10
49.492717
20
53.359444
11
49.354132
21
53.057498
0
LINE
8
Layer 1
10
49.354132
20
53.057498
11
49.430553
21
52.907479
0
LINE
8
Layer 1
10
49.430553
20
52.907479
11
49.741129
21
52.870565
0
LINE
8
Layer 1
10
49.741129
20
52.870565
11
50.612554
21
53.198880
0
LINE
8
Layer 1
10
50.612554
20
53.198880
11
51.542159
21
54.082465
0
LINE
8
Layer 1
10
51.542159
20
54.082465
11
52.023788
21
54.614812
0
LINE
8
Layer 1
10
52.023788
20
54.614812
11
51.792080
21
54.086184
0
LINE
8
Layer 1
10
51.792080
20
54.086184
11
51.216791
21
53.349052
0
LINE
8
Layer 1
10
51.216791
20
53.349052
11
50.258715
21
52.703400
0
LINE
8
Layer 1
10
50.258715
20
52.703400
11
49.055451
21
52.439222
0
LINE
8
Layer 1
10
49.055451
20
52.439222
11
48.059834
21
52.436964
0
LINE
8
Layer 1
10
48.059834
20
52.436964
11
48.059810
21
52.436890
0
LINE
8
Layer 1
10
28.676100
20
59.393000
11
28.080488
21
59.924462
0
LINE
8
Layer 1
10
28.080488
20
59.924462
11
27.165600
21
61.482600
0
LINE
8
Layer 1
10
27.165600
20
61.482600
11
25.435525
21
64.182563
0
LINE
8
Layer 1
10
25.435525
20
64.182563
11
23.101100
21
66.667800
0
LINE
8
Layer 1
10
23.101100
20
66.667800
11
21.095925
21
68.439784
0
LINE
8
Layer 1
10
21.095925
20
68.439784
11
19.395475
21
69.704225
0
LINE
8
Layer 1
10
19.395475
20
69.704225
11
17.974587
21
70.477528
0
LINE
8
Layer 1
10
17.974587
20
70.477528
11
16.808100
21
70.776100
0
LINE
8
Layer 1
10
16.808100
20
70.776100
11
16.261522
21
70.775444
0
LINE
8
Layer 1
10
16.261522
20
70.775444
11
16.033780
21
70.635925
0
LINE
8
Layer 1
10
16.033780
20
70.635925
11
15.901629
21
70.176480
0
LINE
8
Layer 1
10
15.901629
20
70.176480
11
16.004110
21
69.468792
0
LINE
8
Layer 1
10
16.004110
20
69.468792
11
16.926575
21
67.257185
0
LINE
8
Layer 1
10
16.926575
20
67.257185
11
19.084225
21
63.476294
0
LINE
8
Layer 1
10
19.084225
20
63.476294
11
21.341695
21
59.932875
0
LINE
8
Layer 1
10
21.341695
20
59.932875
11
21.610633
21
59.443690
0
LINE
8
Layer 1
10
21.610633
20
59.443690
11
20.931346
21
60.016169
0
LINE
8
Layer 1
10
20.931346
20
60.016169
11
19.575700
21
61.233700
0
LINE
8
Layer 1
10
19.575700
20
61.233700
11
15.297525
21
65.171963
0
LINE
8
Layer 1
10
15.297525
20
65.171963
11
13.588928
21
66.947758
0
LINE
8
Layer 1
10
13.588928
20
66.947758
11
12.479000
21
68.285000
0
LINE
8
Layer 1
10
12.479000
20
68.285000
11
11.719350
21
69.629675
0
LINE
8
Layer 1
10
11.719350
20
69.629675
11
11.359900
21
70.850300
0
LINE
8
Layer 1
10
11.359900
20
70.850300
11
11.462685
21
72.013101
0
LINE
8
Layer 1
10
11.462685
20
72.013101
11
11.975367
21
73.576690
0
LINE
8
Layer 1
10
11.975367
20
73.576690
11
12.461864
21
74.500033
0
LINE
8
Layer 1
10
12.461864
20
74.500033
11
13.090807
21
75.043450
0
LINE
8
Layer 1
10
13.090807
20
75.043450
11
13.423531
21
75.206529
0
LINE
8
Layer 1
10
13.423531
20
75.206529
11
13.795775
21
75.239153
0
LINE
8
Layer 1
10
13.795775
20
75.239153
11
15.453357
21
74.846952
0
LINE
8
Layer 1
10
15.453357
20
74.846952
11
17.346864
21
74.445169
0
LINE
8
Layer 1
10
17.346864
20
74.445169
11
18.553597
21
74.465795
0
LINE
8
Layer 1
10
18.553597
20
74.465795
11
19.144011
21
74.698533
0
LINE
8
Layer 1
10
19.144011
20
74.698533
11
19.746943
21
75.144433
0
LINE
8
Layer 1
10
19.746943
20
75.144433
11
21.576397
21
77.207205
0
LINE
8
Layer 1
10
21.576397
20
77.207205
11
22.785898
21
78.631290
0
LINE
8
Layer 1
10
22.785898
20
78.631290
11
23.713943
21
79.541741
0
LINE
8
Layer 1
10
23.713943
20
79.541741
11
24.565341
21
80.108590
0
LINE
8
Layer 1
10
24.565341
20
80.108590
11
25.544897
21
80.501865
0
LINE
8
Layer 1
10
25.544897
20
80.501865
11
26.876499
21
80.622093
0
LINE
8
Layer 1
10
26.876499
20
80.622093
11
28.502737
21
80.394819
0
LINE
8
Layer 1
10
28.502737
20
80.394819
11
29.485667
21
80.051381
0
LINE
8
Layer 1
10
29.485667
20
80.051381
11
30.388324
21
79.553308
0
LINE
8
Layer 1
10
30.388324
20
79.553308
11
31.204614
21
78.908279
0
LINE
8
Layer 1
10
31.204614
20
78.908279
11
31.928443
21
78.123975
0
LINE
8
Layer 1
10
31.928443
20
78.123975
11
32.553717
21
77.208076
0
LINE
8
Layer 1
10
32.553717
20
77.208076
11
33.074342
21
76.168262
0
LINE
8
Layer 1
10
33.074342
20
76.168262
11
33.777267
21
73.747609
0
LINE
8
Layer 1
10
33.777267
20
73.747609
11
34.093367
21
72.409529
0
LINE
8
Layer 1
10
34.093367
20
72.409529
11
34.200507
21
71.826703
0
LINE
8
Layer 1
10
34.200507
20
71.826703
11
34.133019
21
70.654449
0
LINE
8
Layer 1
10
34.133019
20
70.654449
11
33.699139
21
67.626069
0
LINE
8
Layer 1
10
33.699139
20
67.626069
11
32.974666
21
64.800586
0
LINE
8
Layer 1
10
32.974666
20
64.800586
11
32.037049
21
62.420563
0
LINE
8
Layer 1
10
32.037049
20
62.420563
11
30.963739
21
60.728559
0
LINE
8
Layer 1
10
30.963739
20
60.728559
11
29.647482
21
59.536941
0
LINE
8
Layer 1
10
29.647482
20
59.536941
11
29.126881
21
59.338846
0
LINE
8
Layer 1
10
29.126881
20
59.338846
11
28.676029
21
59.393089
0
LINE
8
Layer 1
10
28.676029
20
59.393089
11
28.676100
21
59.393000
0
LINE
8
Layer 1
10
40.878700
20
60.204585
11
40.799750
21
60.324637
0
LINE
8
Layer 1
10
40.799750
20
60.324637
11
40.966073
21
60.250863
0
LINE
8
Layer 1
10
40.966073
20
60.250863
11
41.178302
21
60.098610
0
LINE
8
Layer 1
10
41.178302
20
60.098610
11
41.102714
21
60.038942
0
LINE
8
Layer 1
10
41.102714
20
60.038942
11
40.878700
21
60.204585
0
LINE
8
Layer 1
10
40.878700
20
60.204585
11
40.878700
21
60.204585
0
LINE
8
Layer 1
10
54.390700
20
62.595425
11
54.194324
21
64.592555
0
LINE
8
Layer 1
10
54.194324
20
64.592555
11
54.674130
21
65.570697
0
LINE
8
Layer 1
10
54.674130
20
65.570697
11
55.388211
21
66.403940
0
LINE
8
Layer 1
10
55.388211
20
66.403940
11
56.218971
21
66.984651
0
LINE
8
Layer 1
10
56.218971
20
66.984651
11
57.048814
21
67.205195
0
LINE
8
Layer 1
10
57.048814
20
67.205195
11
57.620126
21
67.068293
0
LINE
8
Layer 1
10
57.620126
20
67.068293
11
57.916474
21
66.799707
0
LINE
8
Layer 1
10
57.916474
20
66.799707
11
57.543117
21
66.520909
0
LINE
8
Layer 1
10
57.543117
20
66.520909
11
56.716247
21
65.825022
0
LINE
8
Layer 1
10
56.716247
20
65.825022
11
55.738187
21
64.369869
0
LINE
8
Layer 1
10
55.738187
20
64.369869
11
54.741266
21
62.744759
0
LINE
8
Layer 1
10
54.741266
20
62.744759
11
54.450814
21
62.314389
0
LINE
8
Layer 1
10
54.450814
20
62.314389
11
54.390700
21
62.595425
0
LINE
8
Layer 1
10
41.787500
20
80.519825
11
41.961735
21
80.760432
0
LINE
8
Layer 1
10
41.961735
20
80.760432
11
42.086922
21
80.845661
0
LINE
8
Layer 1
10
42.086922
20
80.845661
11
41.989901
21
80.697951
0
LINE
8
Layer 1
10
41.989901
20
80.697951
11
41.815668
21
80.457344
0
LINE
8
Layer 1
10
41.815668
20
80.457344
11
41.787502
21
80.519825
0
LINE
8
Layer 1
10
41.787502
20
80.519825
11
41.787500
21
80.519825
 0 
ENDSEC
 0 
EOF